{
  "basePath" : "${rest.cloud.basepath}",
  "paths" : {
    "/services/UNIVERSAL_RATE/ImQuestionAnswerLookup" : {
      "post" : {
        "x-WM-METHOD_NAME" : "invoke",
        "x-WM-ACCESS_SPECIFIER" : "APP_ONLY",
        "operationId" : "cloud_RestServiceVirtualController-invoke",
        "responses" : {
          "200" : {
            "schema" : {
              "$ref" : "#/definitions/RootResponse"
            },
            "description" : "Success"
          }
        },
        "parameters" : [ {
          "schema" : {
            "$ref" : "#/definitions/RootRequest"
          },
          "in" : "body",
          "name" : "RequestBody",
          "description" : "RequestBody",
          "x-WM-FULLY_QUALIFIED_TYPE" : "java.lang.Object",
          "required" : false
        } ],
        "tags" : [ "RestServiceVirtualController" ],
        "consumes" : [ "application/json" ]
      },
      "x-WM-BASE_PATH" : "/services/UNIVERSAL_RATE/ImQuestionAnswerLookup",
      "x-WM-TAG" : "RestServiceVirtualController",
      "x-WM-RELATIVE_PATH" : "",
      "x-WM-COMPLETE_PATH" : "${rest.cloud.scheme}://${rest.cloud.host}${rest.cloud.basepath}/services/UNIVERSAL_RATE/ImQuestionAnswerLookup"
    }
  },
  "host" : "${rest.cloud.host}",
  "schemes" : [ "${rest.cloud.scheme}" ],
  "definitions" : {
    "imQuestionMaster" : {
      "x-WM-FULLY_QUALIFIED_NAME" : "cloud.imQuestionMaster",
      "x-WM-TAGS" : [ "RestServiceVirtualController" ],
      "required" : [ "answerDataType", "answerText", "carrierListId", "displayOrder", "effDate", "expDate", "imCarrierList", "insertTimestamp", "insertedBy", "nodeName", "product", "questionMasterId", "questionText", "recordLock", "showHideInd", "stateCd", "updateTimestamp", "updatedBy" ],
      "properties" : {
        "nodeName" : {
          "type" : "string"
        },
        "answerDataType" : {
          "type" : "string"
        },
        "product" : {
          "type" : "string"
        },
        "updatedBy" : {
          "type" : "string"
        },
        "answerText" : {
          "type" : "string"
        },
        "showHideInd" : {
          "type" : "string"
        },
        "displayOrder" : {
          "format" : "int32",
          "type" : "integer"
        },
        "insertTimestamp" : {
          "type" : "string"
        },
        "expDate" : {
          "type" : "string"
        },
        "questionText" : {
          "type" : "string"
        },
        "updateTimestamp" : {
          "type" : "string"
        },
        "insertedBy" : {
          "type" : "string"
        },
        "carrierListId" : {
          "format" : "int32",
          "type" : "integer"
        },
        "effDate" : {
          "type" : "string"
        },
        "imCarrierList" : {
          "$ref" : "#/definitions/imCarrierList"
        },
        "recordLock" : {
          "type" : "string"
        },
        "stateCd" : {
          "type" : "string"
        },
        "questionMasterId" : {
          "format" : "int32",
          "type" : "integer"
        }
      }
    },
    "imCarrierList" : {
      "x-WM-FULLY_QUALIFIED_NAME" : "cloud.imCarrierList",
      "x-WM-TAGS" : [ "RestServiceVirtualController" ],
      "required" : [ "carrierId", "carrierListId", "carrierName", "company", "insertTimestamp", "insertedBy", "updateTimestamp", "updatedBy", "versionNum" ],
      "properties" : {
        "insertedBy" : {
          "type" : "string"
        },
        "carrierListId" : {
          "format" : "int32",
          "type" : "integer"
        },
        "updatedBy" : {
          "type" : "string"
        },
        "carrierName" : {
          "type" : "string"
        },
        "versionNum" : {
          "type" : "string"
        },
        "company" : {
          "type" : "string"
        },
        "insertTimestamp" : {
          "type" : "string"
        },
        "carrierId" : {
          "format" : "int32",
          "type" : "integer"
        },
        "updateTimestamp" : {
          "type" : "string"
        }
      }
    },
    "RootRequest" : {
      "x-WM-FULLY_QUALIFIED_NAME" : "cloud.RootRequest",
      "x-WM-TAGS" : [ "RestServiceVirtualController" ],
      "required" : [ "answerKey", "answerValue", "defaultInd", "displayOrder", "insertTimestamp", "insertedBy", "questionAnswerId", "questionMasterId", "updateTimestamp", "updatedBy" ],
      "properties" : {
        "answerKey" : {
          "type" : "string"
        },
        "insertedBy" : {
          "type" : "string"
        },
        "updatedBy" : {
          "type" : "string"
        },
        "answerValue" : {
          "type" : "string"
        },
        "displayOrder" : {
          "format" : "int32",
          "type" : "integer"
        },
        "questionAnswerId" : {
          "format" : "int32",
          "type" : "integer"
        },
        "questionMasterId" : {
          "format" : "int32",
          "type" : "integer"
        },
        "insertTimestamp" : {
          "type" : "string"
        },
        "defaultInd" : {
          "type" : "string"
        },
        "updateTimestamp" : {
          "type" : "string"
        }
      }
    },
    "RootResponse" : {
      "x-WM-FULLY_QUALIFIED_NAME" : "cloud.RootResponse",
      "x-WM-TAGS" : [ "RestServiceVirtualController" ],
      "required" : [ "answerKey", "answerValue", "defaultInd", "displayOrder", "imQuestionMaster", "insertTimestamp", "insertedBy", "questionAnswerId", "questionMasterId", "updateTimestamp", "updatedBy" ],
      "properties" : {
        "imQuestionMaster" : {
          "$ref" : "#/definitions/imQuestionMaster"
        },
        "answerKey" : {
          "type" : "string"
        },
        "insertedBy" : {
          "type" : "string"
        },
        "updatedBy" : {
          "type" : "string"
        },
        "answerValue" : {
          "type" : "string"
        },
        "displayOrder" : {
          "format" : "int32",
          "type" : "integer"
        },
        "questionAnswerId" : {
          "format" : "int32",
          "type" : "integer"
        },
        "questionMasterId" : {
          "format" : "int32",
          "type" : "integer"
        },
        "insertTimestamp" : {
          "type" : "string"
        },
        "defaultInd" : {
          "type" : "string"
        },
        "updateTimestamp" : {
          "type" : "string"
        }
      }
    }
  },
  "swagger" : "2.0",
  "info" : {
    "x-WM-USE_PROXY_FOR_WEB" : true,
    "x-WM-USE_PROXY_FOR_MOBILE" : true,
    "x-WM-API_ID" : "54e0bcd1-edd4-4a87-8db3-ec044852349e",
    "x-WM-SERVICE_ID" : "cloud2",
    "version" : "2.0",
    "x-WM-SERVICE_TYPE" : "RestService"
  },
  "tags" : [ {
    "name" : "RestServiceVirtualController",
    "description" : "Rest service swagger documentation"
  } ]
}