{
  "basePath" : "${rest.CreateImVehicleCoverage.basepath}",
  "paths" : {
    "/services/UNIVERSAL_RATE/ImVehicleCoverage" : {
      "post" : {
        "x-WM-METHOD_NAME" : "invoke",
        "x-WM-ACCESS_SPECIFIER" : "APP_ONLY",
        "operationId" : "CreateImVehicleCoverage_RestServiceVirtualController-invoke",
        "responses" : {
          "200" : {
            "schema" : {
              "$ref" : "#/definitions/RootResponse"
            },
            "description" : "Success"
          }
        },
        "parameters" : [ {
          "schema" : {
            "$ref" : "#/definitions/RootRequest"
          },
          "in" : "body",
          "name" : "RequestBody",
          "description" : "RequestBody",
          "x-WM-FULLY_QUALIFIED_TYPE" : "java.lang.Object",
          "required" : false
        } ],
        "tags" : [ "RestServiceVirtualController" ],
        "consumes" : [ "application/json" ]
      },
      "x-WM-BASE_PATH" : "/services/UNIVERSAL_RATE/ImVehicleCoverage",
      "x-WM-TAG" : "RestServiceVirtualController",
      "x-WM-RELATIVE_PATH" : "",
      "x-WM-COMPLETE_PATH" : "${rest.CreateImVehicleCoverage.scheme}://${rest.CreateImVehicleCoverage.host}${rest.CreateImVehicleCoverage.basepath}/services/UNIVERSAL_RATE/ImVehicleCoverage"
    }
  },
  "host" : "${rest.CreateImVehicleCoverage.host}",
  "schemes" : [ "${rest.CreateImVehicleCoverage.scheme}" ],
  "definitions" : {
    "imPolicyInfo" : {
      "x-WM-FULLY_QUALIFIED_NAME" : "CreateImVehicleCoverage.imPolicyInfo",
      "x-WM-TAGS" : [ "RestServiceVirtualController" ],
      "required" : [ "company", "creditCheckAuth", "effective", "insertTimestamp", "insertedBy", "insuramatchId", "package_", "polNum", "polSeqNum", "policyId", "policyTerm", "riskState", "updateTimestamp", "updatedBy", "versionNum" ],
      "properties" : {
        "creditCheckAuth" : {
          "type" : "string"
        },
        "updatedBy" : {
          "type" : "string"
        },
        "insuramatchId" : {
          "type" : "string"
        },
        "policyTerm" : {
          "type" : "string"
        },
        "versionNum" : {
          "type" : "string"
        },
        "insertTimestamp" : {
          "type" : "string"
        },
        "polSeqNum" : {
          "type" : "string"
        },
        "updateTimestamp" : {
          "type" : "string"
        },
        "effective" : {
          "type" : "string"
        },
        "insertedBy" : {
          "type" : "string"
        },
        "policyId" : {
          "format" : "int32",
          "type" : "integer"
        },
        "polNum" : {
          "type" : "string"
        },
        "package_" : {
          "type" : "string"
        },
        "company" : {
          "type" : "string"
        },
        "riskState" : {
          "type" : "string"
        }
      }
    },
    "RootRequest" : {
      "x-WM-FULLY_QUALIFIED_NAME" : "CreateImVehicleCoverage.RootRequest",
      "x-WM-TAGS" : [ "RestServiceVirtualController" ],
      "required" : [ "collDeduct", "comprehensive", "fullGlass", "imPolicyInfo", "imVehicle", "insertTimestamp", "insertedBy", "liabilityNotRequired", "loanLeseCov", "otherCollDeduct", "policyId", "rentalDeduct", "replacemntCost", "statedAmount", "towingDeduct", "updateTimestamp", "updatedBy", "vehicleCoverageId", "vehicleId", "versionNum", "waiwerCollDamage" ],
      "properties" : {
        "towingDeduct" : {
          "type" : "string"
        },
        "imPolicyInfo" : {
          "$ref" : "#/definitions/imPolicyInfo"
        },
        "statedAmount" : {
          "type" : "string"
        },
        "updatedBy" : {
          "type" : "string"
        },
        "rentalDeduct" : {
          "type" : "string"
        },
        "replacemntCost" : {
          "type" : "string"
        },
        "imVehicle" : {
          "type" : "string"
        },
        "versionNum" : {
          "type" : "string"
        },
        "otherCollDeduct" : {
          "type" : "string"
        },
        "insertTimestamp" : {
          "type" : "string"
        },
        "updateTimestamp" : {
          "type" : "string"
        },
        "vehicleCoverageId" : {
          "format" : "int32",
          "type" : "integer"
        },
        "insertedBy" : {
          "type" : "string"
        },
        "policyId" : {
          "format" : "int32",
          "type" : "integer"
        },
        "collDeduct" : {
          "type" : "string"
        },
        "loanLeseCov" : {
          "type" : "string"
        },
        "waiwerCollDamage" : {
          "type" : "string"
        },
        "fullGlass" : {
          "type" : "string"
        },
        "liabilityNotRequired" : {
          "type" : "string"
        },
        "vehicleId" : {
          "type" : "string"
        },
        "comprehensive" : {
          "type" : "string"
        }
      }
    },
    "RootResponse" : {
      "x-WM-FULLY_QUALIFIED_NAME" : "CreateImVehicleCoverage.RootResponse",
      "x-WM-TAGS" : [ "RestServiceVirtualController" ],
      "required" : [ "collDeduct", "comprehensive", "fullGlass", "imPolicyInfo", "imVehicle", "insertTimestamp", "insertedBy", "liabilityNotRequired", "loanLeseCov", "otherCollDeduct", "policyId", "rentalDeduct", "replacemntCost", "statedAmount", "towingDeduct", "updateTimestamp", "updatedBy", "vehicleCoverageId", "vehicleId", "versionNum", "waiwerCollDamage" ],
      "properties" : {
        "towingDeduct" : {
          "type" : "string"
        },
        "imPolicyInfo" : {
          "$ref" : "#/definitions/imPolicyInfo"
        },
        "statedAmount" : {
          "type" : "string"
        },
        "updatedBy" : {
          "type" : "string"
        },
        "rentalDeduct" : {
          "type" : "string"
        },
        "replacemntCost" : {
          "type" : "string"
        },
        "imVehicle" : {
          "type" : "string"
        },
        "versionNum" : {
          "type" : "string"
        },
        "otherCollDeduct" : {
          "type" : "string"
        },
        "insertTimestamp" : {
          "type" : "string"
        },
        "updateTimestamp" : {
          "type" : "string"
        },
        "vehicleCoverageId" : {
          "format" : "int32",
          "type" : "integer"
        },
        "insertedBy" : {
          "type" : "string"
        },
        "policyId" : {
          "format" : "int32",
          "type" : "integer"
        },
        "collDeduct" : {
          "type" : "string"
        },
        "loanLeseCov" : {
          "type" : "string"
        },
        "waiwerCollDamage" : {
          "type" : "string"
        },
        "fullGlass" : {
          "type" : "string"
        },
        "liabilityNotRequired" : {
          "type" : "string"
        },
        "vehicleId" : {
          "type" : "string"
        },
        "comprehensive" : {
          "type" : "string"
        }
      }
    }
  },
  "swagger" : "2.0",
  "info" : {
    "x-WM-USE_PROXY_FOR_WEB" : true,
    "x-WM-USE_PROXY_FOR_MOBILE" : true,
    "x-WM-API_ID" : "3cbf0566-7557-4be6-b7bc-7269731e97bf",
    "x-WM-SERVICE_ID" : "cloud",
    "version" : "2.0",
    "x-WM-SERVICE_TYPE" : "RestService"
  },
  "tags" : [ {
    "name" : "RestServiceVirtualController",
    "description" : "Rest service swagger documentation"
  } ]
}