{
  "basePath" : "${rest.deleteImDriver.basepath}",
  "paths" : {
    "/services/UNIVERSAL_RATE/ImDriver/{ID}" : {
      "x-WM-BASE_PATH" : "/services/UNIVERSAL_RATE/ImDriver/{ID}",
      "x-WM-TAG" : "RestServiceVirtualController",
      "x-WM-RELATIVE_PATH" : "",
      "x-WM-COMPLETE_PATH" : "${rest.deleteImDriver.scheme}://${rest.deleteImDriver.host}${rest.deleteImDriver.basepath}/services/UNIVERSAL_RATE/ImDriver/{ID}",
      "delete" : {
        "x-WM-METHOD_NAME" : "invoke",
        "x-WM-ACCESS_SPECIFIER" : "APP_ONLY",
        "produces" : [ "application/json" ],
        "operationId" : "deleteImDriver_RestServiceVirtualController-invoke",
        "responses" : {
          "200" : {
            "schema" : {
              "$ref" : "#/definitions/RootResponse"
            },
            "description" : "Success"
          }
        },
        "parameters" : [ {
          "in" : "path",
          "name" : "ID",
          "type" : "string",
          "required" : true
        } ],
        "tags" : [ "RestServiceVirtualController" ],
        "consumes" : [ "application/json" ]
      }
    }
  },
  "host" : "${rest.deleteImDriver.host}",
  "schemes" : [ "${rest.deleteImDriver.scheme}" ],
  "definitions" : {
    "RootResponse" : {
      "x-WM-FULLY_QUALIFIED_NAME" : "deleteImDriver.RootResponse",
      "x-WM-TAGS" : [ "RestServiceVirtualController" ]
    }
  },
  "swagger" : "2.0",
  "info" : {
    "x-WM-USE_PROXY_FOR_WEB" : true,
    "x-WM-USE_PROXY_FOR_MOBILE" : true,
    "x-WM-API_ID" : "09642c4a-3f79-451b-a090-9f91e972af34",
    "x-WM-SERVICE_ID" : "cloud2",
    "version" : "2.0",
    "x-WM-SERVICE_TYPE" : "RestService"
  },
  "tags" : [ {
    "name" : "RestServiceVirtualController",
    "description" : "Rest service swagger documentation"
  } ]
}