{
  "basePath" : "${rest.UpdateImStateSpecificCoverage.basepath}",
  "paths" : {
    "/services/UNIVERSAL_RATE/ImStateSpecificCoverage/{ID}" : {
      "x-WM-BASE_PATH" : "/services/UNIVERSAL_RATE/ImStateSpecificCoverage/{ID}",
      "x-WM-TAG" : "RestServiceVirtualController",
      "x-WM-RELATIVE_PATH" : "",
      "x-WM-COMPLETE_PATH" : "${rest.UpdateImStateSpecificCoverage.scheme}://${rest.UpdateImStateSpecificCoverage.host}${rest.UpdateImStateSpecificCoverage.basepath}/services/UNIVERSAL_RATE/ImStateSpecificCoverage/{ID}",
      "put" : {
        "x-WM-METHOD_NAME" : "invoke",
        "x-WM-ACCESS_SPECIFIER" : "APP_ONLY",
        "produces" : [ "application/json" ],
        "operationId" : "UpdateImStateSpecificCoverage_RestServiceVirtualController-invoke",
        "responses" : {
          "200" : {
            "schema" : {
              "$ref" : "#/definitions/RootResponse"
            },
            "description" : "Success"
          }
        },
        "parameters" : [ {
          "schema" : {
            "$ref" : "#/definitions/RootRequest"
          },
          "in" : "body",
          "name" : "RequestBody",
          "description" : "RequestBody",
          "x-WM-FULLY_QUALIFIED_TYPE" : "java.lang.Object",
          "required" : false
        }, {
          "in" : "path",
          "name" : "ID",
          "type" : "string",
          "required" : true
        } ],
        "tags" : [ "RestServiceVirtualController" ],
        "consumes" : [ "application/json" ]
      }
    }
  },
  "host" : "${rest.UpdateImStateSpecificCoverage.host}",
  "schemes" : [ "${rest.UpdateImStateSpecificCoverage.scheme}" ],
  "definitions" : {
    "imPolicyInfo" : {
      "x-WM-FULLY_QUALIFIED_NAME" : "UpdateImStateSpecificCoverage.imPolicyInfo",
      "x-WM-TAGS" : [ "RestServiceVirtualController" ],
      "required" : [ "company", "creditCheckAuth", "effective", "insertTimestamp", "insertedBy", "insuramatchId", "package_", "polNum", "polSeqNum", "policyId", "policyTerm", "riskState", "updateTimestamp", "updatedBy", "versionNum" ],
      "properties" : {
        "creditCheckAuth" : {
          "type" : "string"
        },
        "updatedBy" : {
          "type" : "string"
        },
        "insuramatchId" : {
          "type" : "string"
        },
        "policyTerm" : {
          "type" : "string"
        },
        "versionNum" : {
          "type" : "string"
        },
        "insertTimestamp" : {
          "type" : "string"
        },
        "polSeqNum" : {
          "type" : "string"
        },
        "updateTimestamp" : {
          "type" : "string"
        },
        "effective" : {
          "type" : "string"
        },
        "insertedBy" : {
          "type" : "string"
        },
        "policyId" : {
          "format" : "int32",
          "type" : "integer"
        },
        "polNum" : {
          "type" : "string"
        },
        "package_" : {
          "type" : "string"
        },
        "company" : {
          "type" : "string"
        },
        "riskState" : {
          "type" : "string"
        }
      }
    },
    "RootRequest" : {
      "x-WM-FULLY_QUALIFIED_NAME" : "UpdateImStateSpecificCoverage.RootRequest",
      "x-WM-TAGS" : [ "RestServiceVirtualController" ],
      "required" : [ "coverageName", "coverageValue", "imPolicyInfo", "insertTimestamp", "insertedBy", "policyId", "stateSpecificCoverageId", "updateTimestamp", "updatedBy", "versionNum" ],
      "properties" : {
        "insertedBy" : {
          "type" : "string"
        },
        "imPolicyInfo" : {
          "$ref" : "#/definitions/imPolicyInfo"
        },
        "stateSpecificCoverageId" : {
          "format" : "int32",
          "type" : "integer"
        },
        "coverageName" : {
          "type" : "string"
        },
        "updatedBy" : {
          "type" : "string"
        },
        "policyId" : {
          "format" : "int32",
          "type" : "integer"
        },
        "versionNum" : {
          "type" : "string"
        },
        "insertTimestamp" : {
          "type" : "string"
        },
        "updateTimestamp" : {
          "type" : "string"
        },
        "coverageValue" : {
          "type" : "string"
        }
      }
    },
    "RootResponse" : {
      "x-WM-FULLY_QUALIFIED_NAME" : "UpdateImStateSpecificCoverage.RootResponse",
      "x-WM-TAGS" : [ "RestServiceVirtualController" ],
      "required" : [ "coverageName", "coverageValue", "imPolicyInfo", "insertTimestamp", "insertedBy", "policyId", "stateSpecificCoverageId", "updateTimestamp", "updatedBy", "versionNum" ],
      "properties" : {
        "insertedBy" : {
          "type" : "string"
        },
        "imPolicyInfo" : {
          "$ref" : "#/definitions/imPolicyInfo"
        },
        "stateSpecificCoverageId" : {
          "format" : "int32",
          "type" : "integer"
        },
        "coverageName" : {
          "type" : "string"
        },
        "updatedBy" : {
          "type" : "string"
        },
        "policyId" : {
          "format" : "int32",
          "type" : "integer"
        },
        "versionNum" : {
          "type" : "string"
        },
        "insertTimestamp" : {
          "type" : "string"
        },
        "updateTimestamp" : {
          "type" : "string"
        },
        "coverageValue" : {
          "type" : "string"
        }
      }
    }
  },
  "swagger" : "2.0",
  "info" : {
    "x-WM-USE_PROXY_FOR_WEB" : true,
    "x-WM-USE_PROXY_FOR_MOBILE" : true,
    "x-WM-API_ID" : "1ff12f5c-b539-4adf-b85b-23fdd5fa46b2",
    "x-WM-SERVICE_ID" : "cloud2",
    "version" : "2.0",
    "x-WM-SERVICE_TYPE" : "RestService"
  },
  "tags" : [ {
    "name" : "RestServiceVirtualController",
    "description" : "Rest service swagger documentation"
  } ]
}