{
  "swagger" : "2.0",
  "info" : {
    "version" : "2.0",
    "x-WM-USE_PROXY_FOR_WEB" : true,
    "x-WM-USE_PROXY_FOR_MOBILE" : true,
    "x-WM-API_ID" : "02ab51d1-01f5-49ae-9de8-3ebff69dc322",
    "x-WM-SERVICE_ID" : "cloud",
    "x-WM-SERVICE_TYPE" : "RestService"
  },
  "host" : "pkhgqfmqv632.cloud.wavemakeronline.com",
  "basePath" : "",
  "tags" : [ {
    "name" : "RestServiceVirtualController",
    "description" : "Rest service swagger documentation"
  } ],
  "schemes" : [ "http" ],
  "paths" : {
    "/CreateImVehicleUse/invoke/services/UNIVERSAL_RATE/ImVehicleUse" : {
      "post" : {
        "tags" : [ "RestServiceVirtualController" ],
        "operationId" : "CreateImVehicleUse_RestServiceVirtualController-invoke",
        "consumes" : [ "application/json" ],
        "produces" : [ "application/json" ],
        "parameters" : [ {
          "in" : "body",
          "name" : "RequestBody",
          "description" : "RequestBody",
          "required" : false,
          "schema" : {
            "$ref" : "#/definitions/RootRequest"
          },
          "x-WM-FULLY_QUALIFIED_TYPE" : "java.lang.Object"
        } ],
        "responses" : {
          "200" : {
            "description" : "Success",
            "schema" : {
              "$ref" : "#/definitions/RootResponse"
            }
          }
        },
        "x-WM-METHOD_NAME" : "invoke",
        "x-WM-ACCESS_SPECIFIER" : "APP_ONLY"
      },
      "x-WM-BASE_PATH" : "/CreateImVehicleUse/invoke/services/UNIVERSAL_RATE/ImVehicleUse",
      "x-WM-TAG" : "RestServiceVirtualController",
      "x-WM-RELATIVE_PATH" : "",
      "x-WM-COMPLETE_PATH" : "${rest.CreateImVehicleUse.scheme}://${rest.CreateImVehicleUse.host}${rest.CreateImVehicleUse.basepath}/services/UNIVERSAL_RATE/ImVehicleUse"
    }
  },
  "definitions" : {
    "imPolicyInfo" : {
      "required" : [ "company", "creditCheckAuth", "effective", "insertTimestamp", "insertedBy", "insuramatchId", "package_", "polNum", "polSeqNum", "policyId", "policyTerm", "riskState", "updateTimestamp", "updatedBy", "versionNum" ],
      "properties" : {
        "creditCheckAuth" : {
          "type" : "string"
        },
        "updatedBy" : {
          "type" : "string"
        },
        "insuramatchId" : {
          "type" : "string"
        },
        "policyTerm" : {
          "type" : "string"
        },
        "versionNum" : {
          "type" : "string"
        },
        "insertTimestamp" : {
          "type" : "string"
        },
        "polSeqNum" : {
          "type" : "string"
        },
        "updateTimestamp" : {
          "type" : "string"
        },
        "effective" : {
          "type" : "string"
        },
        "insertedBy" : {
          "type" : "string"
        },
        "policyId" : {
          "type" : "integer",
          "format" : "int32"
        },
        "polNum" : {
          "type" : "string"
        },
        "package_" : {
          "type" : "string"
        },
        "company" : {
          "type" : "string"
        },
        "riskState" : {
          "type" : "string"
        }
      },
      "x-WM-FULLY_QUALIFIED_NAME" : "CreateImVehicleUse.imPolicyInfo",
      "x-WM-TAGS" : [ "RestServiceVirtualController" ]
    },
    "imVehicle" : {
      "required" : [ "antiLockBrake", "antiTheft", "daytimeRunningLight", "imPolicyInfo", "insertTimestamp", "insertedBy", "make", "model", "passiveRestraint", "policyId", "subModel", "updateTimestamp", "updatedBy", "useVehLookup", "useVinLookup", "vehicleId", "vehicleInspection", "versionNum", "vin", "year" ],
      "properties" : {
        "imPolicyInfo" : {
          "$ref" : "#/definitions/imPolicyInfo"
        },
        "antiTheft" : {
          "type" : "string"
        },
        "passiveRestraint" : {
          "type" : "string"
        },
        "useVinLookup" : {
          "type" : "string"
        },
        "updatedBy" : {
          "type" : "string"
        },
        "year" : {
          "type" : "string"
        },
        "subModel" : {
          "type" : "string"
        },
        "daytimeRunningLight" : {
          "type" : "string"
        },
        "versionNum" : {
          "type" : "string"
        },
        "vehicleInspection" : {
          "type" : "string"
        },
        "insertTimestamp" : {
          "type" : "string"
        },
        "updateTimestamp" : {
          "type" : "string"
        },
        "useVehLookup" : {
          "type" : "string"
        },
        "insertedBy" : {
          "type" : "string"
        },
        "policyId" : {
          "type" : "integer",
          "format" : "int32"
        },
        "vin" : {
          "type" : "string"
        },
        "model" : {
          "type" : "string"
        },
        "vehicleId" : {
          "type" : "integer",
          "format" : "int32"
        },
        "antiLockBrake" : {
          "type" : "string"
        },
        "make" : {
          "type" : "string"
        }
      },
      "x-WM-FULLY_QUALIFIED_NAME" : "CreateImVehicleUse.imVehicle",
      "x-WM-TAGS" : [ "RestServiceVirtualController" ]
    },
    "RootRequest" : {
      "required" : [ "addiModifictnValue", "altGarage", "annualMiles", "carPool", "costNew", "daysPerWk", "imPolicyInfo", "imVehicle", "insertTimestamp", "insertedBy", "newVehicle", "odometer", "oneWayMiles", "ownership", "performance", "policyId", "princpOperator", "priorDamagePresnt", "snowPlow", "updateTimestamp", "updatedBy", "useage", "usedForDelivy", "vehicleId", "vehicleUseId", "versionNum", "weeksPerMnth" ],
      "properties" : {
        "vehicleUseId" : {
          "type" : "integer",
          "format" : "int32"
        },
        "imPolicyInfo" : {
          "$ref" : "#/definitions/imPolicyInfo"
        },
        "altGarage" : {
          "type" : "string"
        },
        "princpOperator" : {
          "type" : "string"
        },
        "versionNum" : {
          "type" : "string"
        },
        "daysPerWk" : {
          "type" : "string"
        },
        "insertTimestamp" : {
          "type" : "string"
        },
        "insertedBy" : {
          "type" : "string"
        },
        "weeksPerMnth" : {
          "type" : "string"
        },
        "priorDamagePresnt" : {
          "type" : "string"
        },
        "vehicleId" : {
          "type" : "integer",
          "format" : "int32"
        },
        "annualMiles" : {
          "type" : "string"
        },
        "updatedBy" : {
          "type" : "string"
        },
        "odometer" : {
          "type" : "string"
        },
        "imVehicle" : {
          "$ref" : "#/definitions/imVehicle"
        },
        "usedForDelivy" : {
          "type" : "string"
        },
        "addiModifictnValue" : {
          "type" : "string"
        },
        "carPool" : {
          "type" : "string"
        },
        "costNew" : {
          "type" : "string"
        },
        "updateTimestamp" : {
          "type" : "string"
        },
        "useage" : {
          "type" : "string"
        },
        "performance" : {
          "type" : "string"
        },
        "policyId" : {
          "type" : "integer",
          "format" : "int32"
        },
        "ownership" : {
          "type" : "string"
        },
        "oneWayMiles" : {
          "type" : "string"
        },
        "snowPlow" : {
          "type" : "string"
        },
        "newVehicle" : {
          "type" : "string"
        }
      },
      "x-WM-FULLY_QUALIFIED_NAME" : "CreateImVehicleUse.RootRequest",
      "x-WM-TAGS" : [ "RestServiceVirtualController" ]
    },
    "RootResponse" : {
      "required" : [ "addiModifictnValue", "altGarage", "annualMiles", "carPool", "costNew", "daysPerWk", "imPolicyInfo", "imVehicle", "insertTimestamp", "insertedBy", "newVehicle", "odometer", "oneWayMiles", "ownership", "performance", "policyId", "princpOperator", "priorDamagePresnt", "snowPlow", "updateTimestamp", "updatedBy", "useage", "usedForDelivy", "vehicleId", "vehicleUseId", "versionNum", "weeksPerMnth" ],
      "properties" : {
        "vehicleUseId" : {
          "type" : "integer",
          "format" : "int32"
        },
        "imPolicyInfo" : {
          "$ref" : "#/definitions/imPolicyInfo"
        },
        "altGarage" : {
          "type" : "string"
        },
        "princpOperator" : {
          "type" : "string"
        },
        "versionNum" : {
          "type" : "string"
        },
        "daysPerWk" : {
          "type" : "string"
        },
        "insertTimestamp" : {
          "type" : "string"
        },
        "insertedBy" : {
          "type" : "string"
        },
        "weeksPerMnth" : {
          "type" : "string"
        },
        "priorDamagePresnt" : {
          "type" : "string"
        },
        "vehicleId" : {
          "type" : "integer",
          "format" : "int32"
        },
        "annualMiles" : {
          "type" : "string"
        },
        "updatedBy" : {
          "type" : "string"
        },
        "odometer" : {
          "type" : "string"
        },
        "imVehicle" : {
          "$ref" : "#/definitions/imVehicle"
        },
        "usedForDelivy" : {
          "type" : "string"
        },
        "addiModifictnValue" : {
          "type" : "string"
        },
        "carPool" : {
          "type" : "string"
        },
        "costNew" : {
          "type" : "string"
        },
        "updateTimestamp" : {
          "type" : "string"
        },
        "useage" : {
          "type" : "string"
        },
        "performance" : {
          "type" : "string"
        },
        "policyId" : {
          "type" : "integer",
          "format" : "int32"
        },
        "ownership" : {
          "type" : "string"
        },
        "oneWayMiles" : {
          "type" : "string"
        },
        "snowPlow" : {
          "type" : "string"
        },
        "newVehicle" : {
          "type" : "string"
        }
      },
      "x-WM-FULLY_QUALIFIED_NAME" : "CreateImVehicleUse.RootResponse",
      "x-WM-TAGS" : [ "RestServiceVirtualController" ]
    }
  }
}