{
  "basePath" : "${rest.GetIncidentVehiclesByPolicyId.basepath}",
  "paths" : {
    "/services/UNIVERSAL_RATE/queryExecutor/queries/GetIncidentVehiclesByPolicyId" : {
      "x-WM-BASE_PATH" : "/services/UNIVERSAL_RATE/queryExecutor/queries/GetIncidentVehiclesByPolicyId",
      "x-WM-TAG" : "RestServiceVirtualController",
      "x-WM-RELATIVE_PATH" : "",
      "get" : {
        "x-WM-METHOD_NAME" : "invoke",
        "x-WM-ACCESS_SPECIFIER" : "APP_ONLY",
        "produces" : [ "application/json" ],
        "operationId" : "GetIncidentVehiclesByPolicyId_RestServiceVirtualController-invoke",
        "responses" : {
          "200" : {
            "schema" : {
              "$ref" : "#/definitions/RootResponse"
            },
            "description" : "Success"
          }
        },
        "parameters" : [ {
          "x-WM-EDITABLE" : false,
          "in" : "query",
          "name" : "policyId",
          "format" : "string",
          "description" : "policyId",
          "type" : "string",
          "required" : false
        } ],
        "tags" : [ "RestServiceVirtualController" ],
        "consumes" : [ "application/json" ]
      },
      "x-WM-COMPLETE_PATH" : "${rest.GetIncidentVehiclesByPolicyId.scheme}://${rest.GetIncidentVehiclesByPolicyId.host}${rest.GetIncidentVehiclesByPolicyId.basepath}/services/UNIVERSAL_RATE/queryExecutor/queries/GetIncidentVehiclesByPolicyId"
    }
  },
  "host" : "${rest.GetIncidentVehiclesByPolicyId.host}",
  "schemes" : [ "${rest.GetIncidentVehiclesByPolicyId.scheme}" ],
  "definitions" : {
    "contentEntryItem" : {
      "x-WM-FULLY_QUALIFIED_NAME" : "GetIncidentVehiclesByPolicyId.contentEntryItem",
      "x-WM-TAGS" : [ "RestServiceVirtualController" ],
      "required" : [ "alternateGarageAddressId", "antiLockBrake", "antiTheft", "daytimeRunningLight", "garageAddressId", "insertTimestamp", "insertedTimestamp", "make", "model", "passiveRestraint", "policyId", "subModel", "updateTimestamp", "updatedBy", "useVinLookup", "vehicleId", "vehicleInspection", "versionNum", "vin", "year" ],
      "properties" : {
        "garageAddressId" : {
          "type" : "string"
        },
        "antiTheft" : {
          "type" : "string"
        },
        "passiveRestraint" : {
          "type" : "string"
        },
        "useVinLookup" : {
          "type" : "string"
        },
        "updatedBy" : {
          "type" : "string"
        },
        "year" : {
          "type" : "string"
        },
        "subModel" : {
          "type" : "string"
        },
        "daytimeRunningLight" : {
          "type" : "string"
        },
        "versionNum" : {
          "type" : "string"
        },
        "vehicleInspection" : {
          "type" : "string"
        },
        "insertTimestamp" : {
          "type" : "string"
        },
        "alternateGarageAddressId" : {
          "type" : "string"
        },
        "updateTimestamp" : {
          "type" : "string"
        },
        "policyId" : {
          "format" : "int32",
          "type" : "integer"
        },
        "insertedTimestamp" : {
          "type" : "string"
        },
        "vin" : {
          "type" : "string"
        },
        "model" : {
          "type" : "string"
        },
        "vehicleId" : {
          "format" : "int32",
          "type" : "integer"
        },
        "antiLockBrake" : {
          "type" : "string"
        },
        "make" : {
          "type" : "string"
        }
      }
    },
    "java.lang.Object" : {
      "x-WM-FULLY_QUALIFIED_NAME" : "GetIncidentVehiclesByPolicyId.java.lang.Object",
      "x-WM-TAGS" : [ "RestServiceVirtualController" ]
    },
    "RootResponse" : {
      "x-WM-FULLY_QUALIFIED_NAME" : "GetIncidentVehiclesByPolicyId.RootResponse",
      "x-WM-TAGS" : [ "RestServiceVirtualController" ],
      "required" : [ "content", "first", "last", "number", "numberOfElements", "size", "sort", "totalElements", "totalPages" ],
      "properties" : {
        "number" : {
          "format" : "int32",
          "type" : "integer"
        },
        "last" : {
          "type" : "boolean"
        },
        "numberOfElements" : {
          "format" : "int32",
          "type" : "integer"
        },
        "size" : {
          "format" : "int32",
          "type" : "integer"
        },
        "totalPages" : {
          "format" : "int32",
          "type" : "integer"
        },
        "sort" : {
          "x-WM-IS_LIST" : true,
          "type" : "array",
          "items" : {
            "$ref" : "#/definitions/java.lang.Object"
          }
        },
        "content" : {
          "x-WM-IS_LIST" : true,
          "type" : "array",
          "items" : {
            "$ref" : "#/definitions/contentEntryItem"
          }
        },
        "first" : {
          "type" : "boolean"
        },
        "totalElements" : {
          "format" : "int32",
          "type" : "integer"
        }
      }
    }
  },
  "swagger" : "2.0",
  "info" : {
    "x-WM-USE_PROXY_FOR_WEB" : true,
    "x-WM-USE_PROXY_FOR_MOBILE" : true,
    "x-WM-API_ID" : "a6f8c855-03e4-44f0-8f2b-bdec6b867f34",
    "x-WM-SERVICE_ID" : "cloud3",
    "version" : "2.0",
    "x-WM-SERVICE_TYPE" : "RestService"
  },
  "tags" : [ {
    "name" : "RestServiceVirtualController",
    "description" : "Rest service swagger documentation"
  } ]
}
