{
  "endpointAddress" : "http://pkhgqfmqv632.cloud.wavemakeronline.com/UniRateServices/services/UNIVERSAL_RATE/ImIncident",
  "method" : "GET",
  "headers" : { },
  "redirectEnabled" : true,
  "requestBody" : "",
  "queryParams" : { },
  "authDetails" : null,
  "contentType" : "application/json",
  "multiParamInfoList" : null,
  "sampleHttpResponseDetails" : {
    "statusCode" : 200,
    "headers" : {
      "Cache-Control" : [ "max-age=0" ],
      "X-XSS-Protection" : [ "1; mode=block" ],
      "Content-Security-Policy" : [ "frame-ancestors 'self'" ],
      "X-Content-Type-Options" : [ "nosniff" ],
      "ETag" : [ "\"0515b1d3df1c1f91cd7a36f03af93524e\"" ],
      "Content-Type" : [ "application/json;charset=UTF-8" ],
      "Transfer-Encoding" : [ "chunked" ],
      "Vary" : [ "Accept-Encoding" ],
      "Date" : [ "Wed, 27 Mar 2019 01:01:51 GMT" ],
      "Connection" : [ "keep-alive" ]
    },
    "responseBody" : "{\"content\":[{\"incidentId\":49,\"driverId\":41,\"incidentType\":\"Accident\",\"date\":\"2019-03-07\",\"description\":\"At Fault With Injury\",\"pd\":null,\"bi\":null,\"collission\":null,\"mp\":null,\"vehicleInvolved\":58,\"value\":100,\"insertTimestamp\":null,\"updateTimestamp\":null,\"updatedBy\":null,\"insertedBy\":null,\"versionNum\":null,\"policyId\":null,\"imDriver\":{\"driverId\":41,\"policyId\":340,\"prefix\":null,\"firstName\":\"Driver2\",\"middleName\":null,\"lastName\":\"DriverLast2\",\"suffix\":null,\"gender\":null,\"dob\":\"1990-02-24\",\"ssn\":\"6655\",\"driverLicenseNumber\":null,\"sdipPoint\":null,\"driverLicenseState\":null,\"dateLicensed\":\"2019-02-26\",\"driverLicenseStatus\":\"Permit\",\"ageLicensed\":16,\"accPrev\":null,\"maritalStatus\":\"Single\",\"relation\":\"Employee\",\"industry\":\"Insurance\",\"occupation\":\"Executive\",\"goodStudent\":\"No\",\"student100\":null,\"driverTraining\":\"No\",\"goodDriver\":null,\"matDriver\":\"No\",\"principalVehicle\":null,\"rated\":null,\"sr22\":null,\"fr44\":null,\"licenseRevokedSuspended\":null,\"insertTimestamp\":null,\"updateTimestamp\":null,\"updatedBy\":null,\"insertedBy\":null,\"versionNum\":null,\"imPolicyInfo\":{\"policyId\":340,\"polNum\":null,\"polSeqNum\":null,\"company\":null,\"policyTerm\":\"12\",\"package_\":null,\"effective\":\"2019-03-15\",\"creditCheckAuth\":null,\"insertTimestamp\":null,\"updateTimestamp\":null,\"updatedBy\":null,\"insertedBy\":null,\"riskState\":null,\"insuramatchId\":\"7531047\",\"versionNum\":null,\"submittedTime\":null,\"submittedStatus\":null}}},{\"incidentId\":50,\"driverId\":40,\"incidentType\":\"Violation\",\"date\":\"2019-02-24\",\"description\":\"DUI\",\"pd\":null,\"bi\":null,\"collission\":null,\"mp\":null,\"vehicleInvolved\":58,\"value\":100,\"insertTimestamp\":null,\"updateTimestamp\":null,\"updatedBy\":null,\"insertedBy\":null,\"versionNum\":null,\"policyId\":null,\"imDriver\":{\"driverId\":40,\"policyId\":340,\"prefix\":null,\"firstName\":\"Driver1\",\"middleName\":null,\"lastName\":\"DriverLast1\",\"suffix\":null,\"gender\":\"Male\",\"dob\":\"1989-02-24\",\"ssn\":\"5676\",\"driverLicenseNumber\":null,\"sdipPoint\":null,\"driverLicenseState\":null,\"dateLicensed\":\"2019-03-08\",\"driverLicenseStatus\":\"Valid\",\"ageLicensed\":15,\"accPrev\":null,\"maritalStatus\":\"Married\",\"relation\":\"Insured\",\"industry\":\"Art/Design/Media\",\"occupation\":\"Designer\",\"goodStudent\":null,\"student100\":\"No\",\"driverTraining\":null,\"goodDriver\":\"No\",\"matDriver\":null,\"principalVehicle\":null,\"rated\":null,\"sr22\":null,\"fr44\":null,\"licenseRevokedSuspended\":null,\"insertTimestamp\":null,\"updateTimestamp\":null,\"updatedBy\":null,\"insertedBy\":null,\"versionNum\":null,\"imPolicyInfo\":{\"policyId\":340,\"polNum\":null,\"polSeqNum\":null,\"company\":null,\"policyTerm\":\"12\",\"package_\":null,\"effective\":\"2019-03-15\",\"creditCheckAuth\":null,\"insertTimestamp\":null,\"updateTimestamp\":null,\"updatedBy\":null,\"insertedBy\":null,\"riskState\":null,\"insuramatchId\":\"7531047\",\"versionNum\":null,\"submittedTime\":null,\"submittedStatus\":null}}},{\"incidentId\":51,\"driverId\":41,\"incidentType\":\"Comp Loss\",\"date\":\"2019-02-07\",\"description\":\"GLASS\",\"pd\":null,\"bi\":null,\"collission\":null,\"mp\":null,\"vehicleInvolved\":58,\"value\":200,\"insertTimestamp\":null,\"updateTimestamp\":null,\"updatedBy\":null,\"insertedBy\":null,\"versionNum\":null,\"policyId\":null,\"imDriver\":{\"driverId\":41,\"policyId\":340,\"prefix\":null,\"firstName\":\"Driver2\",\"middleName\":null,\"lastName\":\"DriverLast2\",\"suffix\":null,\"gender\":null,\"dob\":\"1990-02-24\",\"ssn\":\"6655\",\"driverLicenseNumber\":null,\"sdipPoint\":null,\"driverLicenseState\":null,\"dateLicensed\":\"2019-02-26\",\"driverLicenseStatus\":\"Permit\",\"ageLicensed\":16,\"accPrev\":null,\"maritalStatus\":\"Single\",\"relation\":\"Employee\",\"industry\":\"Insurance\",\"occupation\":\"Executive\",\"goodStudent\":\"No\",\"student100\":null,\"driverTraining\":\"No\",\"goodDriver\":null,\"matDriver\":\"No\",\"principalVehicle\":null,\"rated\":null,\"sr22\":null,\"fr44\":null,\"licenseRevokedSuspended\":null,\"insertTimestamp\":null,\"updateTimestamp\":null,\"updatedBy\":null,\"insertedBy\":null,\"versionNum\":null,\"imPolicyInfo\":{\"policyId\":340,\"polNum\":null,\"polSeqNum\":null,\"company\":null,\"policyTerm\":\"12\",\"package_\":null,\"effective\":\"2019-03-15\",\"creditCheckAuth\":null,\"insertTimestamp\":null,\"updateTimestamp\":null,\"updatedBy\":null,\"insertedBy\":null,\"riskState\":null,\"insuramatchId\":\"7531047\",\"versionNum\":null,\"submittedTime\":null,\"submittedStatus\":null}}},{\"incidentId\":52,\"driverId\":40,\"incidentType\":\"Accident\",\"date\":\"2019-02-07\",\"description\":\"Not At Fault\",\"pd\":null,\"bi\":null,\"collission\":null,\"mp\":null,\"vehicleInvolved\":58,\"value\":200,\"insertTimestamp\":null,\"updateTimestamp\":null,\"updatedBy\":null,\"insertedBy\":null,\"versionNum\":null,\"policyId\":null,\"imDriver\":{\"driverId\":40,\"policyId\":340,\"prefix\":null,\"firstName\":\"Driver1\",\"middleName\":null,\"lastName\":\"DriverLast1\",\"suffix\":null,\"gender\":\"Male\",\"dob\":\"1989-02-24\",\"ssn\":\"5676\",\"driverLicenseNumber\":null,\"sdipPoint\":null,\"driverLicenseState\":null,\"dateLicensed\":\"2019-03-08\",\"driverLicenseStatus\":\"Valid\",\"ageLicensed\":15,\"accPrev\":null,\"maritalStatus\":\"Married\",\"relation\":\"Insured\",\"industry\":\"Art/Design/Media\",\"occupation\":\"Designer\",\"goodStudent\":null,\"student100\":\"No\",\"driverTraining\":null,\"goodDriver\":\"No\",\"matDriver\":null,\"principalVehicle\":null,\"rated\":null,\"sr22\":null,\"fr44\":null,\"licenseRevokedSuspended\":null,\"insertTimestamp\":null,\"updateTimestamp\":null,\"updatedBy\":null,\"insertedBy\":null,\"versionNum\":null,\"imPolicyInfo\":{\"policyId\":340,\"polNum\":null,\"polSeqNum\":null,\"company\":null,\"policyTerm\":\"12\",\"package_\":null,\"effective\":\"2019-03-15\",\"creditCheckAuth\":null,\"insertTimestamp\":null,\"updateTimestamp\":null,\"updatedBy\":null,\"insertedBy\":null,\"riskState\":null,\"insuramatchId\":\"7531047\",\"versionNum\":null,\"submittedTime\":null,\"submittedStatus\":null}}},{\"incidentId\":53,\"driverId\":42,\"incidentType\":\"Accident\",\"date\":\"2019-03-07\",\"description\":\"At Fault With Injury\",\"pd\":null,\"bi\":null,\"collission\":null,\"mp\":null,\"vehicleInvolved\":60,\"value\":1000,\"insertTimestamp\":null,\"updateTimestamp\":null,\"updatedBy\":null,\"insertedBy\":null,\"versionNum\":null,\"policyId\":null,\"imDriver\":{\"driverId\":42,\"policyId\":384,\"prefix\":null,\"firstName\":\"Naveen\",\"middleName\":null,\"lastName\":\"Kumar\",\"suffix\":null,\"gender\":\"Male\",\"dob\":\"1989-03-01\",\"ssn\":\"766757\",\"driverLicenseNumber\":null,\"sdipPoint\":null,\"driverLicenseState\":null,\"dateLicensed\":\"2019-03-06\",\"driverLicenseStatus\":\"Valid\",\"ageLicensed\":20,\"accPrev\":null,\"maritalStatus\":\"Single\",\"relation\":\"Insured\",\"industry\":\"Insurance\",\"occupation\":\"Executive\",\"goodStudent\":null,\"student100\":null,\"driverTraining\":null,\"goodDriver\":null,\"matDriver\":null,\"principalVehicle\":null,\"rated\":null,\"sr22\":null,\"fr44\":null,\"licenseRevokedSuspended\":null,\"insertTimestamp\":null,\"updateTimestamp\":null,\"updatedBy\":null,\"insertedBy\":null,\"versionNum\":null,\"imPolicyInfo\":{\"policyId\":384,\"polNum\":null,\"polSeqNum\":null,\"company\":null,\"policyTerm\":\"12\",\"package_\":null,\"effective\":\"2019-03-15\",\"creditCheckAuth\":null,\"insertTimestamp\":null,\"updateTimestamp\":null,\"updatedBy\":null,\"insertedBy\":null,\"riskState\":null,\"insuramatchId\":\"6309628\",\"versionNum\":null,\"submittedTime\":null,\"submittedStatus\":null}}},{\"incidentId\":54,\"driverId\":44,\"incidentType\":\"Accident\",\"date\":\"2019-03-06\",\"description\":\"At Fault With Injury\",\"pd\":null,\"bi\":null,\"collission\":null,\"mp\":null,\"vehicleInvolved\":62,\"value\":1000,\"insertTimestamp\":null,\"updateTimestamp\":null,\"updatedBy\":null,\"insertedBy\":null,\"versionNum\":null,\"policyId\":null,\"imDriver\":{\"driverId\":44,\"policyId\":387,\"prefix\":null,\"firstName\":\"Driver1\",\"middleName\":null,\"lastName\":\"LastDriver\",\"suffix\":null,\"gender\":\"Male\",\"dob\":\"1989-03-07\",\"ssn\":\"5638\",\"driverLicenseNumber\":null,\"sdipPoint\":null,\"driverLicenseState\":null,\"dateLicensed\":\"2019-03-07\",\"driverLicenseStatus\":\"Valid\",\"ageLicensed\":15,\"accPrev\":null,\"maritalStatus\":\"Single\",\"relation\":\"Employee\",\"industry\":\"Insurance\",\"occupation\":\"Executive\",\"goodStudent\":null,\"student100\":\"No\",\"driverTraining\":null,\"goodDriver\":\"No\",\"matDriver\":null,\"principalVehicle\":null,\"rated\":null,\"sr22\":null,\"fr44\":null,\"licenseRevokedSuspended\":null,\"insertTimestamp\":null,\"updateTimestamp\":null,\"updatedBy\":null,\"insertedBy\":null,\"versionNum\":null,\"imPolicyInfo\":{\"policyId\":387,\"polNum\":null,\"polSeqNum\":null,\"company\":null,\"policyTerm\":\"12\",\"package_\":null,\"effective\":\"2019-03-15\",\"creditCheckAuth\":null,\"insertTimestamp\":null,\"updateTimestamp\":null,\"updatedBy\":null,\"insertedBy\":null,\"riskState\":null,\"insuramatchId\":\"5890063\",\"versionNum\":null,\"submittedTime\":null,\"submittedStatus\":null}}},{\"incidentId\":55,\"driverId\":45,\"incidentType\":\"Accident\",\"date\":\"2019-02-26\",\"description\":\"At Fault With Injury\",\"pd\":null,\"bi\":null,\"collission\":null,\"mp\":null,\"vehicleInvolved\":63,\"value\":100,\"insertTimestamp\":null,\"updateTimestamp\":null,\"updatedBy\":null,\"insertedBy\":null,\"versionNum\":null,\"policyId\":null,\"imDriver\":{\"driverId\":45,\"policyId\":389,\"prefix\":null,\"firstName\":\"Naveen\",\"middleName\":null,\"lastName\":\"Kumar\",\"suffix\":null,\"gender\":\"Male\",\"dob\":\"1989-03-07\",\"ssn\":\"67576\",\"driverLicenseNumber\":null,\"sdipPoint\":null,\"driverLicenseState\":null,\"dateLicensed\":\"2019-03-09\",\"driverLicenseStatus\":\"Valid\",\"ageLicensed\":20,\"accPrev\":null,\"maritalStatus\":\"Married\",\"relation\":\"Insured\",\"industry\":\"Insurance\",\"occupation\":\"Commissioner\",\"goodStudent\":null,\"student100\":\"Yes\",\"driverTraining\":null,\"goodDriver\":null,\"matDriver\":null,\"principalVehicle\":null,\"rated\":null,\"sr22\":null,\"fr44\":null,\"licenseRevokedSuspended\":null,\"insertTimestamp\":null,\"updateTimestamp\":null,\"updatedBy\":null,\"insertedBy\":null,\"versionNum\":null,\"imPolicyInfo\":{\"policyId\":389,\"polNum\":null,\"polSeqNum\":null,\"company\":null,\"policyTerm\":\"12\",\"package_\":null,\"effective\":\"2019-03-15\",\"creditCheckAuth\":null,\"insertTimestamp\":null,\"updateTimestamp\":null,\"updatedBy\":null,\"insertedBy\":null,\"riskState\":null,\"insuramatchId\":\"6811293\",\"versionNum\":null,\"submittedTime\":null,\"submittedStatus\":null}}},{\"incidentId\":56,\"driverId\":59,\"incidentType\":\"Accident\",\"date\":\"2019-02-25\",\"description\":\"Not At Fault\",\"pd\":null,\"bi\":null,\"collission\":null,\"mp\":null,\"vehicleInvolved\":69,\"value\":0,\"insertTimestamp\":null,\"updateTimestamp\":null,\"updatedBy\":null,\"insertedBy\":null,\"versionNum\":null,\"policyId\":null,\"imDriver\":{\"driverId\":59,\"policyId\":428,\"prefix\":null,\"firstName\":\"A\",\"middleName\":null,\"lastName\":\"B\",\"suffix\":null,\"gender\":\"Male\",\"dob\":\"1975-01-01\",\"ssn\":null,\"driverLicenseNumber\":null,\"sdipPoint\":null,\"driverLicenseState\":null,\"dateLicensed\":\"2019-02-25\",\"driverLicenseStatus\":\"Valid\",\"ageLicensed\":16,\"accPrev\":null,\"maritalStatus\":\"Single\",\"relation\":\"Insured\",\"industry\":\"Construction/Energy Trades\",\"occupation\":\"Carpet Installer\",\"goodStudent\":\"No\",\"student100\":\"No\",\"driverTraining\":\"Yes\",\"goodDriver\":\"Yes\",\"matDriver\":\"No\",\"principalVehicle\":null,\"rated\":null,\"sr22\":null,\"fr44\":null,\"licenseRevokedSuspended\":null,\"insertTimestamp\":null,\"updateTimestamp\":null,\"updatedBy\":null,\"insertedBy\":null,\"versionNum\":null,\"imPolicyInfo\":{\"policyId\":428,\"polNum\":null,\"polSeqNum\":null,\"company\":null,\"policyTerm\":\"12\",\"package_\":null,\"effective\":\"2019-03-15\",\"creditCheckAuth\":null,\"insertTimestamp\":null,\"updateTimestamp\":null,\"updatedBy\":null,\"insertedBy\":null,\"riskState\":null,\"insuramatchId\":null,\"versionNum\":null,\"submittedTime\":null,\"submittedStatus\":null}}},{\"incidentId\":57,\"driverId\":107,\"incidentType\":\"Accident\",\"date\":\"2019-02-27\",\"description\":\"At Fault With Injury\",\"pd\":null,\"bi\":null,\"collission\":null,\"mp\":null,\"vehicleInvolved\":87,\"value\":1000,\"insertTimestamp\":null,\"updateTimestamp\":null,\"updatedBy\":null,\"insertedBy\":null,\"versionNum\":null,\"policyId\":null,\"imDriver\":{\"driverId\":107,\"policyId\":551,\"prefix\":null,\"firstName\":\"Naveen\",\"middleName\":null,\"lastName\":null,\"suffix\":null,\"gender\":\"Male\",\"dob\":\"2019-02-26\",\"ssn\":null,\"driverLicenseNumber\":null,\"sdipPoint\":null,\"driverLicenseState\":null,\"dateLicensed\":\"2019-03-05\",\"driverLicenseStatus\":\"Valid\",\"ageLicensed\":17,\"accPrev\":null,\"maritalStatus\":\"Single\",\"relation\":\"Employee\",\"industry\":\"Education/Library\",\"occupation\":\"Child/Daycare Worker\",\"goodStudent\":\"No\",\"student100\":\"No\",\"driverTraining\":\"No\",\"goodDriver\":\"No\",\"matDriver\":\"No\",\"principalVehicle\":null,\"rated\":null,\"sr22\":null,\"fr44\":null,\"licenseRevokedSuspended\":null,\"insertTimestamp\":null,\"updateTimestamp\":null,\"updatedBy\":null,\"insertedBy\":null,\"versionNum\":null,\"imPolicyInfo\":{\"policyId\":551,\"polNum\":null,\"polSeqNum\":null,\"company\":null,\"policyTerm\":\"12\",\"package_\":null,\"effective\":\"2019-03-15\",\"creditCheckAuth\":\"Yes\",\"insertTimestamp\":null,\"updateTimestamp\":null,\"updatedBy\":null,\"insertedBy\":null,\"riskState\":null,\"insuramatchId\":\"8692269\",\"versionNum\":null,\"submittedTime\":null,\"submittedStatus\":null}}},{\"incidentId\":58,\"driverId\":107,\"incidentType\":\"Violation\",\"date\":\"2019-02-27\",\"description\":\"Failure to Obey Signal\",\"pd\":null,\"bi\":null,\"collission\":null,\"mp\":null,\"vehicleInvolved\":87,\"value\":1000,\"insertTimestamp\":null,\"updateTimestamp\":null,\"updatedBy\":null,\"insertedBy\":null,\"versionNum\":null,\"policyId\":null,\"imDriver\":{\"driverId\":107,\"policyId\":551,\"prefix\":null,\"firstName\":\"Naveen\",\"middleName\":null,\"lastName\":null,\"suffix\":null,\"gender\":\"Male\",\"dob\":\"2019-02-26\",\"ssn\":null,\"driverLicenseNumber\":null,\"sdipPoint\":null,\"driverLicenseState\":null,\"dateLicensed\":\"2019-03-05\",\"driverLicenseStatus\":\"Valid\",\"ageLicensed\":17,\"accPrev\":null,\"maritalStatus\":\"Single\",\"relation\":\"Employee\",\"industry\":\"Education/Library\",\"occupation\":\"Child/Daycare Worker\",\"goodStudent\":\"No\",\"student100\":\"No\",\"driverTraining\":\"No\",\"goodDriver\":\"No\",\"matDriver\":\"No\",\"principalVehicle\":null,\"rated\":null,\"sr22\":null,\"fr44\":null,\"licenseRevokedSuspended\":null,\"insertTimestamp\":null,\"updateTimestamp\":null,\"updatedBy\":null,\"insertedBy\":null,\"versionNum\":null,\"imPolicyInfo\":{\"policyId\":551,\"polNum\":null,\"polSeqNum\":null,\"company\":null,\"policyTerm\":\"12\",\"package_\":null,\"effective\":\"2019-03-15\",\"creditCheckAuth\":\"Yes\",\"insertTimestamp\":null,\"updateTimestamp\":null,\"updatedBy\":null,\"insertedBy\":null,\"riskState\":null,\"insuramatchId\":\"8692269\",\"versionNum\":null,\"submittedTime\":null,\"submittedStatus\":null}}},{\"incidentId\":59,\"driverId\":107,\"incidentType\":\"Comp Loss\",\"date\":\"2019-02-27\",\"description\":\"TORNADO/HURRICANE\",\"pd\":null,\"bi\":null,\"collission\":null,\"mp\":null,\"vehicleInvolved\":87,\"value\":1000,\"insertTimestamp\":null,\"updateTimestamp\":null,\"updatedBy\":null,\"insertedBy\":null,\"versionNum\":null,\"policyId\":null,\"imDriver\":{\"driverId\":107,\"policyId\":551,\"prefix\":null,\"firstName\":\"Naveen\",\"middleName\":null,\"lastName\":null,\"suffix\":null,\"gender\":\"Male\",\"dob\":\"2019-02-26\",\"ssn\":null,\"driverLicenseNumber\":null,\"sdipPoint\":null,\"driverLicenseState\":null,\"dateLicensed\":\"2019-03-05\",\"driverLicenseStatus\":\"Valid\",\"ageLicensed\":17,\"accPrev\":null,\"maritalStatus\":\"Single\",\"relation\":\"Employee\",\"industry\":\"Education/Library\",\"occupation\":\"Child/Daycare Worker\",\"goodStudent\":\"No\",\"student100\":\"No\",\"driverTraining\":\"No\",\"goodDriver\":\"No\",\"matDriver\":\"No\",\"principalVehicle\":null,\"rated\":null,\"sr22\":null,\"fr44\":null,\"licenseRevokedSuspended\":null,\"insertTimestamp\":null,\"updateTimestamp\":null,\"updatedBy\":null,\"insertedBy\":null,\"versionNum\":null,\"imPolicyInfo\":{\"policyId\":551,\"polNum\":null,\"polSeqNum\":null,\"company\":null,\"policyTerm\":\"12\",\"package_\":null,\"effective\":\"2019-03-15\",\"creditCheckAuth\":\"Yes\",\"insertTimestamp\":null,\"updateTimestamp\":null,\"updatedBy\":null,\"insertedBy\":null,\"riskState\":null,\"insuramatchId\":\"8692269\",\"versionNum\":null,\"submittedTime\":null,\"submittedStatus\":null}}},{\"incidentId\":60,\"driverId\":108,\"incidentType\":\"Accident\",\"date\":\"2019-03-12\",\"description\":\"At Fault With No Injury\",\"pd\":null,\"bi\":null,\"collission\":null,\"mp\":null,\"vehicleInvolved\":null,\"value\":100,\"insertTimestamp\":null,\"updateTimestamp\":null,\"updatedBy\":null,\"insertedBy\":null,\"versionNum\":null,\"policyId\":null,\"imDriver\":{\"driverId\":108,\"policyId\":552,\"prefix\":null,\"firstName\":\"test\",\"middleName\":null,\"lastName\":\"test\",\"suffix\":null,\"gender\":\"Female\",\"dob\":\"2019-03-26\",\"ssn\":null,\"driverLicenseNumber\":null,\"sdipPoint\":null,\"driverLicenseState\":null,\"dateLicensed\":\"2019-03-06\",\"driverLicenseStatus\":\"Suspended\",\"ageLicensed\":16,\"accPrev\":null,\"maritalStatus\":\"Widowed\",\"relation\":\"Child\",\"industry\":\"Disabled\",\"occupation\":\"Disabled\",\"goodStudent\":\"\\\"\\\"\",\"student100\":\"\\\"\\\"\",\"driverTraining\":\"\\\"\\\"\",\"goodDriver\":\"\\\"\\\"\",\"matDriver\":\"\\\"\\\"\",\"principalVehicle\":null,\"rated\":null,\"sr22\":null,\"fr44\":null,\"licenseRevokedSuspended\":null,\"insertTimestamp\":null,\"updateTimestamp\":null,\"updatedBy\":null,\"insertedBy\":null,\"versionNum\":null,\"imPolicyInfo\":{\"policyId\":552,\"polNum\":null,\"polSeqNum\":null,\"company\":null,\"policyTerm\":null,\"package_\":null,\"effective\":\"2019-03-15\",\"creditCheckAuth\":null,\"insertTimestamp\":null,\"updateTimestamp\":null,\"updatedBy\":null,\"insertedBy\":null,\"riskState\":null,\"insuramatchId\":null,\"versionNum\":null,\"submittedTime\":null,\"submittedStatus\":null}}},{\"incidentId\":61,\"driverId\":109,\"incidentType\":\"Accident\",\"date\":\"2019-01-01\",\"description\":\"At Fault With Injury\",\"pd\":null,\"bi\":null,\"collission\":null,\"mp\":null,\"vehicleInvolved\":null,\"value\":2000,\"insertTimestamp\":null,\"updateTimestamp\":null,\"updatedBy\":null,\"insertedBy\":null,\"versionNum\":null,\"policyId\":null,\"imDriver\":{\"driverId\":109,\"policyId\":565,\"prefix\":null,\"firstName\":\"Alena\",\"middleName\":null,\"lastName\":\"Test\",\"suffix\":null,\"gender\":\"Female\",\"dob\":\"2000-02-29\",\"ssn\":null,\"driverLicenseNumber\":null,\"sdipPoint\":null,\"driverLicenseState\":null,\"dateLicensed\":\"2019-02-12\",\"driverLicenseStatus\":\"Valid\",\"ageLicensed\":16,\"accPrev\":null,\"maritalStatus\":\"Single\",\"relation\":\"Other\",\"industry\":\"Government/Military\",\"occupation\":\"Director/Administrator\",\"goodStudent\":\"\\\"\\\"\",\"student100\":\"\\\"\\\"\",\"driverTraining\":\"\\\"\\\"\",\"goodDriver\":\"\\\"\\\"\",\"matDriver\":\"\\\"\\\"\",\"principalVehicle\":null,\"rated\":null,\"sr22\":null,\"fr44\":null,\"licenseRevokedSuspended\":null,\"insertTimestamp\":null,\"updateTimestamp\":null,\"updatedBy\":null,\"insertedBy\":null,\"versionNum\":null,\"imPolicyInfo\":{\"policyId\":565,\"polNum\":null,\"polSeqNum\":null,\"company\":null,\"policyTerm\":\"12\",\"package_\":null,\"effective\":\"2019-03-15\",\"creditCheckAuth\":\"Yes\",\"insertTimestamp\":null,\"updateTimestamp\":null,\"updatedBy\":null,\"insertedBy\":null,\"riskState\":null,\"insuramatchId\":null,\"versionNum\":null,\"submittedTime\":null,\"submittedStatus\":null}}},{\"incidentId\":62,\"driverId\":111,\"incidentType\":\"Accident\",\"date\":\"2019-03-12\",\"description\":null,\"pd\":null,\"bi\":null,\"collission\":null,\"mp\":null,\"vehicleInvolved\":null,\"value\":null,\"insertTimestamp\":null,\"updateTimestamp\":null,\"updatedBy\":null,\"insertedBy\":null,\"versionNum\":null,\"policyId\":null,\"imDriver\":{\"driverId\":111,\"policyId\":581,\"prefix\":null,\"firstName\":null,\"middleName\":null,\"lastName\":null,\"suffix\":null,\"gender\":\"\\\"\\\"\",\"dob\":\"\",\"ssn\":null,\"driverLicenseNumber\":null,\"sdipPoint\":null,\"driverLicenseState\":null,\"dateLicensed\":\"\",\"driverLicenseStatus\":null,\"ageLicensed\":null,\"accPrev\":null,\"maritalStatus\":null,\"relation\":null,\"industry\":null,\"occupation\":null,\"goodStudent\":\"\\\"\\\"\",\"student100\":\"\\\"\\\"\",\"driverTraining\":\"\\\"\\\"\",\"goodDriver\":\"\\\"\\\"\",\"matDriver\":\"\\\"\\\"\",\"principalVehicle\":null,\"rated\":null,\"sr22\":null,\"fr44\":null,\"licenseRevokedSuspended\":null,\"insertTimestamp\":null,\"updateTimestamp\":null,\"updatedBy\":null,\"insertedBy\":null,\"versionNum\":null,\"imPolicyInfo\":{\"policyId\":581,\"polNum\":null,\"polSeqNum\":null,\"company\":null,\"policyTerm\":null,\"package_\":null,\"effective\":\"2019-03-15\",\"creditCheckAuth\":null,\"insertTimestamp\":null,\"updateTimestamp\":null,\"updatedBy\":null,\"insertedBy\":null,\"riskState\":null,\"insuramatchId\":null,\"versionNum\":null,\"submittedTime\":null,\"submittedStatus\":null}}},{\"incidentId\":63,\"driverId\":112,\"incidentType\":\"Accident\",\"date\":\"2019-03-01\",\"description\":\"At Fault With No Injury\",\"pd\":null,\"bi\":null,\"collission\":null,\"mp\":null,\"vehicleInvolved\":100,\"value\":1234,\"insertTimestamp\":null,\"updateTimestamp\":null,\"updatedBy\":null,\"insertedBy\":null,\"versionNum\":null,\"policyId\":null,\"imDriver\":{\"driverId\":112,\"policyId\":582,\"prefix\":null,\"firstName\":\"Test\",\"middleName\":null,\"lastName\":\"Test\",\"suffix\":null,\"gender\":\"Female\",\"dob\":\"2019-02-28\",\"ssn\":null,\"driverLicenseNumber\":null,\"sdipPoint\":null,\"driverLicenseState\":null,\"dateLicensed\":\"2019-03-14\",\"driverLicenseStatus\":\"Expired\",\"ageLicensed\":17,\"accPrev\":null,\"maritalStatus\":\"Single\",\"relation\":\"Employee\",\"industry\":\"Art/Design/Media\",\"occupation\":\"Administrative Assistant\",\"goodStudent\":\"\\\"\\\"\",\"student100\":\"\\\"\\\"\",\"driverTraining\":\"\\\"\\\"\",\"goodDriver\":\"\\\"\\\"\",\"matDriver\":\"\\\"\\\"\",\"principalVehicle\":null,\"rated\":null,\"sr22\":null,\"fr44\":null,\"licenseRevokedSuspended\":null,\"insertTimestamp\":null,\"updateTimestamp\":null,\"updatedBy\":null,\"insertedBy\":null,\"versionNum\":null,\"imPolicyInfo\":{\"policyId\":582,\"polNum\":null,\"polSeqNum\":null,\"company\":null,\"policyTerm\":null,\"package_\":null,\"effective\":\"2019-03-15\",\"creditCheckAuth\":null,\"insertTimestamp\":null,\"updateTimestamp\":null,\"updatedBy\":null,\"insertedBy\":null,\"riskState\":null,\"insuramatchId\":null,\"versionNum\":null,\"submittedTime\":null,\"submittedStatus\":null}}},{\"incidentId\":64,\"driverId\":112,\"incidentType\":\"Comp Loss\",\"date\":\"2019-03-01\",\"description\":\"FIRE\",\"pd\":null,\"bi\":null,\"collission\":null,\"mp\":null,\"vehicleInvolved\":100,\"value\":1234,\"insertTimestamp\":null,\"updateTimestamp\":null,\"updatedBy\":null,\"insertedBy\":null,\"versionNum\":null,\"policyId\":null,\"imDriver\":{\"driverId\":112,\"policyId\":582,\"prefix\":null,\"firstName\":\"Test\",\"middleName\":null,\"lastName\":\"Test\",\"suffix\":null,\"gender\":\"Female\",\"dob\":\"2019-02-28\",\"ssn\":null,\"driverLicenseNumber\":null,\"sdipPoint\":null,\"driverLicenseState\":null,\"dateLicensed\":\"2019-03-14\",\"driverLicenseStatus\":\"Expired\",\"ageLicensed\":17,\"accPrev\":null,\"maritalStatus\":\"Single\",\"relation\":\"Employee\",\"industry\":\"Art/Design/Media\",\"occupation\":\"Administrative Assistant\",\"goodStudent\":\"\\\"\\\"\",\"student100\":\"\\\"\\\"\",\"driverTraining\":\"\\\"\\\"\",\"goodDriver\":\"\\\"\\\"\",\"matDriver\":\"\\\"\\\"\",\"principalVehicle\":null,\"rated\":null,\"sr22\":null,\"fr44\":null,\"licenseRevokedSuspended\":null,\"insertTimestamp\":null,\"updateTimestamp\":null,\"updatedBy\":null,\"insertedBy\":null,\"versionNum\":null,\"imPolicyInfo\":{\"policyId\":582,\"polNum\":null,\"polSeqNum\":null,\"company\":null,\"policyTerm\":null,\"package_\":null,\"effective\":\"2019-03-15\",\"creditCheckAuth\":null,\"insertTimestamp\":null,\"updateTimestamp\":null,\"updatedBy\":null,\"insertedBy\":null,\"riskState\":null,\"insuramatchId\":null,\"versionNum\":null,\"submittedTime\":null,\"submittedStatus\":null}}},{\"incidentId\":65,\"driverId\":112,\"incidentType\":\"Comp Loss\",\"date\":\"2019-03-01\",\"description\":\"FIRE\",\"pd\":null,\"bi\":null,\"collission\":null,\"mp\":null,\"vehicleInvolved\":100,\"value\":1234,\"insertTimestamp\":null,\"updateTimestamp\":null,\"updatedBy\":null,\"insertedBy\":null,\"versionNum\":null,\"policyId\":null,\"imDriver\":{\"driverId\":112,\"policyId\":582,\"prefix\":null,\"firstName\":\"Test\",\"middleName\":null,\"lastName\":\"Test\",\"suffix\":null,\"gender\":\"Female\",\"dob\":\"2019-02-28\",\"ssn\":null,\"driverLicenseNumber\":null,\"sdipPoint\":null,\"driverLicenseState\":null,\"dateLicensed\":\"2019-03-14\",\"driverLicenseStatus\":\"Expired\",\"ageLicensed\":17,\"accPrev\":null,\"maritalStatus\":\"Single\",\"relation\":\"Employee\",\"industry\":\"Art/Design/Media\",\"occupation\":\"Administrative Assistant\",\"goodStudent\":\"\\\"\\\"\",\"student100\":\"\\\"\\\"\",\"driverTraining\":\"\\\"\\\"\",\"goodDriver\":\"\\\"\\\"\",\"matDriver\":\"\\\"\\\"\",\"principalVehicle\":null,\"rated\":null,\"sr22\":null,\"fr44\":null,\"licenseRevokedSuspended\":null,\"insertTimestamp\":null,\"updateTimestamp\":null,\"updatedBy\":null,\"insertedBy\":null,\"versionNum\":null,\"imPolicyInfo\":{\"policyId\":582,\"polNum\":null,\"polSeqNum\":null,\"company\":null,\"policyTerm\":null,\"package_\":null,\"effective\":\"2019-03-15\",\"creditCheckAuth\":null,\"insertTimestamp\":null,\"updateTimestamp\":null,\"updatedBy\":null,\"insertedBy\":null,\"riskState\":null,\"insuramatchId\":null,\"versionNum\":null,\"submittedTime\":null,\"submittedStatus\":null}}},{\"incidentId\":66,\"driverId\":112,\"incidentType\":\"Comp Loss\",\"date\":\"2019-03-01\",\"description\":\"FIRE\",\"pd\":null,\"bi\":null,\"collission\":null,\"mp\":null,\"vehicleInvolved\":100,\"value\":1234,\"insertTimestamp\":null,\"updateTimestamp\":null,\"updatedBy\":null,\"insertedBy\":null,\"versionNum\":null,\"policyId\":null,\"imDriver\":{\"driverId\":112,\"policyId\":582,\"prefix\":null,\"firstName\":\"Test\",\"middleName\":null,\"lastName\":\"Test\",\"suffix\":null,\"gender\":\"Female\",\"dob\":\"2019-02-28\",\"ssn\":null,\"driverLicenseNumber\":null,\"sdipPoint\":null,\"driverLicenseState\":null,\"dateLicensed\":\"2019-03-14\",\"driverLicenseStatus\":\"Expired\",\"ageLicensed\":17,\"accPrev\":null,\"maritalStatus\":\"Single\",\"relation\":\"Employee\",\"industry\":\"Art/Design/Media\",\"occupation\":\"Administrative Assistant\",\"goodStudent\":\"\\\"\\\"\",\"student100\":\"\\\"\\\"\",\"driverTraining\":\"\\\"\\\"\",\"goodDriver\":\"\\\"\\\"\",\"matDriver\":\"\\\"\\\"\",\"principalVehicle\":null,\"rated\":null,\"sr22\":null,\"fr44\":null,\"licenseRevokedSuspended\":null,\"insertTimestamp\":null,\"updateTimestamp\":null,\"updatedBy\":null,\"insertedBy\":null,\"versionNum\":null,\"imPolicyInfo\":{\"policyId\":582,\"polNum\":null,\"polSeqNum\":null,\"company\":null,\"policyTerm\":null,\"package_\":null,\"effective\":\"2019-03-15\",\"creditCheckAuth\":null,\"insertTimestamp\":null,\"updateTimestamp\":null,\"updatedBy\":null,\"insertedBy\":null,\"riskState\":null,\"insuramatchId\":null,\"versionNum\":null,\"submittedTime\":null,\"submittedStatus\":null}}},{\"incidentId\":67,\"driverId\":112,\"incidentType\":\"Accident\",\"date\":\"2019-02-27\",\"description\":\"FIRE\",\"pd\":null,\"bi\":null,\"collission\":null,\"mp\":null,\"vehicleInvolved\":100,\"value\":1234,\"insertTimestamp\":null,\"updateTimestamp\":null,\"updatedBy\":null,\"insertedBy\":null,\"versionNum\":null,\"policyId\":null,\"imDriver\":{\"driverId\":112,\"policyId\":582,\"prefix\":null,\"firstName\":\"Test\",\"middleName\":null,\"lastName\":\"Test\",\"suffix\":null,\"gender\":\"Female\",\"dob\":\"2019-02-28\",\"ssn\":null,\"driverLicenseNumber\":null,\"sdipPoint\":null,\"driverLicenseState\":null,\"dateLicensed\":\"2019-03-14\",\"driverLicenseStatus\":\"Expired\",\"ageLicensed\":17,\"accPrev\":null,\"maritalStatus\":\"Single\",\"relation\":\"Employee\",\"industry\":\"Art/Design/Media\",\"occupation\":\"Administrative Assistant\",\"goodStudent\":\"\\\"\\\"\",\"student100\":\"\\\"\\\"\",\"driverTraining\":\"\\\"\\\"\",\"goodDriver\":\"\\\"\\\"\",\"matDriver\":\"\\\"\\\"\",\"principalVehicle\":null,\"rated\":null,\"sr22\":null,\"fr44\":null,\"licenseRevokedSuspended\":null,\"insertTimestamp\":null,\"updateTimestamp\":null,\"updatedBy\":null,\"insertedBy\":null,\"versionNum\":null,\"imPolicyInfo\":{\"policyId\":582,\"polNum\":null,\"polSeqNum\":null,\"company\":null,\"policyTerm\":null,\"package_\":null,\"effective\":\"2019-03-15\",\"creditCheckAuth\":null,\"insertTimestamp\":null,\"updateTimestamp\":null,\"updatedBy\":null,\"insertedBy\":null,\"riskState\":null,\"insuramatchId\":null,\"versionNum\":null,\"submittedTime\":null,\"submittedStatus\":null}}},{\"incidentId\":68,\"driverId\":112,\"incidentType\":\"Accident\",\"date\":\"2019-02-27\",\"description\":\"FIRE\",\"pd\":null,\"bi\":null,\"collission\":null,\"mp\":null,\"vehicleInvolved\":100,\"value\":1234,\"insertTimestamp\":null,\"updateTimestamp\":null,\"updatedBy\":null,\"insertedBy\":null,\"versionNum\":null,\"policyId\":null,\"imDriver\":{\"driverId\":112,\"policyId\":582,\"prefix\":null,\"firstName\":\"Test\",\"middleName\":null,\"lastName\":\"Test\",\"suffix\":null,\"gender\":\"Female\",\"dob\":\"2019-02-28\",\"ssn\":null,\"driverLicenseNumber\":null,\"sdipPoint\":null,\"driverLicenseState\":null,\"dateLicensed\":\"2019-03-14\",\"driverLicenseStatus\":\"Expired\",\"ageLicensed\":17,\"accPrev\":null,\"maritalStatus\":\"Single\",\"relation\":\"Employee\",\"industry\":\"Art/Design/Media\",\"occupation\":\"Administrative Assistant\",\"goodStudent\":\"\\\"\\\"\",\"student100\":\"\\\"\\\"\",\"driverTraining\":\"\\\"\\\"\",\"goodDriver\":\"\\\"\\\"\",\"matDriver\":\"\\\"\\\"\",\"principalVehicle\":null,\"rated\":null,\"sr22\":null,\"fr44\":null,\"licenseRevokedSuspended\":null,\"insertTimestamp\":null,\"updateTimestamp\":null,\"updatedBy\":null,\"insertedBy\":null,\"versionNum\":null,\"imPolicyInfo\":{\"policyId\":582,\"polNum\":null,\"polSeqNum\":null,\"company\":null,\"policyTerm\":null,\"package_\":null,\"effective\":\"2019-03-15\",\"creditCheckAuth\":null,\"insertTimestamp\":null,\"updateTimestamp\":null,\"updatedBy\":null,\"insertedBy\":null,\"riskState\":null,\"insuramatchId\":null,\"versionNum\":null,\"submittedTime\":null,\"submittedStatus\":null}}}],\"last\":false,\"totalElements\":336,\"totalPages\":17,\"sort\":[],\"numberOfElements\":20,\"first\":true,\"size\":20,\"number\":0}",
    "convertedResponse" : null
  },
  "proxy" : null
}