{
  "endpointAddress" : "http://pkhgqfmqv632.cloud.wavemakeronline.com/UniRateServices/services/UNIVERSAL_RATE/queryExecutor/queries/FetchStatesForCarrier",
  "method" : "GET",
  "headers" : { },
  "redirectEnabled" : true,
  "requestBody" : "",
  "queryParams" : {
    "carrier" : "1",
    "size" : "200",
    "page" : "1",
    "sort" : "carrierStates"
  },
  "authDetails" : null,
  "contentType" : "application/json",
  "multiParamInfoList" : null,
  "sampleHttpResponseDetails" : {
    "statusCode" : 0,
    "headers" : { },
    "responseBody" : "{\"content\":[{\"imCarrierManagementId\":2,\"carrierStates\":\"OR,OK,ND,MA,CA\",\"carrierListId\":1,\"carrierName\":\"Mercury Auto Insurance\"}],\"last\":true,\"totalElements\":1,\"totalPages\":1,\"sort\":[{\"direction\":\"ASC\",\"property\":\"carrierStates\",\"ignoreCase\":false,\"nullHandling\":\"NATIVE\",\"ascending\":true}],\"first\":true,\"numberOfElements\":1,\"size\":200,\"number\":0}",
    "convertedResponse" : null
  },
  "proxy" : null
}
