{
  "endpointAddress" : "http://pkhgqfmqv632.cloud.wavemakeronline.com/UniRateServices/services/UNIVERSAL_RATE/queryExecutor/queries/FetchGeneralDefaultsForListOfStates",
  "method" : "GET",
  "headers" : { },
  "redirectEnabled" : true,
  "requestBody" : "",
  "queryParams" : {
    "tabname" : "Client",
    "size" : "200",
    "page" : "1",
    "state" : "All,AK"
  },
  "authDetails" : null,
  "contentType" : "application/json",
  "multiParamInfoList" : null,
  "sampleHttpResponseDetails" : {
    "statusCode" : 200,
    "headers" : {
      "X-XSS-Protection" : [ "1; mode=block" ],
      "Content-Security-Policy" : [ "frame-ancestors 'self'" ],
      "X-Content-Type-Options" : [ "nosniff" ],
      "ETag" : [ "\"039c7855fa4cbbed517aaff3a6aa75354\"" ],
      "Connection" : [ "keep-alive" ],
      "Content-Type" : [ "application/json;charset=UTF-8" ],
      "Content-Length" : [ "254" ],
      "Date" : [ "Mon, 20 May 2019 12:01:35 GMT" ],
      "Cache-Control" : [ "max-age=0" ]
    },
    "responseBody" : "{\"content\":[{\"tabname\":\"Client\",\"listName\":\"PolicyTermType\",\"listDesc\":\"Policy Term\",\"stateCd\":\"All\",\"defaultLock\":\"No\",\"dropdownListId\":103}],\"last\":true,\"totalElements\":1,\"totalPages\":1,\"sort\":[],\"first\":true,\"numberOfElements\":1,\"size\":200,\"number\":0}",
    "convertedResponse" : null
  },
  "proxy" : null
}