{
  "basePath" : "${rest.CreateImIncident.basepath}",
  "paths" : {
    "/services/UNIVERSAL_RATE/ImIncident" : {
      "post" : {
        "x-WM-METHOD_NAME" : "invoke",
        "x-WM-ACCESS_SPECIFIER" : "APP_ONLY",
        "operationId" : "CreateImIncident_RestServiceVirtualController-invoke",
        "responses" : {
          "200" : {
            "schema" : {
              "$ref" : "#/definitions/RootResponse"
            },
            "description" : "Success"
          }
        },
        "parameters" : [ {
          "schema" : {
            "$ref" : "#/definitions/RootRequest"
          },
          "in" : "body",
          "name" : "RequestBody",
          "description" : "RequestBody",
          "x-WM-FULLY_QUALIFIED_TYPE" : "java.lang.Object",
          "required" : false
        } ],
        "tags" : [ "RestServiceVirtualController" ],
        "consumes" : [ "application/json" ]
      },
      "x-WM-BASE_PATH" : "/services/UNIVERSAL_RATE/ImIncident",
      "x-WM-TAG" : "RestServiceVirtualController",
      "x-WM-RELATIVE_PATH" : "",
      "x-WM-COMPLETE_PATH" : "${rest.CreateImIncident.scheme}://${rest.CreateImIncident.host}${rest.CreateImIncident.basepath}/services/UNIVERSAL_RATE/ImIncident"
    }
  },
  "host" : "${rest.CreateImIncident.host}",
  "schemes" : [ "${rest.CreateImIncident.scheme}" ],
  "definitions" : {
    "imPolicyInfo" : {
      "x-WM-FULLY_QUALIFIED_NAME" : "CreateImIncident.imPolicyInfo",
      "x-WM-TAGS" : [ "RestServiceVirtualController" ],
      "required" : [ "company", "creditCheckAuth", "effective", "insertTimestamp", "insertedBy", "insuramatchId", "package_", "polNum", "polSeqNum", "policyId", "policyTerm", "riskState", "updateTimestamp", "updatedBy", "versionNum" ],
      "properties" : {
        "creditCheckAuth" : {
          "type" : "string"
        },
        "updatedBy" : {
          "type" : "string"
        },
        "insuramatchId" : {
          "type" : "string"
        },
        "policyTerm" : {
          "type" : "string"
        },
        "versionNum" : {
          "type" : "string"
        },
        "insertTimestamp" : {
          "type" : "string"
        },
        "polSeqNum" : {
          "type" : "string"
        },
        "updateTimestamp" : {
          "type" : "string"
        },
        "effective" : {
          "type" : "string"
        },
        "insertedBy" : {
          "type" : "string"
        },
        "policyId" : {
          "format" : "int32",
          "type" : "integer"
        },
        "polNum" : {
          "type" : "string"
        },
        "package_" : {
          "type" : "string"
        },
        "company" : {
          "type" : "string"
        },
        "riskState" : {
          "type" : "string"
        }
      }
    },
    "imDriver" : {
      "x-WM-FULLY_QUALIFIED_NAME" : "CreateImIncident.imDriver",
      "x-WM-TAGS" : [ "RestServiceVirtualController" ],
      "required" : [ "accPrev", "ageLicensed", "dateLicensed", "dob", "driverId", "driverLicenseNumber", "driverLicenseState", "driverLicenseStatus", "driverTraining", "firstName", "fr44", "gender", "goodDriver", "goodStudent", "imPolicyInfo", "industry", "insertTimestamp", "insertedBy", "lastName", "licenseRevokedSuspended", "maritalStatus", "matDriver", "middleName", "occupation", "policyId", "prefix", "principalVehicle", "rated", "relation", "sdipPoint", "sr22", "ssn", "student100", "suffix", "updateTimestamp", "updatedBy", "versionNum" ],
      "properties" : {
        "lastName" : {
          "type" : "string"
        },
        "imPolicyInfo" : {
          "$ref" : "#/definitions/imPolicyInfo"
        },
        "driverTraining" : {
          "type" : "string"
        },
        "occupation" : {
          "type" : "string"
        },
        "gender" : {
          "type" : "string"
        },
        "prefix" : {
          "type" : "string"
        },
        "versionNum" : {
          "type" : "string"
        },
        "industry" : {
          "type" : "string"
        },
        "goodStudent" : {
          "type" : "string"
        },
        "insertTimestamp" : {
          "type" : "string"
        },
        "suffix" : {
          "type" : "string"
        },
        "ageLicensed" : {
          "type" : "string"
        },
        "driverLicenseStatus" : {
          "type" : "string"
        },
        "goodDriver" : {
          "type" : "string"
        },
        "ssn" : {
          "type" : "string"
        },
        "relation" : {
          "type" : "string"
        },
        "licenseRevokedSuspended" : {
          "type" : "string"
        },
        "accPrev" : {
          "type" : "string"
        },
        "insertedBy" : {
          "type" : "string"
        },
        "dateLicensed" : {
          "type" : "string"
        },
        "matDriver" : {
          "type" : "string"
        },
        "sdipPoint" : {
          "type" : "string"
        },
        "student100" : {
          "type" : "string"
        },
        "updatedBy" : {
          "type" : "string"
        },
        "driverLicenseState" : {
          "type" : "string"
        },
        "sr22" : {
          "type" : "string"
        },
        "principalVehicle" : {
          "type" : "string"
        },
        "updateTimestamp" : {
          "type" : "string"
        },
        "rated" : {
          "type" : "string"
        },
        "firstName" : {
          "type" : "string"
        },
        "driverLicenseNumber" : {
          "type" : "string"
        },
        "driverId" : {
          "format" : "int32",
          "type" : "integer"
        },
        "policyId" : {
          "format" : "int32",
          "type" : "integer"
        },
        "dob" : {
          "type" : "string"
        },
        "middleName" : {
          "type" : "string"
        },
        "fr44" : {
          "type" : "string"
        },
        "maritalStatus" : {
          "type" : "string"
        }
      }
    },
    "RootRequest" : {
      "x-WM-FULLY_QUALIFIED_NAME" : "CreateImIncident.RootRequest",
      "x-WM-TAGS" : [ "RestServiceVirtualController" ],
      "required" : [ "bi", "collission", "date", "description", "driverId", "incidentId", "incidentType", "insertTimestamp", "insertedBy", "mp", "pd", "updateTimestamp", "updatedBy", "value", "vehicleInvolved", "versionNum" ],
      "properties" : {
        "date" : {
          "type" : "string"
        },
        "collission" : {
          "type" : "string"
        },
        "mp" : {
          "type" : "string"
        },
        "updatedBy" : {
          "type" : "string"
        },
        "vehicleInvolved" : {
          "type" : "string"
        },
        "versionNum" : {
          "type" : "string"
        },
        "bi" : {
          "type" : "string"
        },
        "incidentType" : {
          "type" : "string"
        },
        "description" : {
          "type" : "string"
        },
        "insertTimestamp" : {
          "type" : "string"
        },
        "updateTimestamp" : {
          "type" : "string"
        },
        "insertedBy" : {
          "type" : "string"
        },
        "driverId" : {
          "format" : "int32",
          "type" : "integer"
        },
        "pd" : {
          "type" : "string"
        },
        "incidentId" : {
          "format" : "int32",
          "type" : "integer"
        },
        "value" : {
          "type" : "string"
        }
      }
    },
    "RootResponse" : {
      "x-WM-FULLY_QUALIFIED_NAME" : "CreateImIncident.RootResponse",
      "x-WM-TAGS" : [ "RestServiceVirtualController" ],
      "required" : [ "bi", "collission", "date", "description", "driverId", "imDriver", "incidentId", "incidentType", "insertTimestamp", "insertedBy", "mp", "pd", "updateTimestamp", "updatedBy", "value", "vehicleInvolved", "versionNum" ],
      "properties" : {
        "date" : {
          "type" : "string"
        },
        "collission" : {
          "type" : "string"
        },
        "mp" : {
          "type" : "string"
        },
        "updatedBy" : {
          "type" : "string"
        },
        "vehicleInvolved" : {
          "type" : "string"
        },
        "versionNum" : {
          "type" : "string"
        },
        "bi" : {
          "type" : "string"
        },
        "incidentType" : {
          "type" : "string"
        },
        "imDriver" : {
          "$ref" : "#/definitions/imDriver"
        },
        "description" : {
          "type" : "string"
        },
        "insertTimestamp" : {
          "type" : "string"
        },
        "updateTimestamp" : {
          "type" : "string"
        },
        "insertedBy" : {
          "type" : "string"
        },
        "driverId" : {
          "format" : "int32",
          "type" : "integer"
        },
        "pd" : {
          "type" : "string"
        },
        "incidentId" : {
          "format" : "int32",
          "type" : "integer"
        },
        "value" : {
          "type" : "string"
        }
      }
    }
  },
  "swagger" : "2.0",
  "info" : {
    "x-WM-USE_PROXY_FOR_WEB" : true,
    "x-WM-USE_PROXY_FOR_MOBILE" : true,
    "x-WM-API_ID" : "ae9aa0fa-996e-42cb-a413-c9e7fdba020d",
    "x-WM-SERVICE_ID" : "cloud",
    "version" : "2.0",
    "x-WM-SERVICE_TYPE" : "RestService"
  },
  "tags" : [ {
    "name" : "RestServiceVirtualController",
    "description" : "Rest service swagger documentation"
  } ]
}