{
  "basePath" : "${rest.updateResidenceInfo.basepath}",
  "paths" : {
    "/services/UNIVERSAL_RATE/ImResidenceInfo/{ID}" : {
      "x-WM-BASE_PATH" : "/services/UNIVERSAL_RATE/ImResidenceInfo/{ID}",
      "x-WM-TAG" : "RestServiceVirtualController",
      "x-WM-RELATIVE_PATH" : "",
      "x-WM-COMPLETE_PATH" : "${rest.updateResidenceInfo.scheme}://${rest.updateResidenceInfo.host}${rest.updateResidenceInfo.basepath}/services/UNIVERSAL_RATE/ImResidenceInfo/{ID}",
      "put" : {
        "x-WM-METHOD_NAME" : "invoke",
        "x-WM-ACCESS_SPECIFIER" : "APP_ONLY",
        "operationId" : "updateResidenceInfo_RestServiceVirtualController-invoke",
        "responses" : {
          "200" : {
            "schema" : {
              "$ref" : "#/definitions/RootResponse"
            },
            "description" : "Success"
          }
        },
        "parameters" : [ {
          "schema" : {
            "$ref" : "#/definitions/RootRequest"
          },
          "in" : "body",
          "name" : "RequestBody",
          "description" : "RequestBody",
          "x-WM-FULLY_QUALIFIED_TYPE" : "java.lang.Object",
          "required" : false
        }, {
          "in" : "path",
          "name" : "ID",
          "type" : "string",
          "required" : true
        } ],
        "tags" : [ "RestServiceVirtualController" ],
        "consumes" : [ "application/json" ]
      }
    }
  },
  "host" : "${rest.updateResidenceInfo.host}",
  "schemes" : [ "${rest.updateResidenceInfo.scheme}" ],
  "definitions" : {
    "imPolicyInfo" : {
      "x-WM-FULLY_QUALIFIED_NAME" : "updateResidenceInfo.imPolicyInfo",
      "x-WM-TAGS" : [ "RestServiceVirtualController" ],
      "required" : [ "company", "creditCheckAuth", "effective", "insertTimestamp", "insertedBy", "insuramatchId", "package_", "polNum", "polSeqNum", "policyId", "policyTerm", "riskState", "submittedStatus", "submittedTime", "updateTimestamp", "updatedBy", "versionNum" ],
      "properties" : {
        "creditCheckAuth" : {
          "type" : "string"
        },
        "updatedBy" : {
          "type" : "string"
        },
        "insuramatchId" : {
          "type" : "string"
        },
        "submittedStatus" : {
          "type" : "string"
        },
        "policyTerm" : {
          "type" : "string"
        },
        "submittedTime" : {
          "type" : "string"
        },
        "versionNum" : {
          "type" : "string"
        },
        "insertTimestamp" : {
          "type" : "string"
        },
        "polSeqNum" : {
          "type" : "string"
        },
        "updateTimestamp" : {
          "type" : "string"
        },
        "effective" : {
          "type" : "string"
        },
        "insertedBy" : {
          "type" : "string"
        },
        "policyId" : {
          "format" : "int32",
          "type" : "integer"
        },
        "polNum" : {
          "type" : "string"
        },
        "package_" : {
          "type" : "string"
        },
        "company" : {
          "type" : "string"
        },
        "riskState" : {
          "type" : "string"
        }
      }
    },
    "RootRequest" : {
      "x-WM-FULLY_QUALIFIED_NAME" : "updateResidenceInfo.RootRequest",
      "x-WM-TAGS" : [ "RestServiceVirtualController" ],
      "required" : [ "address2", "addressCode", "addressType", "city", "county", "insertTimestamp", "insertedBy", "monthsAtCurrent", "monthsAtPrevious", "ownership", "policyId", "residenceId", "stateCode", "streetName", "streetNumber", "unitNumber", "updateTimestamp", "updatedBy", "validation", "versionNum", "yearsAtCurrent", "yearsAtPrevious", "zip4", "zip5" ],
      "properties" : {
        "addressCode" : {
          "type" : "string"
        },
        "updatedBy" : {
          "type" : "string"
        },
        "streetNumber" : {
          "type" : "string"
        },
        "address2" : {
          "type" : "string"
        },
        "city" : {
          "type" : "string"
        },
        "monthsAtCurrent" : {
          "type" : "string"
        },
        "addressType" : {
          "type" : "string"
        },
        "versionNum" : {
          "type" : "string"
        },
        "yearsAtCurrent" : {
          "format" : "int32",
          "type" : "integer"
        },
        "county" : {
          "type" : "string"
        },
        "yearsAtPrevious" : {
          "type" : "string"
        },
        "unitNumber" : {
          "type" : "string"
        },
        "zip4" : {
          "type" : "string"
        },
        "insertTimestamp" : {
          "type" : "string"
        },
        "zip5" : {
          "type" : "string"
        },
        "residenceId" : {
          "format" : "int32",
          "type" : "integer"
        },
        "updateTimestamp" : {
          "type" : "string"
        },
        "insertedBy" : {
          "type" : "string"
        },
        "streetName" : {
          "type" : "string"
        },
        "policyId" : {
          "format" : "int32",
          "type" : "integer"
        },
        "ownership" : {
          "type" : "string"
        },
        "monthsAtPrevious" : {
          "format" : "int32",
          "type" : "integer"
        },
        "stateCode" : {
          "type" : "string"
        },
        "validation" : {
          "type" : "string"
        }
      }
    },
    "RootResponse" : {
      "x-WM-FULLY_QUALIFIED_NAME" : "updateResidenceInfo.RootResponse",
      "x-WM-TAGS" : [ "RestServiceVirtualController" ],
      "required" : [ "address2", "addressCode", "addressType", "city", "county", "imPolicyInfo", "insertTimestamp", "insertedBy", "monthsAtCurrent", "monthsAtPrevious", "ownership", "policyId", "residenceId", "stateCode", "streetName", "streetNumber", "unitNumber", "updateTimestamp", "updatedBy", "validation", "versionNum", "yearsAtCurrent", "yearsAtPrevious", "zip4", "zip5" ],
      "properties" : {
        "imPolicyInfo" : {
          "$ref" : "#/definitions/imPolicyInfo"
        },
        "city" : {
          "type" : "string"
        },
        "monthsAtCurrent" : {
          "type" : "string"
        },
        "versionNum" : {
          "type" : "string"
        },
        "county" : {
          "type" : "string"
        },
        "yearsAtPrevious" : {
          "type" : "string"
        },
        "unitNumber" : {
          "type" : "string"
        },
        "zip4" : {
          "type" : "string"
        },
        "insertTimestamp" : {
          "type" : "string"
        },
        "zip5" : {
          "type" : "string"
        },
        "insertedBy" : {
          "type" : "string"
        },
        "streetName" : {
          "type" : "string"
        },
        "validation" : {
          "type" : "string"
        },
        "addressCode" : {
          "type" : "string"
        },
        "updatedBy" : {
          "type" : "string"
        },
        "streetNumber" : {
          "type" : "string"
        },
        "address2" : {
          "type" : "string"
        },
        "addressType" : {
          "type" : "string"
        },
        "yearsAtCurrent" : {
          "format" : "int32",
          "type" : "integer"
        },
        "residenceId" : {
          "format" : "int32",
          "type" : "integer"
        },
        "updateTimestamp" : {
          "type" : "string"
        },
        "policyId" : {
          "format" : "int32",
          "type" : "integer"
        },
        "ownership" : {
          "type" : "string"
        },
        "monthsAtPrevious" : {
          "format" : "int32",
          "type" : "integer"
        },
        "stateCode" : {
          "type" : "string"
        }
      }
    }
  },
  "swagger" : "2.0",
  "info" : {
    "x-WM-USE_PROXY_FOR_WEB" : true,
    "x-WM-USE_PROXY_FOR_MOBILE" : true,
    "x-WM-API_ID" : "aa6fbeda-c684-452d-97a0-01e4430acf89",
    "x-WM-SERVICE_ID" : "cloud2",
    "version" : "2.0",
    "x-WM-SERVICE_TYPE" : "RestService"
  },
  "tags" : [ {
    "name" : "RestServiceVirtualController",
    "description" : "Rest service swagger documentation"
  } ]
}