{
  "swagger" : "2.0",
  "info" : {
    "version" : "2.0",
    "x-WM-USE_PROXY_FOR_WEB" : true,
    "x-WM-USE_PROXY_FOR_MOBILE" : true,
    "x-WM-API_ID" : "fce560ca-16ce-46d5-bddc-b43334cae6fd",
    "x-WM-SERVICE_ID" : "cloud",
    "x-WM-SERVICE_TYPE" : "RestService"
  },
  "host" : "pkhgqfmqv632.cloud.wavemakeronline.com",
  "basePath" : "/UniRateServices",
  "tags" : [ {
    "name" : "RestServiceVirtualController",
    "description" : "Rest service swagger documentation"
  } ],
  "schemes" : [ "http" ],
  "paths" : {
    "/services/UNIVERSAL_RATE/ImEligibility" : {
      "post" : {
        "tags" : [ "RestServiceVirtualController" ],
        "operationId" : "CreateImEligibility_RestServiceVirtualController-invoke",
        "consumes" : [ "application/json" ],
        "parameters" : [ {
          "in" : "body",
          "name" : "RequestBody",
          "description" : "RequestBody",
          "required" : false,
          "schema" : {
            "$ref" : "#/definitions/RootRequest"
          },
          "x-WM-FULLY_QUALIFIED_TYPE" : "java.lang.Object"
        } ],
        "responses" : {
          "200" : {
            "description" : "Success",
            "schema" : {
              "$ref" : "#/definitions/RootResponse"
            }
          }
        },
        "x-WM-METHOD_NAME" : "invoke",
        "x-WM-ACCESS_SPECIFIER" : "APP_ONLY"
      },
      "x-WM-BASE_PATH" : "/services/UNIVERSAL_RATE/ImEligibility",
      "x-WM-TAG" : "RestServiceVirtualController",
      "x-WM-RELATIVE_PATH" : "",
      "x-WM-COMPLETE_PATH" : "${rest.CreateImEligibility.scheme}://${rest.CreateImEligibility.host}${rest.CreateImEligibility.basepath}/services/UNIVERSAL_RATE/ImEligibility"
    }
  },
  "definitions" : {
    "RootRequest" : {
      "required" : [ "eligibilityId", "insertTimestamp", "insertedBy", "policyId", "questionAnswer1", "questionAnswer2", "questionAnswer3", "questionAnswer4", "questionAnswer5", "updateTimestamp", "updatedBy", "versionNum" ],
      "properties" : {
        "eligibilityId" : {
          "type" : "integer",
          "format" : "int32"
        },
        "insertedBy" : {
          "type" : "string"
        },
        "updatedBy" : {
          "type" : "string"
        },
        "policyId" : {
          "type" : "integer",
          "format" : "int32"
        },
        "questionAnswer2" : {
          "type" : "string"
        },
        "questionAnswer3" : {
          "type" : "string"
        },
        "versionNum" : {
          "type" : "string"
        },
        "questionAnswer1" : {
          "type" : "string"
        },
        "questionAnswer4" : {
          "type" : "string"
        },
        "insertTimestamp" : {
          "type" : "string"
        },
        "questionAnswer5" : {
          "type" : "string"
        },
        "updateTimestamp" : {
          "type" : "string"
        }
      },
      "x-WM-FULLY_QUALIFIED_NAME" : "CreateImEligibility.RootRequest",
      "x-WM-TAGS" : [ "RestServiceVirtualController" ]
    },
    "RootResponse" : {
      "required" : [ "eligibilityId", "insertTimestamp", "insertedBy", "policyId", "questionAnswer1", "questionAnswer10", "questionAnswer2", "questionAnswer3", "questionAnswer4", "questionAnswer5", "questionAnswer6", "questionAnswer7", "questionAnswer8", "questionAnswer9", "updateTimestamp", "updatedBy", "versionNum" ],
      "properties" : {
        "updatedBy" : {
          "type" : "string"
        },
        "questionAnswer10" : {
          "type" : "string"
        },
        "versionNum" : {
          "type" : "string"
        },
        "questionAnswer6" : {
          "type" : "string"
        },
        "questionAnswer7" : {
          "type" : "string"
        },
        "questionAnswer4" : {
          "type" : "string"
        },
        "insertTimestamp" : {
          "type" : "string"
        },
        "questionAnswer5" : {
          "type" : "string"
        },
        "questionAnswer8" : {
          "type" : "string"
        },
        "updateTimestamp" : {
          "type" : "string"
        },
        "questionAnswer9" : {
          "type" : "string"
        },
        "eligibilityId" : {
          "type" : "integer",
          "format" : "int32"
        },
        "insertedBy" : {
          "type" : "string"
        },
        "policyId" : {
          "type" : "integer",
          "format" : "int32"
        },
        "questionAnswer2" : {
          "type" : "string"
        },
        "questionAnswer3" : {
          "type" : "string"
        },
        "questionAnswer1" : {
          "type" : "string"
        }
      },
      "x-WM-FULLY_QUALIFIED_NAME" : "CreateImEligibility.RootResponse",
      "x-WM-TAGS" : [ "RestServiceVirtualController" ]
    }
  }
}