{
  "swagger" : "2.0",
  "info" : {
    "version" : "2.0",
    "x-WM-USE_PROXY_FOR_WEB" : true,
    "x-WM-USE_PROXY_FOR_MOBILE" : true,
    "x-WM-API_ID" : "b8dd7d47-f52d-40a3-8d6a-be75f832c372",
    "x-WM-SERVICE_ID" : "plymouthrock",
    "x-WM-SERVICE_TYPE" : "RestService"
  },
  "host" : "apismod.plymouthrock.com",
  "basePath" : "",
  "tags" : [ {
    "name" : "RestServiceVirtualController",
    "description" : "Rest service swagger documentation"
  } ],
  "schemes" : [ "https" ],
  "paths" : {
    "/MakeModelVerification/invoke/public/common/vin-verification/{MAKE}/{YEAR}/{MODEL}" : {
      "get" : {
        "tags" : [ "RestServiceVirtualController" ],
        "operationId" : "MakeModelVerification_RestServiceVirtualController-invoke",
        "consumes" : [ "application/json" ],
        "parameters" : [ {
          "name" : "MAKE",
          "in" : "path",
          "required" : true,
          "type" : "string"
        }, {
          "name" : "YEAR",
          "in" : "path",
          "required" : true,
          "type" : "string"
        }, {
          "name" : "MODEL",
          "in" : "path",
          "required" : true,
          "type" : "string"
        } ],
        "responses" : {
          "200" : {
            "description" : "Success",
            "schema" : {
              "$ref" : "#/definitions/RootResponse"
            }
          }
        },
        "security" : [ {
          "basic" : [ ]
        } ],
        "x-WM-METHOD_NAME" : "invoke",
        "x-WM-ACCESS_SPECIFIER" : "APP_ONLY"
      },
      "x-WM-BASE_PATH" : "/MakeModelVerification/invoke/public/common/vin-verification/{MAKE}/{YEAR}/{MODEL}",
      "x-WM-TAG" : "RestServiceVirtualController",
      "x-WM-RELATIVE_PATH" : "",
      "x-WM-COMPLETE_PATH" : "${rest.MakeModelVerification.scheme}://${rest.MakeModelVerification.host}${rest.MakeModelVerification.basepath}/public/common/vin-verification/{MAKE}/{YEAR}/{MODEL}"
    }
  },
  "securityDefinitions" : {
    "basic" : {
      "type" : "basic"
    }
  },
  "definitions" : {
    "VinPrefixDetailEntryItem" : {
      "required" : [ "AntilockBrakes", "AntilockBrakesCode", "BodyStyle", "BodyStyleCode", "CID", "Cylinders", "DaytimeRL", "DaytimeRLCode", "ISO_27_Mass_Symbol_From_Collision", "ISO_27_Symbol_From_Collision", "ISO_75_Collision_Symbol", "ISO_75_Comprehensive_Symbol", "ISO_Price_New_Symbol", "PerformanceIndicator", "PerformanceIndicatorCode", "RestraintType", "RestraintTypeCode", "Symbol", "VehicleType", "VehicleTypeCode", "VinPrefix" ],
      "properties" : {
        "AntilockBrakes" : {
          "type" : "string"
        },
        "PerformanceIndicatorCode" : {
          "type" : "string"
        },
        "BodyStyleCode" : {
          "type" : "string"
        },
        "PerformanceIndicator" : {
          "type" : "string"
        },
        "Symbol" : {
          "type" : "string"
        },
        "VehicleType" : {
          "type" : "string"
        },
        "ISO_Price_New_Symbol" : {
          "type" : "string"
        },
        "ISO_75_Comprehensive_Symbol" : {
          "type" : "string"
        },
        "RestraintType" : {
          "type" : "string"
        },
        "ISO_27_Symbol_From_Collision" : {
          "type" : "string"
        },
        "VehicleTypeCode" : {
          "type" : "string"
        },
        "AntilockBrakesCode" : {
          "type" : "string"
        },
        "DaytimeRLCode" : {
          "type" : "string"
        },
        "VinPrefix" : {
          "type" : "string"
        },
        "BodyStyle" : {
          "type" : "string"
        },
        "ISO_75_Collision_Symbol" : {
          "type" : "string"
        },
        "RestraintTypeCode" : {
          "type" : "string"
        },
        "DaytimeRL" : {
          "type" : "string"
        },
        "ISO_27_Mass_Symbol_From_Collision" : {
          "type" : "string"
        },
        "CID" : {
          "type" : "string"
        },
        "Cylinders" : {
          "type" : "string"
        }
      },
      "x-WM-FULLY_QUALIFIED_NAME" : "MakeModelVerification.VinPrefixDetailEntryItem",
      "x-WM-TAGS" : [ "RestServiceVirtualController" ]
    },
    "RootResponse" : {
      "required" : [ "VinPrefixDetail" ],
      "properties" : {
        "VinPrefixDetail" : {
          "type" : "array",
          "items" : {
            "$ref" : "#/definitions/VinPrefixDetailEntryItem"
          },
          "x-WM-IS_LIST" : true
        }
      },
      "x-WM-FULLY_QUALIFIED_NAME" : "MakeModelVerification.RootResponse",
      "x-WM-TAGS" : [ "RestServiceVirtualController" ]
    }
  }
}
