{
  "swagger" : "2.0",
  "info" : {
    "version" : "2.0",
    "x-WM-USE_PROXY_FOR_WEB" : true,
    "x-WM-USE_PROXY_FOR_MOBILE" : true,
    "x-WM-API_ID" : "65ad8504-08cc-470d-a364-d7b8b5531054",
    "x-WM-SERVICE_ID" : "cloud",
    "x-WM-SERVICE_TYPE" : "RestService"
  },
  "host" : "pkhgqfmqv632.cloud.wavemakeronline.com",
  "basePath" : "",
  "tags" : [ {
    "name" : "RestServiceVirtualController",
    "description" : "Rest service swagger documentation"
  } ],
  "schemes" : [ "http" ],
  "paths" : {
    "/CreateImApplicant/invoke/services/UNIVERSAL_RATE/ImApplicant" : {
      "post" : {
        "tags" : [ "RestServiceVirtualController" ],
        "operationId" : "CreateImApplicant_RestServiceVirtualController-invoke",
        "consumes" : [ "application/json" ],
        "parameters" : [ {
          "in" : "body",
          "name" : "RequestBody",
          "description" : "RequestBody",
          "required" : false,
          "schema" : {
            "$ref" : "#/definitions/RootRequest"
          },
          "x-WM-FULLY_QUALIFIED_TYPE" : "java.lang.Object"
        } ],
        "responses" : {
          "200" : {
            "description" : "Success",
            "schema" : {
              "$ref" : "#/definitions/RootResponse"
            }
          }
        },
        "x-WM-METHOD_NAME" : "invoke",
        "x-WM-ACCESS_SPECIFIER" : "APP_ONLY"
      },
      "x-WM-BASE_PATH" : "/CreateImApplicant/invoke/services/UNIVERSAL_RATE/ImApplicant",
      "x-WM-TAG" : "RestServiceVirtualController",
      "x-WM-RELATIVE_PATH" : "",
      "x-WM-COMPLETE_PATH" : "${rest.CreateImApplicant.scheme}://${rest.CreateImApplicant.host}${rest.CreateImApplicant.basepath}/services/UNIVERSAL_RATE/ImApplicant"
    }
  },
  "definitions" : {
    "imPolicyInfo" : {
      "required" : [ "company", "creditCheckAuth", "effective", "insertTimestamp", "insertedBy", "insuramatchId", "package_", "polNum", "polSeqNum", "policyId", "policyTerm", "riskState", "updateTimestamp", "updatedBy", "versionNum" ],
      "properties" : {
        "creditCheckAuth" : {
          "type" : "string"
        },
        "updatedBy" : {
          "type" : "string"
        },
        "insuramatchId" : {
          "type" : "string"
        },
        "policyTerm" : {
          "type" : "string"
        },
        "versionNum" : {
          "type" : "string"
        },
        "insertTimestamp" : {
          "type" : "string"
        },
        "polSeqNum" : {
          "type" : "string"
        },
        "updateTimestamp" : {
          "type" : "string"
        },
        "effective" : {
          "type" : "string"
        },
        "insertedBy" : {
          "type" : "string"
        },
        "policyId" : {
          "type" : "integer",
          "format" : "int32"
        },
        "polNum" : {
          "type" : "string"
        },
        "package_" : {
          "type" : "string"
        },
        "company" : {
          "type" : "string"
        },
        "riskState" : {
          "type" : "string"
        }
      },
      "x-WM-FULLY_QUALIFIED_NAME" : "CreateImApplicant.imPolicyInfo",
      "x-WM-TAGS" : [ "RestServiceVirtualController" ]
    },
    "RootRequest" : {
      "required" : [ "applicantId", "applicantType", "dob", "education", "firstName", "gender", "imPolicyInfo", "industry", "insertTimestamp", "insertedBy", "lastName", "licenseToDrive", "maidenName", "maritalStatus", "middleName", "nickName", "occupation", "policyId", "prefix", "relation", "ssn", "suffix", "updateTimestamp", "updatedBy", "versionNum", "yearsWithEmployer", "yearsWithPreviousEmployer" ],
      "properties" : {
        "yearsWithEmployer" : {
          "type" : "string"
        },
        "lastName" : {
          "type" : "string"
        },
        "imPolicyInfo" : {
          "$ref" : "#/definitions/imPolicyInfo"
        },
        "occupation" : {
          "type" : "string"
        },
        "education" : {
          "type" : "string"
        },
        "gender" : {
          "type" : "string"
        },
        "prefix" : {
          "type" : "string"
        },
        "licenseToDrive" : {
          "type" : "string"
        },
        "versionNum" : {
          "type" : "string"
        },
        "maidenName" : {
          "type" : "string"
        },
        "industry" : {
          "type" : "string"
        },
        "insertTimestamp" : {
          "type" : "string"
        },
        "suffix" : {
          "type" : "string"
        },
        "ssn" : {
          "type" : "string"
        },
        "relation" : {
          "type" : "string"
        },
        "insertedBy" : {
          "type" : "string"
        },
        "applicantType" : {
          "type" : "string"
        },
        "applicantId" : {
          "type" : "integer",
          "format" : "int32"
        },
        "updatedBy" : {
          "type" : "string"
        },
        "nickName" : {
          "type" : "string"
        },
        "updateTimestamp" : {
          "type" : "string"
        },
        "yearsWithPreviousEmployer" : {
          "type" : "string"
        },
        "firstName" : {
          "type" : "string"
        },
        "policyId" : {
          "type" : "integer",
          "format" : "int32"
        },
        "dob" : {
          "type" : "string"
        },
        "middleName" : {
          "type" : "string"
        },
        "maritalStatus" : {
          "type" : "string"
        }
      },
      "x-WM-FULLY_QUALIFIED_NAME" : "CreateImApplicant.RootRequest",
      "x-WM-TAGS" : [ "RestServiceVirtualController" ]
    },
    "RootResponse" : {
      "required" : [ "applicantId", "applicantType", "dob", "education", "firstName", "gender", "imPolicyInfo", "industry", "insertTimestamp", "insertedBy", "lastName", "licenseToDrive", "maidenName", "maritalStatus", "middleName", "nickName", "occupation", "policyId", "prefix", "relation", "ssn", "suffix", "updateTimestamp", "updatedBy", "versionNum", "yearsWithEmployer", "yearsWithPreviousEmployer" ],
      "properties" : {
        "yearsWithEmployer" : {
          "type" : "string"
        },
        "lastName" : {
          "type" : "string"
        },
        "imPolicyInfo" : {
          "$ref" : "#/definitions/imPolicyInfo"
        },
        "occupation" : {
          "type" : "string"
        },
        "education" : {
          "type" : "string"
        },
        "gender" : {
          "type" : "string"
        },
        "prefix" : {
          "type" : "string"
        },
        "licenseToDrive" : {
          "type" : "string"
        },
        "versionNum" : {
          "type" : "string"
        },
        "maidenName" : {
          "type" : "string"
        },
        "industry" : {
          "type" : "string"
        },
        "insertTimestamp" : {
          "type" : "string"
        },
        "suffix" : {
          "type" : "string"
        },
        "ssn" : {
          "type" : "string"
        },
        "relation" : {
          "type" : "string"
        },
        "insertedBy" : {
          "type" : "string"
        },
        "applicantType" : {
          "type" : "string"
        },
        "applicantId" : {
          "type" : "integer",
          "format" : "int32"
        },
        "updatedBy" : {
          "type" : "string"
        },
        "nickName" : {
          "type" : "string"
        },
        "updateTimestamp" : {
          "type" : "string"
        },
        "yearsWithPreviousEmployer" : {
          "type" : "string"
        },
        "firstName" : {
          "type" : "string"
        },
        "policyId" : {
          "type" : "integer",
          "format" : "int32"
        },
        "dob" : {
          "type" : "string"
        },
        "middleName" : {
          "type" : "string"
        },
        "maritalStatus" : {
          "type" : "string"
        }
      },
      "x-WM-FULLY_QUALIFIED_NAME" : "CreateImApplicant.RootResponse",
      "x-WM-TAGS" : [ "RestServiceVirtualController" ]
    }
  }
}