{
  "addCarrierQuestionsAndAnswers" : {
    "_id" : "wm-addCarrierQuestionsAndAnswers-wm.ServiceVariable-1558551691320",
    "name" : "addCarrierQuestionsAndAnswers",
    "owner" : "Page",
    "category" : "wm.ServiceVariable",
    "dataBinding" : [ {
      "isList" : false,
      "target" : "RequestBody",
      "value" : "{\n  \"question\": {\n    \"nodeName\": \"\",\n    \"answerDataType\": \"\",\n    \"product\": \"\",\n    \"updatedBy\": \"\",\n    \"answerText\": \"\",\n    \"mandatoryInd\": \"\",\n    \"showHideInd\": \"\",\n    \"displayOrder\": \"\",\n    \"insertTimestamp\": \"\",\n    \"expDate\": \"\",\n    \"questionText\": \"\",\n    \"updateTimestamp\": \"\",\n    \"insertedBy\": \"\",\n    \"carrierListId\": \"\",\n    \"effDate\": \"\",\n    \"imCarrierList\": {\n      \"company\": \"\",\n      \"insertTimestamp\": \"\",\n      \"carrierId\": \"\",\n      \"updateTimestamp\": \"\",\n      \"url\": \"\",\n      \"insertedBy\": \"\",\n      \"updatedBy\": \"\",\n      \"carrierListId\": \"\",\n      \"carrierName\": \"\",\n      \"versionNum\": \"\"\n    },\n    \"recordLock\": \"\",\n    \"stateCd\": \"\",\n    \"questionMasterId\": \"\"\n  },\n  \"answers\": [\n    {\n      \"answerValue\": \"\",\n      \"updatedBy\": \"\",\n      \"answerKey\": \"\",\n      \"insertedBy\": \"\",\n      \"imQuestionMaster\": {},\n      \"updateTimestamp\": \"\",\n      \"defaultInd\": \"\",\n      \"questionMasterId\": \"\",\n      \"insertTimestamp\": \"\",\n      \"questionAnswerId\": \"\",\n      \"displayOrder\": \"\"\n    }\n  ]\n}",
      "type" : "addCarrierQuestionsAndAnswers.RootRequest"
    } ],
    "type" : "addCarrierQuestionsAndAnswers.RootResponse",
    "service" : "addCarrierQuestionsAndAnswers",
    "operation" : "invoke",
    "operationId" : "addCarrierQuestionsAndAnswers_RestServiceVirtualController-invoke",
    "operationType" : "post",
    "serviceType" : "RestService",
    "dataSet" : [ ],
    "isList" : false,
    "maxResults" : 20,
    "startUpdate" : false,
    "autoUpdate" : false,
    "inFlightBehavior" : "executeAll",
    "transformationRequired" : false,
    "saveInPhonegap" : false,
    "controller" : "RestServiceVirtual"
  },
  "answersList" : {
    "_id" : "wm-answersList-wm.Variable-1551875258144",
    "name" : "answersList",
    "owner" : "Page",
    "category" : "wm.Variable",
    "dataBinding" : [ ],
    "dataSet" : [ {
      "Text" : "",
      "Code" : ""
    } ],
    "type" : "string",
    "isList" : true,
    "saveInPhonegap" : false
  },
  "CreateImQuestionMaster" : {
    "_id" : "wm-CreateImQuestionMaster-wm.ServiceVariable-1552025448473",
    "name" : "CreateImQuestionMaster",
    "owner" : "Page",
    "category" : "wm.ServiceVariable",
    "dataBinding" : [ {
      "isList" : false,
      "target" : "RequestBody",
      "value" : "{\n\t\"questionMasterId\": 11954,\n\t\"carrierListId\": 12,\n\t\"stateCd\": \"LA\",\n\t\"effDate\": \"1900-01-01T00:00:00\",\n\t\"expDate\": null,\n\t\"questionText\": \"Name please\",\n\t\"answerDataType\": \"TEXT\",\n\t\"answerText\": null,\n\t\"displayOrder\": 0,\n\t\"product\": null,\n\t\"nodeName\": \"TEST\",\n\t\"insertTimestamp\": null,\n\t\"updateTimestamp\": null,\n\t\"updatedBy\": null,\n\t\"insertedBy\": null,\n\t\"showHideInd\": \"Y\",\n\t\"recordLock\": null,\n\t\"imCarrierList\": {\n\t\t\"carrierListId\": 12,\n\t\t\"company\": \"EZLYNX\",\n\t\t\"carrierId\": 334,\n\t\t\"carrierName\": \"Dairyland\",\n\t\t\"insertTimestamp\": \"2017-01-25T11:47:38.9\",\n\t\t\"updateTimestamp\": null,\n\t\t\"updatedBy\": null,\n\t\t\"insertedBy\": null,\n\t\t\"versionNum\": null\n\t}\n}",
      "type" : "CreateImQuestionMaster.RootRequest"
    } ],
    "type" : "CreateImQuestionMaster.RootResponse",
    "service" : "CreateImQuestionMaster",
    "operation" : "invoke",
    "operationId" : "CreateImQuestionMaster_RestServiceVirtualController-invoke",
    "operationType" : "post",
    "serviceType" : "RestService",
    "dataSet" : [ ],
    "isList" : false,
    "maxResults" : 20,
    "onBeforeUpdate" : "Javascript",
    "startUpdate" : false,
    "autoUpdate" : false,
    "inFlightBehavior" : "executeAll",
    "transformationRequired" : false,
    "saveInPhonegap" : false,
    "controller" : "RestServiceVirtual"
  },
  "CreateImQuestionMasterInvoke" : {
    "_id" : "wm-CreateImQuestionMasterInvoke-wm.ServiceVariable-1552025546518",
    "name" : "CreateImQuestionMasterInvoke",
    "owner" : "Page",
    "category" : "wm.ServiceVariable",
    "dataBinding" : [ {
      "target" : "RequestBody",
      "value" : "{\n\t\"questionMasterId\": 11954,\n\t\"carrierListId\": 12,\n\t\"stateCd\": \"LA\",\n\t\"effDate\": \"1900-01-01T00:00:00\",\n\t\"expDate\": null,\n\t\"questionText\": \"Name please\",\n\t\"answerDataType\": \"TEXT\",\n\t\"answerText\": null,\n\t\"displayOrder\": 0,\n\t\"product\": null,\n\t\"nodeName\": \"TEST\",\n\t\"insertTimestamp\": null,\n\t\"updateTimestamp\": null,\n\t\"updatedBy\": null,\n\t\"insertedBy\": null,\n\t\"showHideInd\": \"Y\",\n\t\"recordLock\": null,\n\t\"imCarrierList\": {\n\t\t\"carrierListId\": 12,\n\t\t\"company\": \"EZLYNX\",\n\t\t\"carrierId\": 334,\n\t\t\"carrierName\": \"Dairyland\",\n\t\t\"insertTimestamp\": \"2017-01-25T11:47:38.9\",\n\t\t\"updateTimestamp\": null,\n\t\t\"updatedBy\": null,\n\t\t\"insertedBy\": null,\n\t\t\"versionNum\": null\n\t}\n}",
      "type" : "java.lang.String"
    } ],
    "type" : "CreateImQuestionMaster.RootResponse",
    "service" : "CreateImQuestionMaster",
    "operation" : "invoke",
    "operationId" : "CreateImQuestionMaster_RestServiceVirtualController-invoke",
    "operationType" : "post",
    "serviceType" : "RestService",
    "dataSet" : [ ],
    "isList" : false,
    "maxResults" : 20,
    "startUpdate" : false,
    "autoUpdate" : false,
    "inFlightBehavior" : "executeLast",
    "transformationRequired" : false,
    "saveInPhonegap" : false,
    "isDefault" : true,
    "controller" : "RestServiceVirtual"
  },
  "CreateImQuestionMasterInvoke1" : {
    "_id" : "wm-CreateImQuestionMasterInvoke1-wm.ServiceVariable-1552025632439",
    "name" : "CreateImQuestionMasterInvoke1",
    "owner" : "Page",
    "category" : "wm.ServiceVariable",
    "dataBinding" : [ {
      "isList" : false,
      "target" : "RequestBody",
      "value" : "{\n\t\"questionMasterId\": 11954,\n\t\"carrierListId\": 12,\n\t\"stateCd\": \"LA\",\n\t\"effDate\": \"1900-01-01T00:00:00\",\n\t\"expDate\": null,\n\t\"questionText\": \"Name please\",\n\t\"answerDataType\": \"TEXT\",\n\t\"answerText\": null,\n\t\"displayOrder\": 0,\n\t\"product\": null,\n\t\"nodeName\": \"TEST\",\n\t\"insertTimestamp\": null,\n\t\"updateTimestamp\": null,\n\t\"updatedBy\": null,\n\t\"insertedBy\": null,\n\t\"showHideInd\": \"Y\",\n\t\"recordLock\": null,\n\t\"imCarrierList\": {\n\t\t\"carrierListId\": 12,\n\t\t\"company\": \"EZLYNX\",\n\t\t\"carrierId\": 334,\n\t\t\"carrierName\": \"Dairyland\",\n\t\t\"insertTimestamp\": \"2017-01-25T11:47:38.9\",\n\t\t\"updateTimestamp\": null,\n\t\t\"updatedBy\": null,\n\t\t\"insertedBy\": null,\n\t\t\"versionNum\": null\n\t}\n}",
      "type" : "CreateImQuestionMaster.RootRequest"
    } ],
    "type" : "CreateImQuestionMaster.RootResponse",
    "service" : "CreateImQuestionMaster",
    "operation" : "invoke",
    "operationId" : "CreateImQuestionMaster_RestServiceVirtualController-invoke",
    "operationType" : "post",
    "serviceType" : "RestService",
    "dataSet" : [ ],
    "isList" : false,
    "maxResults" : 20,
    "onSuccess" : "CreateImQuestionMasterInvoke1onSuccess($event, $scope)",
    "startUpdate" : false,
    "autoUpdate" : false,
    "inFlightBehavior" : "executeLast",
    "transformationRequired" : false,
    "saveInPhonegap" : false,
    "isDefault" : true,
    "controller" : "RestServiceVirtual"
  },
  "createImQuestionMasterLookUp" : {
    "_id" : "wm-createImQuestionMasterLookUp-wm.ServiceVariable-1558467080860",
    "name" : "createImQuestionMasterLookUp",
    "owner" : "Page",
    "category" : "wm.ServiceVariable",
    "dataBinding" : [ ],
    "type" : "createImQuestionMasterLookUp.RootResponse",
    "service" : "createImQuestionMasterLookUp",
    "operation" : "invoke",
    "operationId" : "createImQuestionMasterLookUp_RestServiceVirtualController-invoke",
    "operationType" : "post",
    "serviceType" : "RestService",
    "dataSet" : [ ],
    "isList" : false,
    "maxResults" : 20,
    "onError" : "createImQuestionMasterLookUponError($event, $scope)",
    "startUpdate" : false,
    "autoUpdate" : false,
    "inFlightBehavior" : "executeAll",
    "transformationRequired" : false,
    "saveInPhonegap" : false,
    "controller" : "RestServiceVirtual"
  },
  "editCarrierQuestionsNAnswers" : {
    "_id" : "wm-editCarrierQuestionsNAnswers-wm.ServiceVariable-1558638943977",
    "name" : "editCarrierQuestionsNAnswers",
    "owner" : "Page",
    "category" : "wm.ServiceVariable",
    "dataBinding" : [ ],
    "type" : "editCarrierQuestionsNAnswers.RootResponse",
    "service" : "editCarrierQuestionsNAnswers",
    "operation" : "invoke",
    "operationId" : "editCarrierQuestionsNAnswers_RestServiceVirtualController-invoke",
    "operationType" : "post",
    "serviceType" : "RestService",
    "dataSet" : [ ],
    "isList" : false,
    "maxResults" : 20,
    "startUpdate" : false,
    "autoUpdate" : false,
    "inFlightBehavior" : "executeAll",
    "transformationRequired" : false,
    "saveInPhonegap" : false,
    "controller" : "RestServiceVirtual"
  },
  "getCarrierList" : {
    "_id" : "wm-getCarrierList-wm.ServiceVariable-1551865354086",
    "name" : "getCarrierList",
    "owner" : "Page",
    "category" : "wm.ServiceVariable",
    "dataBinding" : [ ],
    "type" : "getCarrierList.RootResponse",
    "service" : "getCarrierList",
    "operation" : "invoke",
    "operationId" : "getCarrierList_RestServiceVirtualController-invoke",
    "operationType" : "get",
    "serviceType" : "RestService",
    "dataSet" : [ ],
    "isList" : false,
    "maxResults" : 20,
    "startUpdate" : true,
    "autoUpdate" : true,
    "inFlightBehavior" : "executeLast",
    "transformationRequired" : false,
    "saveInPhonegap" : false,
    "controller" : "RestServiceVirtual"
  },
  "GetCarrierQuestions" : {
    "_id" : "wm-GetCarrierQuestions-wm.ServiceVariable-1551805060972",
    "name" : "GetCarrierQuestions",
    "owner" : "Page",
    "category" : "wm.ServiceVariable",
    "dataBinding" : [ ],
    "type" : "GetCarrierQuestions.RootResponseROOTEntryItem",
    "service" : "GetCarrierQuestions",
    "operation" : "invoke",
    "operationId" : "GetCarrierQuestions_RestServiceVirtualController-invoke",
    "operationType" : "get",
    "serviceType" : "RestService",
    "dataSet" : [ ],
    "isList" : true,
    "maxResults" : 20,
    "onBeforeUpdate" : "Javascript",
    "startUpdate" : false,
    "autoUpdate" : false,
    "inFlightBehavior" : "executeLast",
    "transformationRequired" : false,
    "saveInPhonegap" : false,
    "controller" : "RestServiceVirtual"
  },
  "GetImCarrierList" : {
    "_id" : "wm-GetImCarrierList-wm.ServiceVariable-1552026268141",
    "name" : "GetImCarrierList",
    "owner" : "Page",
    "category" : "wm.ServiceVariable",
    "dataBinding" : [ {
      "target" : "size",
      "value" : "100",
      "type" : "string"
    } ],
    "type" : "GetImCarrierList.RootResponse",
    "service" : "GetImCarrierList",
    "operation" : "invoke",
    "operationId" : "GetImCarrierList_RestServiceVirtualController-invoke",
    "operationType" : "get",
    "serviceType" : "RestService",
    "dataSet" : [ ],
    "isList" : false,
    "maxResults" : 20,
    "startUpdate" : true,
    "autoUpdate" : true,
    "inFlightBehavior" : "executeLast",
    "transformationRequired" : false,
    "saveInPhonegap" : false,
    "controller" : "RestServiceVirtual"
  },
  "getImQuestionAnswerLookup" : {
    "_id" : "wm-getImQuestionAnswerLookup-wm.ServiceVariable-1551878020812",
    "name" : "getImQuestionAnswerLookup",
    "owner" : "Page",
    "category" : "wm.ServiceVariable",
    "dataBinding" : [ ],
    "type" : "getImQuestionAnswerLookup.RootResponse",
    "service" : "getImQuestionAnswerLookup",
    "operation" : "invoke",
    "operationId" : "getImQuestionAnswerLookup_RestServiceVirtualController-invoke",
    "operationType" : "get",
    "serviceType" : "RestService",
    "dataSet" : [ ],
    "isList" : false,
    "maxResults" : 20,
    "startUpdate" : false,
    "autoUpdate" : false,
    "inFlightBehavior" : "executeLast",
    "transformationRequired" : false,
    "saveInPhonegap" : false,
    "controller" : "RestServiceVirtual"
  },
  "GetIMQuestionMaster" : {
    "_id" : "wm-GetIMQuestionMaster-wm.ServiceVariable-1551844662061",
    "name" : "GetIMQuestionMaster",
    "owner" : "Page",
    "category" : "wm.ServiceVariable",
    "dataBinding" : [ {
      "target" : "q",
      "value" : "questionText!='username' and questionText!='password'",
      "type" : "string"
    } ],
    "type" : "GetIMQuestionMaster.RootResponse",
    "service" : "GetIMQuestionMaster",
    "operation" : "invoke",
    "operationId" : "GetIMQuestionMaster_RestServiceVirtualController-invoke",
    "operationType" : "get",
    "serviceType" : "RestService",
    "dataSet" : [ ],
    "isList" : false,
    "maxResults" : 20,
    "startUpdate" : true,
    "autoUpdate" : false,
    "inFlightBehavior" : "executeLast",
    "transformationRequired" : false,
    "saveInPhonegap" : false,
    "controller" : "RestServiceVirtual"
  },
  "GetImQuestionMasterById" : {
    "_id" : "wm-GetImQuestionMasterById-wm.ServiceVariable-1552036395556",
    "name" : "GetImQuestionMasterById",
    "owner" : "Page",
    "category" : "wm.ServiceVariable",
    "dataBinding" : [ ],
    "type" : "GetImQuestionMasterById.RootResponse",
    "service" : "GetImQuestionMasterById",
    "operation" : "invoke",
    "operationId" : "GetImQuestionMasterById_RestServiceVirtualController-invoke",
    "operationType" : "get",
    "serviceType" : "RestService",
    "dataSet" : [ ],
    "isList" : false,
    "maxResults" : 20,
    "startUpdate" : false,
    "autoUpdate" : true,
    "inFlightBehavior" : "executeLast",
    "transformationRequired" : false,
    "saveInPhonegap" : false,
    "controller" : "RestServiceVirtual"
  },
  "GetIMQuestionMasterForId" : {
    "_id" : "wm-GetIMQuestionMasterForId-wm.ServiceVariable-1552037581736",
    "name" : "GetIMQuestionMasterForId",
    "owner" : "Page",
    "category" : "wm.ServiceVariable",
    "dataBinding" : [ {
      "target" : "q",
      "value" : "state_cd='IL' and carrierListId ='12'",
      "type" : "string"
    } ],
    "type" : "GetIMQuestionMaster.RootResponse",
    "service" : "GetIMQuestionMaster",
    "operation" : "invoke",
    "operationId" : "GetIMQuestionMaster_RestServiceVirtualController-invoke",
    "operationType" : "get",
    "serviceType" : "RestService",
    "dataSet" : [ ],
    "isList" : false,
    "maxResults" : 20,
    "startUpdate" : false,
    "autoUpdate" : false,
    "inFlightBehavior" : "executeLast",
    "transformationRequired" : false,
    "saveInPhonegap" : false,
    "controller" : "RestServiceVirtual"
  },
  "GetStateValues" : {
    "_id" : "wm-GetStateValues-wm.ServiceVariable-1551864436500",
    "name" : "GetStateValues",
    "owner" : "Page",
    "category" : "wm.ServiceVariable",
    "dataBinding" : [ {
      "target" : "list_item",
      "value" : "StateCodeType",
      "type" : "string"
    } ],
    "type" : "GetDropDownValues.RootResponse",
    "service" : "GetDropDownValues",
    "operation" : "invoke",
    "operationId" : "GetDropDownValues_RestServiceVirtualController-invoke",
    "operationType" : "get",
    "serviceType" : "RestService",
    "dataSet" : [ ],
    "isList" : false,
    "maxResults" : 20,
    "startUpdate" : true,
    "autoUpdate" : false,
    "inFlightBehavior" : "executeLast",
    "transformationRequired" : false,
    "saveInPhonegap" : false,
    "controller" : "RestServiceVirtual"
  },
  "questionTypeData" : {
    "_id" : "wm-staticVariable2-wm.Variable-1558461022044",
    "name" : "questionTypeData",
    "owner" : "Page",
    "category" : "wm.Variable",
    "dataBinding" : [ ],
    "dataSet" : [ {
      "displayValue" : "Simple Text (open text field response)",
      "dataValue" : "TEXT"
    }, {
      "displayValue" : "Multiple Choice",
      "dataValue" : "DROPDOWN"
    } ],
    "type" : "string",
    "isList" : true,
    "saveInPhonegap" : false
  },
  "updateImQuestionAnswerLookUp" : {
    "_id" : "wm-updateImQuestionAnswerLookUp-wm.ServiceVariable-1552241235234",
    "name" : "updateImQuestionAnswerLookUp",
    "owner" : "Page",
    "category" : "wm.ServiceVariable",
    "dataBinding" : [ {
      "isList" : false,
      "target" : "RequestBody",
      "value" : "{ \"questionAnswerId\": 20275, \t\t\t\"questionMasterId\": 8886, \t\t\t\"answerKey\": \"None\", \t\t\t\"answerValue\": \"None\", \t\t\t\"defaultInd\": \"Y\", \t\t\t\"displayOrder\": 1, \t\t\t\"insertTimestamp\": \"2019-02-26T15:17:33.683\", \t\t\t\"updateTimestamp\": null, \t\t\t\"updatedBy\": \"\", \t\t\t\"insertedBy\": \"\" }",
      "type" : "updateImQuestionAnswerLookUp.RootRequest"
    } ],
    "type" : "updateImQuestionAnswerLookUp.RootResponse",
    "service" : "updateImQuestionAnswerLookUp",
    "operation" : "invoke",
    "operationId" : "updateImQuestionAnswerLookUp_RestServiceVirtualController-invoke",
    "operationType" : "put",
    "serviceType" : "RestService",
    "dataSet" : [ ],
    "isList" : false,
    "maxResults" : 20,
    "startUpdate" : false,
    "autoUpdate" : false,
    "inFlightBehavior" : "executeLast",
    "transformationRequired" : false,
    "saveInPhonegap" : false,
    "controller" : "RestServiceVirtual"
  },
  "updateImQuestionMaster" : {
    "_id" : "wm-updateImQuestionMaster-wm.ServiceVariable-1552220705723",
    "name" : "updateImQuestionMaster",
    "owner" : "Page",
    "category" : "wm.ServiceVariable",
    "dataBinding" : [ {
      "isList" : false,
      "target" : "RequestBody",
      "value" : "bind:Widgets.CreateImQuestionMasterForm.dataoutput",
      "type" : "UpdateImQuestionMaster.RootRequest"
    }, {
      "target" : "ID",
      "value" : "bind:Widgets.CreateImQuestionMasterForm.formWidgets.questionMasterIdText.datavalue",
      "type" : "string"
    } ],
    "type" : "UpdateImQuestionMaster.RootResponse",
    "service" : "UpdateImQuestionMaster",
    "operation" : "invoke",
    "operationId" : "UpdateImQuestionMaster_RestServiceVirtualController-invoke",
    "operationType" : "put",
    "serviceType" : "RestService",
    "dataSet" : [ ],
    "isList" : false,
    "maxResults" : 20,
    "startUpdate" : false,
    "autoUpdate" : false,
    "inFlightBehavior" : "executeAll",
    "transformationRequired" : false,
    "saveInPhonegap" : false,
    "controller" : "RestServiceVirtual"
  }
}