{
  "swagger" : "2.0",
  "info" : {
    "version" : "2.0",
    "x-WM-USE_PROXY_FOR_WEB" : true,
    "x-WM-USE_PROXY_FOR_MOBILE" : true,
    "x-WM-API_ID" : "9eefaaab-5179-490a-8b88-fd7591c5ec94",
    "x-WM-SERVICE_ID" : "cloud",
    "x-WM-SERVICE_TYPE" : "RestService"
  },
  "host" : "pkhgqfmqv632.cloud.wavemakeronline.com",
  "basePath" : "",
  "tags" : [ {
    "name" : "RestServiceVirtualController",
    "description" : "Rest service swagger documentation"
  } ],
  "schemes" : [ "http" ],
  "paths" : {
    "/CreateImVehicle/invoke/services/UNIVERSAL_RATE/ImVehicle" : {
      "post" : {
        "tags" : [ "RestServiceVirtualController" ],
        "operationId" : "CreateImVehicle_RestServiceVirtualController-invoke",
        "consumes" : [ "application/json" ],
        "parameters" : [ {
          "in" : "body",
          "name" : "RequestBody",
          "description" : "RequestBody",
          "required" : false,
          "schema" : {
            "$ref" : "#/definitions/RootRequest"
          },
          "x-WM-FULLY_QUALIFIED_TYPE" : "java.lang.Object"
        } ],
        "responses" : {
          "200" : {
            "description" : "Success",
            "schema" : {
              "$ref" : "#/definitions/RootResponse"
            }
          }
        },
        "x-WM-METHOD_NAME" : "invoke",
        "x-WM-ACCESS_SPECIFIER" : "APP_ONLY"
      },
      "x-WM-BASE_PATH" : "/CreateImVehicle/invoke/services/UNIVERSAL_RATE/ImVehicle",
      "x-WM-TAG" : "RestServiceVirtualController",
      "x-WM-RELATIVE_PATH" : "",
      "x-WM-COMPLETE_PATH" : "${rest.CreateImVehicle.scheme}://${rest.CreateImVehicle.host}${rest.CreateImVehicle.basepath}/services/UNIVERSAL_RATE/ImVehicle"
    }
  },
  "definitions" : {
    "imPolicyInfo" : {
      "required" : [ "company", "creditCheckAuth", "effective", "insertTimestamp", "insertedBy", "insuramatchId", "package_", "polNum", "polSeqNum", "policyId", "policyTerm", "riskState", "updateTimestamp", "updatedBy", "versionNum" ],
      "properties" : {
        "creditCheckAuth" : {
          "type" : "string"
        },
        "updatedBy" : {
          "type" : "string"
        },
        "insuramatchId" : {
          "type" : "string"
        },
        "policyTerm" : {
          "type" : "string"
        },
        "versionNum" : {
          "type" : "string"
        },
        "insertTimestamp" : {
          "type" : "string"
        },
        "polSeqNum" : {
          "type" : "string"
        },
        "updateTimestamp" : {
          "type" : "string"
        },
        "effective" : {
          "type" : "string"
        },
        "insertedBy" : {
          "type" : "string"
        },
        "policyId" : {
          "type" : "integer",
          "format" : "int32"
        },
        "polNum" : {
          "type" : "string"
        },
        "package_" : {
          "type" : "string"
        },
        "company" : {
          "type" : "string"
        },
        "riskState" : {
          "type" : "string"
        }
      },
      "x-WM-FULLY_QUALIFIED_NAME" : "CreateImVehicle.imPolicyInfo",
      "x-WM-TAGS" : [ "RestServiceVirtualController" ]
    },
    "RootRequest" : {
      "required" : [ "antiLockBrake", "antiTheft", "daytimeRunningLight", "insertTimestamp", "insertedBy", "make", "model", "passiveRestraint", "policyId", "subModel", "updateTimestamp", "updatedBy", "useVehLookup", "useVinLookup", "vehicleId", "vehicleInspection", "versionNum", "vin", "year" ],
      "properties" : {
        "antiTheft" : {
          "type" : "string"
        },
        "passiveRestraint" : {
          "type" : "string"
        },
        "useVinLookup" : {
          "type" : "string"
        },
        "updatedBy" : {
          "type" : "string"
        },
        "year" : {
          "type" : "string"
        },
        "subModel" : {
          "type" : "string"
        },
        "daytimeRunningLight" : {
          "type" : "string"
        },
        "versionNum" : {
          "type" : "string"
        },
        "vehicleInspection" : {
          "type" : "string"
        },
        "insertTimestamp" : {
          "type" : "string"
        },
        "updateTimestamp" : {
          "type" : "string"
        },
        "useVehLookup" : {
          "type" : "string"
        },
        "insertedBy" : {
          "type" : "string"
        },
        "policyId" : {
          "type" : "integer",
          "format" : "int32"
        },
        "vin" : {
          "type" : "string"
        },
        "model" : {
          "type" : "string"
        },
        "vehicleId" : {
          "type" : "integer",
          "format" : "int32"
        },
        "antiLockBrake" : {
          "type" : "string"
        },
        "make" : {
          "type" : "string"
        }
      },
      "x-WM-FULLY_QUALIFIED_NAME" : "CreateImVehicle.RootRequest",
      "x-WM-TAGS" : [ "RestServiceVirtualController" ]
    },
    "RootResponse" : {
      "required" : [ "antiLockBrake", "antiTheft", "daytimeRunningLight", "imPolicyInfo", "insertTimestamp", "insertedBy", "make", "model", "passiveRestraint", "policyId", "subModel", "updateTimestamp", "updatedBy", "useVehLookup", "useVinLookup", "vehicleId", "vehicleInspection", "versionNum", "vin", "year" ],
      "properties" : {
        "imPolicyInfo" : {
          "$ref" : "#/definitions/imPolicyInfo"
        },
        "antiTheft" : {
          "type" : "string"
        },
        "passiveRestraint" : {
          "type" : "string"
        },
        "useVinLookup" : {
          "type" : "string"
        },
        "updatedBy" : {
          "type" : "string"
        },
        "year" : {
          "type" : "string"
        },
        "subModel" : {
          "type" : "string"
        },
        "daytimeRunningLight" : {
          "type" : "string"
        },
        "versionNum" : {
          "type" : "string"
        },
        "vehicleInspection" : {
          "type" : "string"
        },
        "insertTimestamp" : {
          "type" : "string"
        },
        "updateTimestamp" : {
          "type" : "string"
        },
        "useVehLookup" : {
          "type" : "string"
        },
        "insertedBy" : {
          "type" : "string"
        },
        "policyId" : {
          "type" : "integer",
          "format" : "int32"
        },
        "vin" : {
          "type" : "string"
        },
        "model" : {
          "type" : "string"
        },
        "vehicleId" : {
          "type" : "integer",
          "format" : "int32"
        },
        "antiLockBrake" : {
          "type" : "string"
        },
        "make" : {
          "type" : "string"
        }
      },
      "x-WM-FULLY_QUALIFIED_NAME" : "CreateImVehicle.RootResponse",
      "x-WM-TAGS" : [ "RestServiceVirtualController" ]
    }
  }
}