{
  "endpointAddress" : "http://pkhgqfmqv632.cloud.wavemakeronline.com/UniRateServices/services/UNIVERSAL_RATE/ImDriver",
  "method" : "GET",
  "headers" : { },
  "redirectEnabled" : true,
  "requestBody" : "",
  "queryParams" : {
    "q" : "policyId=5742"
  },
  "authDetails" : null,
  "contentType" : "application/json",
  "multiParamInfoList" : null,
  "sampleHttpResponseDetails" : {
    "statusCode" : 0,
    "headers" : { },
    "responseBody" : "{\"content\":[{\"driverId\":747,\"policyId\":5742,\"prefix\":null,\"firstName\":\"Naveen\",\"middleName\":\"K\",\"lastName\":\"Kumar\",\"suffix\":null,\"gender\":\"Male\",\"dob\":\"\",\"ssn\":null,\"driverLicenseNumber\":null,\"sdipPoint\":null,\"driverLicenseState\":null,\"dateLicensed\":\"\",\"driverLicenseStatus\":null,\"ageLicensed\":15,\"accPrev\":null,\"maritalStatus\":\"Married\",\"relation\":null,\"industry\":null,\"occupation\":null,\"goodStudent\":null,\"student100\":null,\"driverTraining\":null,\"goodDriver\":null,\"matDriver\":null,\"principalVehicle\":null,\"rated\":\"RATED\",\"sr22\":null,\"fr44\":null,\"licenseRevokedSuspended\":null,\"insertTimestamp\":null,\"updateTimestamp\":null,\"updatedBy\":null,\"insertedBy\":null,\"versionNum\":null,\"imPolicyInfo\":{\"policyId\":5742,\"polNum\":null,\"polSeqNum\":null,\"company\":null,\"policyTerm\":\"12\",\"package_\":null,\"effective\":\"04/16/0201\",\"creditCheckAuth\":\"\",\"insertTimestamp\":\"2019-04-16T11:35:20.783\",\"updateTimestamp\":null,\"updatedBy\":null,\"insertedBy\":null,\"riskState\":null,\"insuramatchId\":null,\"versionNum\":null,\"submittedTime\":\"1900-01-01T00:00:00\",\"submittedStatus\":null}}],\"last\":true,\"totalPages\":1,\"totalElements\":1,\"sort\":[],\"first\":true,\"numberOfElements\":1,\"size\":20,\"number\":0}",
    "convertedResponse" : null
  },
  "proxy" : null
}