{
  "endpointAddress" : "http://pkhgqfmqv632.cloud.wavemakeronline.com/UniRateServices/services/UNIVERSAL_RATE//queryExecutor/queries/GetQuoteXml",
  "method" : "GET",
  "headers" : { },
  "redirectEnabled" : true,
  "requestBody" : "",
  "queryParams" : {
    "policyId" : "387"
  },
  "authDetails" : null,
  "contentType" : "application/json",
  "multiParamInfoList" : null,
  "sampleHttpResponseDetails" : {
    "statusCode" : 0,
    "headers" : { },
    "responseBody" : "{\"content\":[{\"responseXml\":\"<?xml version=\\\"1.0\\\" encoding=\\\"UTF-8\\\"?>\\r\\n<QuoteResponse>\\r\\n  <Status>FAILURE</Status>\\r\\n  <InsuraMatchID>9575285</InsuraMatchID>\\r\\n  <ns4:GetQuoteExecutionDetailResponse xmlns:ns4=\\\"http://www.ezlynx.com/\\\" xmlns:ns2=\\\"http://www.ezlynx.com/XMLSchema/EzLynxQuoteResult/V200\\\" xmlns:ns3=\\\"http://www.ezlynx.com/XMLSchema/EzLynxQuoteRequest/V200\\\">\\r\\n    <ns3:QuoteExecutionDetail>\\r\\n      <QuoteExecutionID>11592831</QuoteExecutionID>\\r\\n      <Status>Failed</Status>\\r\\n      <Carrier ID=\\\"25\\\" Name=\\\"Progressive Insurance\\\" LOB=\\\"Auto\\\" />\\r\\n      <Start>2019-03-07T19:55:37.933</Start>\\r\\n      <End>2019-03-07T19:55:38.84</End>\\r\\n      <Completion>100</Completion>\\r\\n      <StatusText>Error : Error setting  VehicleXML. Please contact EZLynx Support Team for further assistance</StatusText>\\r\\n    </ns3:QuoteExecutionDetail>\\r\\n  </ns4:GetQuoteExecutionDetailResponse>\\r\\n</QuoteResponse>\"},{\"responseXml\":\"<?xml version=\\\"1.0\\\" encoding=\\\"UTF-8\\\"?>\\r\\n<QuoteResponse>\\r\\n  <Status>FAILURE</Status>\\r\\n  <InsuraMatchID>7685628</InsuraMatchID>\\r\\n  <ns4:GetQuoteExecutionDetailResponse xmlns:ns4=\\\"http://www.ezlynx.com/\\\" xmlns:ns2=\\\"http://www.ezlynx.com/XMLSchema/EzLynxQuoteResult/V200\\\" xmlns:ns3=\\\"http://www.ezlynx.com/XMLSchema/EzLynxQuoteRequest/V200\\\">\\r\\n    <ns3:QuoteExecutionDetail>\\r\\n      <QuoteExecutionID>11592937</QuoteExecutionID>\\r\\n      <Status>Failed</Status>\\r\\n      <Carrier ID=\\\"25\\\" Name=\\\"Progressive Insurance\\\" LOB=\\\"Auto\\\" />\\r\\n      <Start>2019-03-07T21:03:06.45</Start>\\r\\n      <End>2019-03-07T21:03:07.467</End>\\r\\n      <Completion>100</Completion>\\r\\n      <StatusText>Error : Error setting  VehicleXML. Please contact EZLynx Support Team for further assistance</StatusText>\\r\\n    </ns3:QuoteExecutionDetail>\\r\\n  </ns4:GetQuoteExecutionDetailResponse>\\r\\n</QuoteResponse>\"},{\"responseXml\":\"<?xml version=\\\"1.0\\\" encoding=\\\"UTF-8\\\"?>\\r\\n<QuoteResponse>\\r\\n  <Status>FAILURE</Status>\\r\\n  <InsuraMatchID>1483818</InsuraMatchID>\\r\\n  <ns4:GetQuoteExecutionDetailResponse xmlns:ns4=\\\"http://www.ezlynx.com/\\\" xmlns:ns2=\\\"http://www.ezlynx.com/XMLSchema/EzLynxQuoteResult/V200\\\" xmlns:ns3=\\\"http://www.ezlynx.com/XMLSchema/EzLynxQuoteRequest/V200\\\">\\r\\n    <ns3:QuoteExecutionDetail>\\r\\n      <QuoteExecutionID>11592938</QuoteExecutionID>\\r\\n      <Status>Failed</Status>\\r\\n      <Carrier ID=\\\"25\\\" Name=\\\"Progressive Insurance\\\" LOB=\\\"Auto\\\" />\\r\\n      <Start>2019-03-07T21:03:43.223</Start>\\r\\n      <End>2019-03-07T21:03:44.173</End>\\r\\n      <Completion>100</Completion>\\r\\n      <StatusText>Error : Error setting  VehicleXML. Please contact EZLynx Support Team for further assistance</StatusText>\\r\\n    </ns3:QuoteExecutionDetail>\\r\\n  </ns4:GetQuoteExecutionDetailResponse>\\r\\n</QuoteResponse>\"},{\"responseXml\":\"<?xml version=\\\"1.0\\\" encoding=\\\"UTF-8\\\"?>\\r\\n<QuoteResponse>\\r\\n  <Status>FAILURE</Status>\\r\\n  <InsuraMatchID>6889919</InsuraMatchID>\\r\\n  <ns4:GetQuoteExecutionDetailResponse xmlns:ns4=\\\"http://www.ezlynx.com/\\\" xmlns:ns2=\\\"http://www.ezlynx.com/XMLSchema/EzLynxQuoteResult/V200\\\" xmlns:ns3=\\\"http://www.ezlynx.com/XMLSchema/EzLynxQuoteRequest/V200\\\">\\r\\n    <ns3:QuoteExecutionDetail>\\r\\n      <QuoteExecutionID>11592830</QuoteExecutionID>\\r\\n      <Status>Failed</Status>\\r\\n      <Carrier ID=\\\"25\\\" Name=\\\"Progressive Insurance\\\" LOB=\\\"Auto\\\" />\\r\\n      <Start>2019-03-07T19:55:24.847</Start>\\r\\n      <End>2019-03-07T19:55:25.797</End>\\r\\n      <Completion>100</Completion>\\r\\n      <StatusText>Error : Error setting  VehicleXML. Please contact EZLynx Support Team for further assistance</StatusText>\\r\\n    </ns3:QuoteExecutionDetail>\\r\\n  </ns4:GetQuoteExecutionDetailResponse>\\r\\n</QuoteResponse>\"},{\"responseXml\":\"<?xml version=\\\"1.0\\\" encoding=\\\"UTF-8\\\"?>\\r\\n<QuoteResponse>\\r\\n  <Status>FAILURE</Status>\\r\\n  <InsuraMatchID>6215181</InsuraMatchID>\\r\\n  <ns4:GetQuoteExecutionDetailResponse xmlns:ns4=\\\"http://www.ezlynx.com/\\\" xmlns:ns2=\\\"http://www.ezlynx.com/XMLSchema/EzLynxQuoteResult/V200\\\" xmlns:ns3=\\\"http://www.ezlynx.com/XMLSchema/EzLynxQuoteRequest/V200\\\">\\r\\n    <ns3:QuoteExecutionDetail>\\r\\n      <QuoteExecutionID>11592860</QuoteExecutionID>\\r\\n      <Status>Failed</Status>\\r\\n      <Carrier ID=\\\"25\\\" Name=\\\"Progressive Insurance\\\" LOB=\\\"Auto\\\" />\\r\\n      <Start>2019-03-07T20:37:17.807</Start>\\r\\n      <End>2019-03-07T20:37:18.757</End>\\r\\n      <Completion>100</Completion>\\r\\n      <StatusText>Error : Error setting  VehicleXML. Please contact EZLynx Support Team for further assistance</StatusText>\\r\\n    </ns3:QuoteExecutionDetail>\\r\\n  </ns4:GetQuoteExecutionDetailResponse>\\r\\n</QuoteResponse>\"},{\"responseXml\":\"<?xml version=\\\"1.0\\\" encoding=\\\"UTF-8\\\"?>\\r\\n<QuoteResponse>\\r\\n  <Status>FAILURE</Status>\\r\\n  <InsuraMatchID>1131142</InsuraMatchID>\\r\\n  <ns4:GetQuoteExecutionDetailResponse xmlns:ns4=\\\"http://www.ezlynx.com/\\\" xmlns:ns2=\\\"http://www.ezlynx.com/XMLSchema/EzLynxQuoteResult/V200\\\" xmlns:ns3=\\\"http://www.ezlynx.com/XMLSchema/EzLynxQuoteRequest/V200\\\">\\r\\n    <ns3:QuoteExecutionDetail>\\r\\n      <QuoteExecutionID>11592870</QuoteExecutionID>\\r\\n      <Status>Failed</Status>\\r\\n      <Carrier ID=\\\"25\\\" Name=\\\"Progressive Insurance\\\" LOB=\\\"Auto\\\" />\\r\\n      <Start>2019-03-07T20:38:46.793</Start>\\r\\n      <End>2019-03-07T20:38:47.713</End>\\r\\n      <Completion>100</Completion>\\r\\n      <StatusText>Error : Error setting  VehicleXML. Please contact EZLynx Support Team for further assistance</StatusText>\\r\\n    </ns3:QuoteExecutionDetail>\\r\\n  </ns4:GetQuoteExecutionDetailResponse>\\r\\n</QuoteResponse>\"},{\"responseXml\":\"<?xml version=\\\"1.0\\\" encoding=\\\"UTF-8\\\"?>\\r\\n<QuoteResponse>\\r\\n  <Status>FAILURE</Status>\\r\\n  <InsuraMatchID>7941082</InsuraMatchID>\\r\\n  <ns4:GetQuoteExecutionDetailResponse xmlns:ns4=\\\"http://www.ezlynx.com/\\\" xmlns:ns2=\\\"http://www.ezlynx.com/XMLSchema/EzLynxQuoteResult/V200\\\" xmlns:ns3=\\\"http://www.ezlynx.com/XMLSchema/EzLynxQuoteRequest/V200\\\">\\r\\n    <ns3:QuoteExecutionDetail>\\r\\n      <QuoteExecutionID>11592946</QuoteExecutionID>\\r\\n      <Status>Failed</Status>\\r\\n      <Carrier ID=\\\"25\\\" Name=\\\"Progressive Insurance\\\" LOB=\\\"Auto\\\" />\\r\\n      <Start>2019-03-07T21:04:43.177</Start>\\r\\n      <End>2019-03-07T21:04:44.143</End>\\r\\n      <Completion>100</Completion>\\r\\n      <StatusText>Error : Error setting  VehicleXML. Please contact EZLynx Support Team for further assistance</StatusText>\\r\\n    </ns3:QuoteExecutionDetail>\\r\\n  </ns4:GetQuoteExecutionDetailResponse>\\r\\n</QuoteResponse>\"},{\"responseXml\":\"<QuoteResponse><Status>SUCCESS</Status><InsuraMatchID>8197328</InsuraMatchID><ns4:GetQuoteExecutionDetailResponse xmlns:ns4=\\\"http://www.ezlynx.com/\\\" xmlns:ns2=\\\"http://www.ezlynx.com/XMLSchema/EzLynxQuoteResult/V200\\\" xmlns:ns3=\\\"http://www.ezlynx.com/XMLSchema/EzLynxQuoteRequest/V200\\\"><ns3:QuoteExecutionDetail><QuoteExecutionID>11592827</QuoteExecutionID><Status>Succeeded</Status><Carrier ID=\\\"25\\\" Name=\\\"Progressive Insurance\\\" LOB=\\\"Auto\\\" /><Start>2019-03-07T19:51:32.957</Start><End>2019-03-07T19:51:39.913</End><Completion>100</Completion><EZQuoteResult><ns2:EZQuote><ns2:PremDetails><ns2:LOB>Auto</ns2:LOB><ns2:Term>12</ns2:Term><ns2:Amt>5737.00</ns2:Amt><ns2:AmtText>Paid-In-Full</ns2:AmtText><ns2:TotalPrem>5737.00</ns2:TotalPrem></ns2:PremDetails><ns2:AppliedDiscounts><ns2:Discount name=\\\"Homeowner discount\\\" /><ns2:Discount name=\\\"Continuous Insurance discount:  Platinum\\\" /><ns2:Discount name=\\\"Paperless discount\\\" /><ns2:Discount name=\\\"Paid in Full discount or EFT discount may apply - based on payment option selected\\\" /><ns2:Discount name=\\\"Risk qualifies for Progressive POP Policy.\\\" /></ns2:AppliedDiscounts><ns2:PPs Name=\\\"Paid-In-Full\\\"><ns2:PP name=\\\"TotalAmt\\\"><ns2:Val>5737.00</ns2:Val></ns2:PP><ns2:PP name=\\\"Desc\\\"><ns2:Val>Paid-In-Full</ns2:Val></ns2:PP></ns2:PPs><ns2:PPs Name=\\\"EFT\\\"><ns2:PP name=\\\"TotalAmt\\\"><ns2:Val>5737.00</ns2:Val></ns2:PP><ns2:PP name=\\\"DownPayment\\\"><ns2:Val>5737.00</ns2:Val></ns2:PP><ns2:PP name=\\\"InstallmentPayment\\\"><ns2:Val>5737.00</ns2:Val></ns2:PP><ns2:PP name=\\\"Desc\\\"><ns2:Val>1 Payments,100% Down</ns2:Val></ns2:PP></ns2:PPs><ns2:PPs Name=\\\"EFT\\\"><ns2:PP name=\\\"TotalAmt\\\"><ns2:Val>6408.00</ns2:Val></ns2:PP><ns2:PP name=\\\"DownPayment\\\"><ns2:Val>591.58</ns2:Val></ns2:PP><ns2:PP name=\\\"InstallmentPayment\\\"><ns2:Val>582.65</ns2:Val></ns2:PP><ns2:PP name=\\\"Desc\\\"><ns2:Val>11 Payments,9.09% Down</ns2:Val></ns2:PP></ns2:PPs></ns2:EZQuote></EZQuoteResult></ns3:QuoteExecutionDetail></ns4:GetQuoteExecutionDetailResponse></QuoteResponse>\"},{\"responseXml\":\"<QuoteResponse><Status>SUCCESS</Status><InsuraMatchID>1956845</InsuraMatchID><ns4:GetQuoteExecutionDetailResponse xmlns:ns4=\\\"http://www.ezlynx.com/\\\" xmlns:ns2=\\\"http://www.ezlynx.com/XMLSchema/EzLynxQuoteResult/V200\\\" xmlns:ns3=\\\"http://www.ezlynx.com/XMLSchema/EzLynxQuoteRequest/V200\\\"><ns3:QuoteExecutionDetail><QuoteExecutionID>11592828</QuoteExecutionID><Status>Succeeded</Status><Carrier ID=\\\"25\\\" Name=\\\"Progressive Insurance\\\" LOB=\\\"Auto\\\" /><Start>2019-03-07T19:52:20.35</Start><End>2019-03-07T19:52:25.84</End><Completion>100</Completion><EZQuoteResult><ns2:EZQuote><ns2:PremDetails><ns2:LOB>Auto</ns2:LOB><ns2:Term>12</ns2:Term><ns2:Amt>5737.00</ns2:Amt><ns2:AmtText>Paid-In-Full</ns2:AmtText><ns2:TotalPrem>5737.00</ns2:TotalPrem></ns2:PremDetails><ns2:AppliedDiscounts><ns2:Discount name=\\\"Homeowner discount\\\" /><ns2:Discount name=\\\"Continuous Insurance discount:  Platinum\\\" /><ns2:Discount name=\\\"Paperless discount\\\" /><ns2:Discount name=\\\"Paid in Full discount or EFT discount may apply - based on payment option selected\\\" /><ns2:Discount name=\\\"Risk qualifies for Progressive POP Policy.\\\" /></ns2:AppliedDiscounts><ns2:PPs Name=\\\"Paid-In-Full\\\"><ns2:PP name=\\\"TotalAmt\\\"><ns2:Val>5737.00</ns2:Val></ns2:PP><ns2:PP name=\\\"Desc\\\"><ns2:Val>Paid-In-Full</ns2:Val></ns2:PP></ns2:PPs><ns2:PPs Name=\\\"EFT\\\"><ns2:PP name=\\\"TotalAmt\\\"><ns2:Val>5737.00</ns2:Val></ns2:PP><ns2:PP name=\\\"DownPayment\\\"><ns2:Val>5737.00</ns2:Val></ns2:PP><ns2:PP name=\\\"InstallmentPayment\\\"><ns2:Val>5737.00</ns2:Val></ns2:PP><ns2:PP name=\\\"Desc\\\"><ns2:Val>1 Payments,100% Down</ns2:Val></ns2:PP></ns2:PPs><ns2:PPs Name=\\\"EFT\\\"><ns2:PP name=\\\"TotalAmt\\\"><ns2:Val>6408.00</ns2:Val></ns2:PP><ns2:PP name=\\\"DownPayment\\\"><ns2:Val>591.58</ns2:Val></ns2:PP><ns2:PP name=\\\"InstallmentPayment\\\"><ns2:Val>582.65</ns2:Val></ns2:PP><ns2:PP name=\\\"Desc\\\"><ns2:Val>11 Payments,9.09% Down</ns2:Val></ns2:PP></ns2:PPs></ns2:EZQuote></EZQuoteResult></ns3:QuoteExecutionDetail></ns4:GetQuoteExecutionDetailResponse></QuoteResponse>\"},{\"responseXml\":\"<?xml version=\\\"1.0\\\" encoding=\\\"UTF-8\\\"?>\\r\\n<QuoteResponse>\\r\\n  <Status>FAILURE</Status>\\r\\n  <InsuraMatchID>4758421</InsuraMatchID>\\r\\n  <ns4:GetQuoteExecutionDetailResponse xmlns:ns4=\\\"http://www.ezlynx.com/\\\" xmlns:ns2=\\\"http://www.ezlynx.com/XMLSchema/EzLynxQuoteResult/V200\\\" xmlns:ns3=\\\"http://www.ezlynx.com/XMLSchema/EzLynxQuoteRequest/V200\\\">\\r\\n    <ns3:QuoteExecutionDetail>\\r\\n      <QuoteExecutionID>11592854</QuoteExecutionID>\\r\\n      <Status>Failed</Status>\\r\\n      <Carrier ID=\\\"25\\\" Name=\\\"Progressive Insurance\\\" LOB=\\\"Auto\\\" />\\r\\n      <Start>2019-03-07T20:36:08.757</Start>\\r\\n      <End>2019-03-07T20:36:09.693</End>\\r\\n      <Completion>100</Completion>\\r\\n      <StatusText>Error : Error setting  VehicleXML. Please contact EZLynx Support Team for further assistance</StatusText>\\r\\n    </ns3:QuoteExecutionDetail>\\r\\n  </ns4:GetQuoteExecutionDetailResponse>\\r\\n</QuoteResponse>\"},{\"responseXml\":\"<?xml version=\\\"1.0\\\" encoding=\\\"UTF-8\\\"?>\\r\\n<QuoteResponse>\\r\\n  <Status>FAILURE</Status>\\r\\n  <InsuraMatchID>1321062</InsuraMatchID>\\r\\n  <ns4:GetQuoteExecutionDetailResponse xmlns:ns4=\\\"http://www.ezlynx.com/\\\" xmlns:ns2=\\\"http://www.ezlynx.com/XMLSchema/EzLynxQuoteResult/V200\\\" xmlns:ns3=\\\"http://www.ezlynx.com/XMLSchema/EzLynxQuoteRequest/V200\\\">\\r\\n    <ns3:QuoteExecutionDetail>\\r\\n      <QuoteExecutionID>11592858</QuoteExecutionID>\\r\\n      <Status>Failed</Status>\\r\\n      <Carrier ID=\\\"25\\\" Name=\\\"Progressive Insurance\\\" LOB=\\\"Auto\\\" />\\r\\n      <Start>2019-03-07T20:36:49.397</Start>\\r\\n      <End>2019-03-07T20:36:50.397</End>\\r\\n      <Completion>100</Completion>\\r\\n      <StatusText>Error : Error setting  VehicleXML. Please contact EZLynx Support Team for further assistance</StatusText>\\r\\n    </ns3:QuoteExecutionDetail>\\r\\n  </ns4:GetQuoteExecutionDetailResponse>\\r\\n</QuoteResponse>\"},{\"responseXml\":\"<?xml version=\\\"1.0\\\" encoding=\\\"UTF-8\\\"?>\\r\\n<QuoteResponse>\\r\\n  <Status>FAILURE</Status>\\r\\n  <InsuraMatchID>9786053</InsuraMatchID>\\r\\n  <ns4:GetQuoteExecutionDetailResponse xmlns:ns4=\\\"http://www.ezlynx.com/\\\" xmlns:ns2=\\\"http://www.ezlynx.com/XMLSchema/EzLynxQuoteResult/V200\\\" xmlns:ns3=\\\"http://www.ezlynx.com/XMLSchema/EzLynxQuoteRequest/V200\\\">\\r\\n    <ns3:QuoteExecutionDetail>\\r\\n      <QuoteExecutionID>11592948</QuoteExecutionID>\\r\\n      <Status>Failed</Status>\\r\\n      <Carrier ID=\\\"25\\\" Name=\\\"Progressive Insurance\\\" LOB=\\\"Auto\\\" />\\r\\n      <Start>2019-03-07T21:05:25.453</Start>\\r\\n      <End>2019-03-07T21:05:26.373</End>\\r\\n      <Completion>100</Completion>\\r\\n      <StatusText>Error : Error setting  VehicleXML. Please contact EZLynx Support Team for further assistance</StatusText>\\r\\n    </ns3:QuoteExecutionDetail>\\r\\n  </ns4:GetQuoteExecutionDetailResponse>\\r\\n</QuoteResponse>\"},{\"responseXml\":\"<?xml version=\\\"1.0\\\" encoding=\\\"UTF-8\\\"?>\\r\\n<QuoteResponse>\\r\\n  <Status>FAILURE</Status>\\r\\n  <InsuraMatchID>3455771</InsuraMatchID>\\r\\n  <ns4:GetQuoteExecutionDetailResponse xmlns:ns4=\\\"http://www.ezlynx.com/\\\" xmlns:ns2=\\\"http://www.ezlynx.com/XMLSchema/EzLynxQuoteResult/V200\\\" xmlns:ns3=\\\"http://www.ezlynx.com/XMLSchema/EzLynxQuoteRequest/V200\\\">\\r\\n    <ns3:QuoteExecutionDetail>\\r\\n      <QuoteExecutionID>11592949</QuoteExecutionID>\\r\\n      <Status>Failed</Status>\\r\\n      <Carrier ID=\\\"25\\\" Name=\\\"Progressive Insurance\\\" LOB=\\\"Auto\\\" />\\r\\n      <Start>2019-03-07T21:06:40.51</Start>\\r\\n      <End>2019-03-07T21:07:28.59</End>\\r\\n      <Completion>100</Completion>\\r\\n      <StatusText>Carrier Error :The information disclosure must be read to the consumer to obtain a rate.  If the consumer declines to allow credit or other consumer reports to be run, then Progressive cannot provide a quote.</StatusText>\\r\\n    </ns3:QuoteExecutionDetail>\\r\\n  </ns4:GetQuoteExecutionDetailResponse>\\r\\n</QuoteResponse>\"},{\"responseXml\":\"<?xml version=\\\"1.0\\\" encoding=\\\"UTF-8\\\"?>\\r\\n<QuoteResponse>\\r\\n  <Status>FAILURE</Status>\\r\\n  <InsuraMatchID>6775156</InsuraMatchID>\\r\\n  <ns4:GetQuoteExecutionDetailResponse xmlns:ns4=\\\"http://www.ezlynx.com/\\\" xmlns:ns2=\\\"http://www.ezlynx.com/XMLSchema/EzLynxQuoteResult/V200\\\" xmlns:ns3=\\\"http://www.ezlynx.com/XMLSchema/EzLynxQuoteRequest/V200\\\">\\r\\n    <ns3:QuoteExecutionDetail>\\r\\n      <QuoteExecutionID>11592950</QuoteExecutionID>\\r\\n      <Status>Failed</Status>\\r\\n      <Carrier ID=\\\"25\\\" Name=\\\"Progressive Insurance\\\" LOB=\\\"Auto\\\" />\\r\\n      <Start>2019-03-07T21:07:00.23</Start>\\r\\n      <End>2019-03-07T21:07:48.03</End>\\r\\n      <Completion>100</Completion>\\r\\n      <StatusText>Carrier Error :The information disclosure must be read to the consumer to obtain a rate.  If the consumer declines to allow credit or other consumer reports to be run, then Progressive cannot provide a quote.</StatusText>\\r\\n    </ns3:QuoteExecutionDetail>\\r\\n  </ns4:GetQuoteExecutionDetailResponse>\\r\\n</QuoteResponse>\"},{\"responseXml\":\"<?xml version=\\\"1.0\\\" encoding=\\\"UTF-8\\\"?>\\r\\n<QuoteResponse>\\r\\n  <Status>FAILURE</Status>\\r\\n  <InsuraMatchID>9612928</InsuraMatchID>\\r\\n  <ns4:GetQuoteExecutionDetailResponse xmlns:ns4=\\\"http://www.ezlynx.com/\\\" xmlns:ns2=\\\"http://www.ezlynx.com/XMLSchema/EzLynxQuoteResult/V200\\\" xmlns:ns3=\\\"http://www.ezlynx.com/XMLSchema/EzLynxQuoteRequest/V200\\\">\\r\\n    <ns3:QuoteExecutionDetail>\\r\\n      <QuoteExecutionID>11592957</QuoteExecutionID>\\r\\n      <Status>Failed</Status>\\r\\n      <Carrier ID=\\\"25\\\" Name=\\\"Progressive Insurance\\\" LOB=\\\"Auto\\\" />\\r\\n      <Start>2019-03-07T21:17:16.29</Start>\\r\\n      <End>2019-03-07T21:18:03.777</End>\\r\\n      <Completion>100</Completion>\\r\\n      <StatusText>Carrier Error :The information disclosure must be read to the consumer to obtain a rate.  If the consumer declines to allow credit or other consumer reports to be run, then Progressive cannot provide a quote.</StatusText>\\r\\n    </ns3:QuoteExecutionDetail>\\r\\n  </ns4:GetQuoteExecutionDetailResponse>\\r\\n</QuoteResponse>\"},{\"responseXml\":\"<?xml version=\\\"1.0\\\" encoding=\\\"UTF-8\\\"?>\\r\\n<QuoteResponse>\\r\\n  <Status>FAILURE</Status>\\r\\n  <InsuraMatchID>5328481</InsuraMatchID>\\r\\n  <ns4:GetQuoteExecutionDetailResponse xmlns:ns4=\\\"http://www.ezlynx.com/\\\" xmlns:ns2=\\\"http://www.ezlynx.com/XMLSchema/EzLynxQuoteResult/V200\\\" xmlns:ns3=\\\"http://www.ezlynx.com/XMLSchema/EzLynxQuoteRequest/V200\\\">\\r\\n    <ns3:QuoteExecutionDetail>\\r\\n      <QuoteExecutionID>11592958</QuoteExecutionID>\\r\\n      <Status>Failed</Status>\\r\\n      <Carrier ID=\\\"25\\\" Name=\\\"Progressive Insurance\\\" LOB=\\\"Auto\\\" />\\r\\n      <Start>2019-03-07T21:17:43.153</Start>\\r\\n      <End>2019-03-07T21:18:30.61</End>\\r\\n      <Completion>100</Completion>\\r\\n      <StatusText>Carrier Error :The information disclosure must be read to the consumer to obtain a rate.  If the consumer declines to allow credit or other consumer reports to be run, then Progressive cannot provide a quote.</StatusText>\\r\\n    </ns3:QuoteExecutionDetail>\\r\\n  </ns4:GetQuoteExecutionDetailResponse>\\r\\n</QuoteResponse>\"},{\"responseXml\":\"<?xml version=\\\"1.0\\\" encoding=\\\"UTF-8\\\"?>\\r\\n<QuoteResponse>\\r\\n  <Status>FAILURE</Status>\\r\\n  <InsuraMatchID>2730526</InsuraMatchID>\\r\\n  <ns4:GetQuoteExecutionDetailResponse xmlns:ns4=\\\"http://www.ezlynx.com/\\\" xmlns:ns2=\\\"http://www.ezlynx.com/XMLSchema/EzLynxQuoteResult/V200\\\" xmlns:ns3=\\\"http://www.ezlynx.com/XMLSchema/EzLynxQuoteRequest/V200\\\">\\r\\n    <ns3:QuoteExecutionDetail>\\r\\n      <QuoteExecutionID>11592968</QuoteExecutionID>\\r\\n      <Status>Failed</Status>\\r\\n      <Carrier ID=\\\"25\\\" Name=\\\"Progressive Insurance\\\" LOB=\\\"Auto\\\" />\\r\\n      <Start>2019-03-07T21:25:42.69</Start>\\r\\n      <End>2019-03-07T21:25:45.233</End>\\r\\n      <Completion>100</Completion>\\r\\n      <StatusText>Carrier Error :The information disclosure must be read to the consumer to obtain a rate.  If the consumer declines to allow credit or other consumer reports to be run, then Progressive cannot provide a quote.</StatusText>\\r\\n    </ns3:QuoteExecutionDetail>\\r\\n  </ns4:GetQuoteExecutionDetailResponse>\\r\\n</QuoteResponse>\"},{\"responseXml\":\"<?xml version=\\\"1.0\\\" encoding=\\\"UTF-8\\\"?>\\r\\n<QuoteResponse>\\r\\n  <Status>FAILURE</Status>\\r\\n  <InsuraMatchID>2650568</InsuraMatchID>\\r\\n  <ns4:GetQuoteExecutionDetailResponse xmlns:ns4=\\\"http://www.ezlynx.com/\\\" xmlns:ns2=\\\"http://www.ezlynx.com/XMLSchema/EzLynxQuoteResult/V200\\\" xmlns:ns3=\\\"http://www.ezlynx.com/XMLSchema/EzLynxQuoteRequest/V200\\\">\\r\\n    <ns3:QuoteExecutionDetail>\\r\\n      <QuoteExecutionID>11592963</QuoteExecutionID>\\r\\n      <Status>Failed</Status>\\r\\n      <Carrier ID=\\\"25\\\" Name=\\\"Progressive Insurance\\\" LOB=\\\"Auto\\\" />\\r\\n      <Start>2019-03-07T21:21:11.457</Start>\\r\\n      <End>2019-03-07T21:21:14.06</End>\\r\\n      <Completion>100</Completion>\\r\\n      <StatusText>Carrier Error :The information disclosure must be read to the consumer to obtain a rate.  If the consumer declines to allow credit or other consumer reports to be run, then Progressive cannot provide a quote.</StatusText>\\r\\n    </ns3:QuoteExecutionDetail>\\r\\n  </ns4:GetQuoteExecutionDetailResponse>\\r\\n</QuoteResponse>\"},{\"responseXml\":\"<?xml version=\\\"1.0\\\" encoding=\\\"UTF-8\\\"?>\\r\\n<QuoteResponse>\\r\\n  <Status>FAILURE</Status>\\r\\n  <InsuraMatchID>5023074</InsuraMatchID>\\r\\n  <ns4:GetQuoteExecutionDetailResponse xmlns:ns4=\\\"http://www.ezlynx.com/\\\" xmlns:ns2=\\\"http://www.ezlynx.com/XMLSchema/EzLynxQuoteResult/V200\\\" xmlns:ns3=\\\"http://www.ezlynx.com/XMLSchema/EzLynxQuoteRequest/V200\\\">\\r\\n    <ns3:QuoteExecutionDetail>\\r\\n      <QuoteExecutionID>11592964</QuoteExecutionID>\\r\\n      <Status>Failed</Status>\\r\\n      <Carrier ID=\\\"25\\\" Name=\\\"Progressive Insurance\\\" LOB=\\\"Auto\\\" />\\r\\n      <Start>2019-03-07T21:21:34.857</Start>\\r\\n      <End>2019-03-07T21:21:37.29</End>\\r\\n      <Completion>100</Completion>\\r\\n      <StatusText>Carrier Error :The information disclosure must be read to the consumer to obtain a rate.  If the consumer declines to allow credit or other consumer reports to be run, then Progressive cannot provide a quote.</StatusText>\\r\\n    </ns3:QuoteExecutionDetail>\\r\\n  </ns4:GetQuoteExecutionDetailResponse>\\r\\n</QuoteResponse>\"},{\"responseXml\":\"<?xml version=\\\"1.0\\\" encoding=\\\"UTF-8\\\"?>\\r\\n<QuoteResponse>\\r\\n  <Status>FAILURE</Status>\\r\\n  <InsuraMatchID>9180736</InsuraMatchID>\\r\\n  <ns4:GetQuoteExecutionDetailResponse xmlns:ns4=\\\"http://www.ezlynx.com/\\\" xmlns:ns2=\\\"http://www.ezlynx.com/XMLSchema/EzLynxQuoteResult/V200\\\" xmlns:ns3=\\\"http://www.ezlynx.com/XMLSchema/EzLynxQuoteRequest/V200\\\">\\r\\n    <ns3:QuoteExecutionDetail>\\r\\n      <QuoteExecutionID>11592970</QuoteExecutionID>\\r\\n      <Status>Failed</Status>\\r\\n      <Carrier ID=\\\"25\\\" Name=\\\"Progressive Insurance\\\" LOB=\\\"Auto\\\" />\\r\\n      <Start>2019-03-07T21:28:58.527</Start>\\r\\n      <End>2019-03-07T21:29:01.18</End>\\r\\n      <Completion>100</Completion>\\r\\n      <StatusText>Carrier Error :The information disclosure must be read to the consumer to obtain a rate.  If the consumer declines to allow credit or other consumer reports to be run, then Progressive cannot provide a quote.</StatusText>\\r\\n    </ns3:QuoteExecutionDetail>\\r\\n  </ns4:GetQuoteExecutionDetailResponse>\\r\\n</QuoteResponse>\"}],\"last\":false,\"totalElements\":30,\"totalPages\":2,\"sort\":[],\"first\":true,\"numberOfElements\":20,\"size\":20,\"number\":0}",
    "convertedResponse" : null
  },
  "proxy" : null
}