{
  "basePath" : "${rest.CreateImCoverage.basepath}",
  "paths" : {
    "/services/UNIVERSAL_RATE/ImCoverage" : {
      "post" : {
        "x-WM-METHOD_NAME" : "invoke",
        "x-WM-ACCESS_SPECIFIER" : "APP_ONLY",
        "operationId" : "CreateImCoverage_RestServiceVirtualController-invoke",
        "responses" : {
          "200" : {
            "schema" : {
              "$ref" : "#/definitions/RootResponse"
            },
            "description" : "Success"
          }
        },
        "parameters" : [ {
          "schema" : {
            "$ref" : "#/definitions/RootRequest"
          },
          "in" : "body",
          "name" : "RequestBody",
          "description" : "RequestBody",
          "x-WM-FULLY_QUALIFIED_TYPE" : "java.lang.Object",
          "required" : false
        } ],
        "tags" : [ "RestServiceVirtualController" ],
        "consumes" : [ "application/json" ]
      },
      "x-WM-BASE_PATH" : "/services/UNIVERSAL_RATE/ImCoverage",
      "x-WM-TAG" : "RestServiceVirtualController",
      "x-WM-RELATIVE_PATH" : "",
      "x-WM-COMPLETE_PATH" : "${rest.CreateImCoverage.scheme}://${rest.CreateImCoverage.host}${rest.CreateImCoverage.basepath}/services/UNIVERSAL_RATE/ImCoverage"
    }
  },
  "host" : "${rest.CreateImCoverage.host}",
  "schemes" : [ "${rest.CreateImCoverage.scheme}" ],
  "definitions" : {
    "imPolicyInfo" : {
      "x-WM-FULLY_QUALIFIED_NAME" : "CreateImCoverage.imPolicyInfo",
      "x-WM-TAGS" : [ "RestServiceVirtualController" ],
      "required" : [ "company", "creditCheckAuth", "effective", "insertTimestamp", "insertedBy", "insuramatchId", "package_", "polNum", "polSeqNum", "policyId", "policyTerm", "riskState", "updateTimestamp", "updatedBy", "versionNum" ],
      "properties" : {
        "creditCheckAuth" : {
          "type" : "string"
        },
        "updatedBy" : {
          "type" : "string"
        },
        "insuramatchId" : {
          "type" : "string"
        },
        "policyTerm" : {
          "type" : "string"
        },
        "versionNum" : {
          "type" : "string"
        },
        "insertTimestamp" : {
          "type" : "string"
        },
        "polSeqNum" : {
          "type" : "string"
        },
        "updateTimestamp" : {
          "type" : "string"
        },
        "effective" : {
          "type" : "string"
        },
        "insertedBy" : {
          "type" : "string"
        },
        "policyId" : {
          "format" : "int32",
          "type" : "integer"
        },
        "polNum" : {
          "type" : "string"
        },
        "package_" : {
          "type" : "string"
        },
        "company" : {
          "type" : "string"
        },
        "riskState" : {
          "type" : "string"
        }
      }
    },
    "RootRequest" : {
      "x-WM-FULLY_QUALIFIED_NAME" : "CreateImCoverage.RootRequest",
      "x-WM-TAGS" : [ "RestServiceVirtualController" ],
      "required" : [ "aaaDiscount", "bi", "coverageId", "insertTimestamp", "insertedBy", "mp", "multiCar", "multiPolicy", "pd", "policyId", "retirementCommuty", "uim", "um", "updateTimestamp", "updatedBy", "versionNum" ],
      "properties" : {
        "coverageId" : {
          "format" : "int32",
          "type" : "integer"
        },
        "mp" : {
          "type" : "string"
        },
        "updatedBy" : {
          "type" : "string"
        },
        "versionNum" : {
          "type" : "string"
        },
        "bi" : {
          "type" : "string"
        },
        "insertTimestamp" : {
          "type" : "string"
        },
        "multiCar" : {
          "type" : "string"
        },
        "aaaDiscount" : {
          "type" : "string"
        },
        "updateTimestamp" : {
          "type" : "string"
        },
        "insertedBy" : {
          "type" : "string"
        },
        "multiPolicy" : {
          "type" : "string"
        },
        "policyId" : {
          "format" : "int32",
          "type" : "integer"
        },
        "pd" : {
          "type" : "string"
        },
        "um" : {
          "type" : "string"
        },
        "uim" : {
          "type" : "string"
        },
        "retirementCommuty" : {
          "type" : "string"
        }
      }
    },
    "RootResponse" : {
      "x-WM-FULLY_QUALIFIED_NAME" : "CreateImCoverage.RootResponse",
      "x-WM-TAGS" : [ "RestServiceVirtualController" ],
      "required" : [ "aaaDiscount", "bi", "coverageId", "imPolicyInfo", "insertTimestamp", "insertedBy", "mp", "multiCar", "multiPolicy", "pd", "policyId", "retirementCommuty", "uim", "um", "updateTimestamp", "updatedBy", "versionNum" ],
      "properties" : {
        "coverageId" : {
          "format" : "int32",
          "type" : "integer"
        },
        "imPolicyInfo" : {
          "$ref" : "#/definitions/imPolicyInfo"
        },
        "mp" : {
          "type" : "string"
        },
        "updatedBy" : {
          "type" : "string"
        },
        "versionNum" : {
          "type" : "string"
        },
        "bi" : {
          "type" : "string"
        },
        "insertTimestamp" : {
          "type" : "string"
        },
        "multiCar" : {
          "type" : "string"
        },
        "aaaDiscount" : {
          "type" : "string"
        },
        "updateTimestamp" : {
          "type" : "string"
        },
        "insertedBy" : {
          "type" : "string"
        },
        "multiPolicy" : {
          "type" : "string"
        },
        "policyId" : {
          "format" : "int32",
          "type" : "integer"
        },
        "pd" : {
          "type" : "string"
        },
        "um" : {
          "type" : "string"
        },
        "uim" : {
          "type" : "string"
        },
        "retirementCommuty" : {
          "type" : "string"
        }
      }
    }
  },
  "swagger" : "2.0",
  "info" : {
    "x-WM-USE_PROXY_FOR_WEB" : true,
    "x-WM-USE_PROXY_FOR_MOBILE" : true,
    "x-WM-API_ID" : "7b12300a-4703-4c14-9cc5-6ac747e4a0df",
    "x-WM-SERVICE_ID" : "cloud",
    "version" : "2.0",
    "x-WM-SERVICE_TYPE" : "RestService"
  },
  "tags" : [ {
    "name" : "RestServiceVirtualController",
    "description" : "Rest service swagger documentation"
  } ]
}