{
  "swagger" : "2.0",
  "info" : {
    "version" : "2.0",
    "x-WM-USE_PROXY_FOR_WEB" : true,
    "x-WM-USE_PROXY_FOR_MOBILE" : true,
    "x-WM-API_ID" : "76d56a42-7cb1-44bb-abb6-bea5c26ab6ce",
    "x-WM-SERVICE_ID" : "cloud",
    "x-WM-SERVICE_TYPE" : "RestService"
  },
  "host" : "pkhgqfmqv632.cloud.wavemakeronline.com",
  "basePath" : "",
  "tags" : [ {
    "name" : "RestServiceVirtualController",
    "description" : "Rest service swagger documentation"
  } ],
  "schemes" : [ "http" ],
  "paths" : {
    "/deletImQuestionMaster/invoke/services/UNIVERSAL_RATE/ImQuestionMaster/delete/8841" : {
      "get" : {
        "tags" : [ "RestServiceVirtualController" ],
        "operationId" : "deletImQuestionMaster_RestServiceVirtualController-invoke",
        "consumes" : [ "application/json" ],
        "produces" : [ "text/html" ],
        "responses" : {
          "200" : {
            "description" : "Success",
            "schema" : {
              "$ref" : "#/definitions/RootResponse"
            }
          }
        },
        "x-WM-METHOD_NAME" : "invoke",
        "x-WM-ACCESS_SPECIFIER" : "APP_ONLY"
      },
      "x-WM-BASE_PATH" : "/deletImQuestionMaster/invoke/services/UNIVERSAL_RATE/ImQuestionMaster/delete/8841",
      "x-WM-TAG" : "RestServiceVirtualController",
      "x-WM-RELATIVE_PATH" : "",
      "x-WM-COMPLETE_PATH" : "${rest.deletImQuestionMaster.scheme}://${rest.deletImQuestionMaster.host}${rest.deletImQuestionMaster.basepath}/services/UNIVERSAL_RATE/ImQuestionMaster/delete/8841"
    }
  },
  "definitions" : {
    "RootResponse" : {
      "x-WM-FULLY_QUALIFIED_NAME" : "deletImQuestionMaster.RootResponse",
      "x-WM-TAGS" : [ "RestServiceVirtualController" ]
    }
  }
}