{
  "basePath" : "${rest.GetDropDownValues.basepath}",
  "paths" : {
    "/services/UNIVERSAL_RATE/queryExecutor/queries/GetDropDownValues" : {
      "x-WM-BASE_PATH" : "/services/UNIVERSAL_RATE/queryExecutor/queries/GetDropDownValues",
      "x-WM-TAG" : "RestServiceVirtualController",
      "x-WM-RELATIVE_PATH" : "",
      "get" : {
        "x-WM-METHOD_NAME" : "invoke",
        "x-WM-ACCESS_SPECIFIER" : "APP_ONLY",
        "operationId" : "GetDropDownValues_RestServiceVirtualController-invoke",
        "responses" : {
          "200" : {
            "schema" : {
              "$ref" : "#/definitions/RootResponse"
            },
            "description" : "Success"
          }
        },
        "parameters" : [ {
          "x-WM-EDITABLE" : false,
          "in" : "query",
          "name" : "list_item",
          "format" : "string",
          "description" : "list_item",
          "type" : "string",
          "required" : false
        }, {
          "in" : "query",
          "name" : "size",
          "format" : "string",
          "type" : "string",
          "required" : false
        }, {
          "in" : "query",
          "name" : "sort",
          "format" : "string",
          "type" : "string",
          "required" : false
        } ],
        "tags" : [ "RestServiceVirtualController" ],
        "consumes" : [ "application/json" ]
      },
      "x-WM-COMPLETE_PATH" : "${rest.GetDropDownValues.scheme}://${rest.GetDropDownValues.host}${rest.GetDropDownValues.basepath}/services/UNIVERSAL_RATE/queryExecutor/queries/GetDropDownValues"
    }
  },
  "host" : "${rest.GetDropDownValues.host}",
  "schemes" : [ "${rest.GetDropDownValues.scheme}" ],
  "definitions" : {
    "contentEntryItem" : {
      "x-WM-FULLY_QUALIFIED_NAME" : "GetDropDownValues.contentEntryItem",
      "x-WM-TAGS" : [ "RestServiceVirtualController" ],
      "required" : [ "defaultValueInd", "displayOrder", "dropdownListItemId", "helpText", "listItemValue" ],
      "properties" : {
        "listItemValue" : {
          "type" : "string"
        },
        "helpText" : {
          "type" : "string"
        },
        "defaultValueInd" : {
          "type" : "string"
        },
        "displayOrder" : {
          "format" : "int32",
          "type" : "integer"
        },
        "dropdownListItemId" : {
          "format" : "int32",
          "type" : "integer"
        }
      }
    },
    "sortEntryItem" : {
      "x-WM-FULLY_QUALIFIED_NAME" : "GetDropDownValues.sortEntryItem",
      "x-WM-TAGS" : [ "RestServiceVirtualController" ],
      "required" : [ "ascending", "direction", "ignoreCase", "nullHandling", "property" ],
      "properties" : {
        "nullHandling" : {
          "type" : "string"
        },
        "ignoreCase" : {
          "type" : "boolean"
        },
        "property" : {
          "type" : "string"
        },
        "ascending" : {
          "type" : "boolean"
        },
        "direction" : {
          "type" : "string"
        }
      }
    },
    "RootResponse" : {
      "x-WM-FULLY_QUALIFIED_NAME" : "GetDropDownValues.RootResponse",
      "x-WM-TAGS" : [ "RestServiceVirtualController" ],
      "required" : [ "content", "first", "last", "number", "numberOfElements", "size", "sort", "totalElements", "totalPages" ],
      "properties" : {
        "number" : {
          "format" : "int32",
          "type" : "integer"
        },
        "last" : {
          "type" : "boolean"
        },
        "numberOfElements" : {
          "format" : "int32",
          "type" : "integer"
        },
        "size" : {
          "format" : "int32",
          "type" : "integer"
        },
        "totalPages" : {
          "format" : "int32",
          "type" : "integer"
        },
        "sort" : {
          "x-WM-IS_LIST" : true,
          "type" : "array",
          "items" : {
            "$ref" : "#/definitions/sortEntryItem"
          }
        },
        "content" : {
          "x-WM-IS_LIST" : true,
          "type" : "array",
          "items" : {
            "$ref" : "#/definitions/contentEntryItem"
          }
        },
        "first" : {
          "type" : "boolean"
        },
        "totalElements" : {
          "format" : "int32",
          "type" : "integer"
        }
      }
    }
  },
  "swagger" : "2.0",
  "info" : {
    "x-WM-USE_PROXY_FOR_WEB" : true,
    "x-WM-USE_PROXY_FOR_MOBILE" : true,
    "x-WM-API_ID" : "46cdfd90-eef3-48c3-b854-34e2aaf3a136",
    "x-WM-SERVICE_ID" : "cloud3",
    "version" : "2.0",
    "x-WM-SERVICE_TYPE" : "RestService"
  },
  "tags" : [ {
    "name" : "RestServiceVirtualController",
    "description" : "Rest service swagger documentation"
  } ]
}