{
  "swagger" : "2.0",
  "info" : {
    "version" : "2.0",
    "x-WM-USE_PROXY_FOR_WEB" : true,
    "x-WM-USE_PROXY_FOR_MOBILE" : true,
    "x-WM-API_ID" : "afd4a8c2-3a65-4723-a3a4-feda73f1f1bd",
    "x-WM-SERVICE_ID" : "cloud",
    "x-WM-SERVICE_TYPE" : "RestService"
  },
  "host" : "pkhgqfmqv632.cloud.wavemakeronline.com",
  "basePath" : "/UniRateServices",
  "tags" : [ {
    "name" : "RestServiceVirtualController",
    "description" : "Rest service swagger documentation"
  } ],
  "schemes" : [ "http" ],
  "paths" : {
    "/services/UNIVERSAL_RATE/ImQuestionAnswerLookup" : {
      "get" : {
        "tags" : [ "RestServiceVirtualController" ],
        "operationId" : "GetQuestionAnswers_RestServiceVirtualController-invoke",
        "consumes" : [ "application/json" ],
        "responses" : {
          "200" : {
            "description" : "Success",
            "schema" : {
              "$ref" : "#/definitions/RootResponse"
            }
          }
        },
        "x-WM-METHOD_NAME" : "invoke",
        "x-WM-ACCESS_SPECIFIER" : "APP_ONLY"
      },
      "x-WM-BASE_PATH" : "/services/UNIVERSAL_RATE/ImQuestionAnswerLookup",
      "x-WM-TAG" : "RestServiceVirtualController",
      "x-WM-RELATIVE_PATH" : "",
      "x-WM-COMPLETE_PATH" : "${rest.GetQuestionAnswers.scheme}://${rest.GetQuestionAnswers.host}${rest.GetQuestionAnswers.basepath}/services/UNIVERSAL_RATE/ImQuestionAnswerLookup"
    }
  },
  "definitions" : {
    "imQuestionMaster" : {
      "required" : [ "answerDataType", "answerText", "carrierListId", "displayOrder", "effDate", "expDate", "imCarrierList", "insertTimestamp", "insertedBy", "nodeName", "product", "questionMasterId", "questionText", "stateCd", "updateTimestamp", "updatedBy" ],
      "properties" : {
        "nodeName" : {
          "type" : "string"
        },
        "answerDataType" : {
          "type" : "string"
        },
        "product" : {
          "type" : "string"
        },
        "updatedBy" : {
          "type" : "string"
        },
        "answerText" : {
          "type" : "string"
        },
        "displayOrder" : {
          "type" : "integer",
          "format" : "int32"
        },
        "insertTimestamp" : {
          "type" : "string"
        },
        "expDate" : {
          "type" : "string"
        },
        "questionText" : {
          "type" : "string"
        },
        "updateTimestamp" : {
          "type" : "string"
        },
        "insertedBy" : {
          "type" : "string"
        },
        "carrierListId" : {
          "type" : "integer",
          "format" : "int32"
        },
        "effDate" : {
          "type" : "string"
        },
        "imCarrierList" : {
          "$ref" : "#/definitions/imCarrierList"
        },
        "stateCd" : {
          "type" : "string"
        },
        "questionMasterId" : {
          "type" : "integer",
          "format" : "int32"
        }
      },
      "x-WM-FULLY_QUALIFIED_NAME" : "GetQuestionAnswers.imQuestionMaster",
      "x-WM-TAGS" : [ "RestServiceVirtualController" ]
    },
    "imCarrierList" : {
      "required" : [ "carrierId", "carrierListId", "carrierName", "company", "insertTimestamp", "insertedBy", "updateTimestamp", "updatedBy", "versionNum" ],
      "properties" : {
        "insertedBy" : {
          "type" : "string"
        },
        "carrierListId" : {
          "type" : "integer",
          "format" : "int32"
        },
        "updatedBy" : {
          "type" : "string"
        },
        "carrierName" : {
          "type" : "string"
        },
        "versionNum" : {
          "type" : "string"
        },
        "company" : {
          "type" : "string"
        },
        "insertTimestamp" : {
          "type" : "string"
        },
        "carrierId" : {
          "type" : "integer",
          "format" : "int32"
        },
        "updateTimestamp" : {
          "type" : "string"
        }
      },
      "x-WM-FULLY_QUALIFIED_NAME" : "GetQuestionAnswers.imCarrierList",
      "x-WM-TAGS" : [ "RestServiceVirtualController" ]
    },
    "contentEntryItem" : {
      "required" : [ "answerKey", "answerValue", "defaultInd", "displayOrder", "imQuestionMaster", "insertTimestamp", "insertedBy", "questionAnswerId", "questionMasterId", "updateTimestamp", "updatedBy" ],
      "properties" : {
        "imQuestionMaster" : {
          "$ref" : "#/definitions/imQuestionMaster"
        },
        "answerKey" : {
          "type" : "string"
        },
        "insertedBy" : {
          "type" : "string"
        },
        "updatedBy" : {
          "type" : "string"
        },
        "answerValue" : {
          "type" : "string"
        },
        "displayOrder" : {
          "type" : "integer",
          "format" : "int32"
        },
        "questionAnswerId" : {
          "type" : "integer",
          "format" : "int32"
        },
        "questionMasterId" : {
          "type" : "integer",
          "format" : "int32"
        },
        "insertTimestamp" : {
          "type" : "string"
        },
        "defaultInd" : {
          "type" : "string"
        },
        "updateTimestamp" : {
          "type" : "string"
        }
      },
      "x-WM-FULLY_QUALIFIED_NAME" : "GetQuestionAnswers.contentEntryItem",
      "x-WM-TAGS" : [ "RestServiceVirtualController" ]
    },
    "java.lang.Object" : {
      "x-WM-FULLY_QUALIFIED_NAME" : "GetQuestionAnswers.java.lang.Object",
      "x-WM-TAGS" : [ "RestServiceVirtualController" ]
    },
    "RootResponse" : {
      "required" : [ "content", "first", "last", "number", "numberOfElements", "size", "sort", "totalElements", "totalPages" ],
      "properties" : {
        "number" : {
          "type" : "integer",
          "format" : "int32"
        },
        "last" : {
          "type" : "boolean"
        },
        "numberOfElements" : {
          "type" : "integer",
          "format" : "int32"
        },
        "size" : {
          "type" : "integer",
          "format" : "int32"
        },
        "totalPages" : {
          "type" : "integer",
          "format" : "int32"
        },
        "sort" : {
          "type" : "array",
          "items" : {
            "$ref" : "#/definitions/java.lang.Object"
          },
          "x-WM-IS_LIST" : true
        },
        "content" : {
          "type" : "array",
          "items" : {
            "$ref" : "#/definitions/contentEntryItem"
          },
          "x-WM-IS_LIST" : true
        },
        "first" : {
          "type" : "boolean"
        },
        "totalElements" : {
          "type" : "integer",
          "format" : "int32"
        }
      },
      "x-WM-FULLY_QUALIFIED_NAME" : "GetQuestionAnswers.RootResponse",
      "x-WM-TAGS" : [ "RestServiceVirtualController" ]
    }
  }
}