{
  "basePath" : "${rest.GetCarrierQuestions.basepath}",
  "paths" : {
    "/getUrQuestionAnswerData" : {
      "x-WM-BASE_PATH" : "/getUrQuestionAnswerData",
      "x-WM-TAG" : "RestServiceVirtualController",
      "x-WM-RELATIVE_PATH" : "",
      "get" : {
        "x-WM-METHOD_NAME" : "invoke",
        "x-WM-ACCESS_SPECIFIER" : "APP_ONLY",
        "operationId" : "GetCarrierQuestions_RestServiceVirtualController-invoke",
        "responses" : {
          "200" : {
            "schema" : {
              "x-WM-IS_LIST" : true,
              "type" : "array",
              "items" : {
                "$ref" : "#/definitions/RootResponseROOTEntryItem"
              }
            },
            "description" : "Success"
          }
        },
        "parameters" : [ {
          "x-WM-EDITABLE" : false,
          "in" : "query",
          "name" : "policyId",
          "format" : "string",
          "description" : "policyId",
          "type" : "string",
          "required" : false
        } ],
        "tags" : [ "RestServiceVirtualController" ],
        "consumes" : [ "application/json" ]
      },
      "x-WM-COMPLETE_PATH" : "${rest.GetCarrierQuestions.scheme}://${rest.GetCarrierQuestions.host}${rest.GetCarrierQuestions.basepath}/getUrQuestionAnswerData"
    }
  },
  "host" : "${rest.GetCarrierQuestions.host}",
  "schemes" : [ "${rest.GetCarrierQuestions.scheme}" ],
  "definitions" : {
    "RootResponseROOTEntryItem" : {
      "x-WM-FULLY_QUALIFIED_NAME" : "GetCarrierQuestions.RootResponseROOTEntryItem",
      "x-WM-TAGS" : [ "RestServiceVirtualController" ],
      "required" : [ "answerDataType", "answerText", "carrierId", "carrierName", "defaultValue", "displayOrder", "effDate", "expDate", "mandatoryInd", "nodeName", "product", "questionAnswerId", "questionMasterId", "questionText", "recordLock", "showHideInd", "stateCd" ],
      "properties" : {
        "nodeName" : {
          "type" : "string"
        },
        "answerDataType" : {
          "type" : "string"
        },
        "product" : {
          "type" : "string"
        },
        "answerText" : {
          "type" : "string"
        },
        "mandatoryInd" : {
          "type" : "string"
        },
        "defaultValue" : {
          "type" : "string"
        },
        "showHideInd" : {
          "type" : "string"
        },
        "displayOrder" : {
          "type" : "string"
        },
        "expDate" : {
          "format" : "int64",
          "type" : "integer"
        },
        "questionText" : {
          "type" : "string"
        },
        "effDate" : {
          "format" : "int64",
          "type" : "integer"
        },
        "carrierName" : {
          "type" : "string"
        },
        "recordLock" : {
          "type" : "string"
        },
        "stateCd" : {
          "type" : "string"
        },
        "questionAnswerId" : {
          "type" : "string"
        },
        "questionMasterId" : {
          "format" : "int32",
          "type" : "integer"
        },
        "carrierId" : {
          "format" : "int32",
          "type" : "integer"
        }
      }
    },
    "RootResponse" : {
      "x-WM-FULLY_QUALIFIED_NAME" : "GetCarrierQuestions.RootResponse",
      "x-WM-TAGS" : [ "RestServiceVirtualController" ],
      "required" : [ "RootResponseROOT" ],
      "properties" : {
        "RootResponseROOT" : {
          "x-WM-IS_LIST" : true,
          "type" : "array",
          "items" : {
            "$ref" : "#/definitions/RootResponseROOTEntryItem"
          }
        }
      }
    }
  },
  "swagger" : "2.0",
  "info" : {
    "x-WM-USE_PROXY_FOR_WEB" : true,
    "x-WM-USE_PROXY_FOR_MOBILE" : true,
    "x-WM-API_ID" : "da1c870d-3d47-4531-9b9e-e4634df79697",
    "x-WM-SERVICE_ID" : "restService",
    "version" : "2.0",
    "x-WM-SERVICE_TYPE" : "RestService"
  },
  "tags" : [ {
    "name" : "RestServiceVirtualController",
    "description" : "Rest service swagger documentation"
  } ]
}
