{
  "endpointAddress" : "http://pkhgqfmqv632.cloud.wavemakeronline.com/UniRateServices/services/UNIVERSAL_RATE/ImQuestionMaster",
  "method" : "GET",
  "headers" : { },
  "redirectEnabled" : true,
  "requestBody" : "",
  "queryParams" : {
    "q" : "state_cd='CT'",
    "size" : "20",
    "page" : "1"
  },
  "authDetails" : null,
  "contentType" : "application/json",
  "multiParamInfoList" : null,
  "sampleHttpResponseDetails" : {
    "statusCode" : 0,
    "headers" : { },
    "responseBody" : "{\"content\":[{\"questionMasterId\":8934,\"carrierListId\":10,\"stateCd\":\"CT\",\"effDate\":\"2019-01-01T00:00:00\",\"expDate\":\"2099-12-31T00:00:00\",\"questionText\":\"username\",\"answerDataType\":\"TEXT\",\"answerText\":\"rtrqa\",\"displayOrder\":1,\"product\":\"AUTO\",\"nodeName\":\"username\",\"insertTimestamp\":\"2019-02-26T15:18:02.59\",\"updateTimestamp\":null,\"updatedBy\":null,\"insertedBy\":null,\"showHideInd\":\"N\",\"recordLock\":\"NO\",\"mandatoryInd\":\"NO\",\"imCarrierList\":{\"carrierListId\":10,\"company\":\"EZLYNX\",\"carrierId\":52,\"carrierName\":\"Foremost Insurance Group (PROD)\",\"insertTimestamp\":\"2017-01-09T18:51:17.823\",\"updateTimestamp\":null,\"updatedBy\":null,\"insertedBy\":null,\"versionNum\":null,\"url\":\"https://www.iaproducers.com/Producers/FMLogIn.aspx\"}},{\"questionMasterId\":8956,\"carrierListId\":10,\"stateCd\":\"CT\",\"effDate\":\"2019-01-01T00:00:00\",\"expDate\":\"2099-12-31T00:00:00\",\"questionText\":\"password\",\"answerDataType\":\"TEXT\",\"answerText\":\"rtr2010qa\",\"displayOrder\":1,\"product\":\"AUTO\",\"nodeName\":\"password\",\"insertTimestamp\":\"2019-02-26T15:18:09.78\",\"updateTimestamp\":null,\"updatedBy\":null,\"insertedBy\":null,\"showHideInd\":\"N\",\"recordLock\":\"NO\",\"mandatoryInd\":\"NO\",\"imCarrierList\":{\"carrierListId\":10,\"company\":\"EZLYNX\",\"carrierId\":52,\"carrierName\":\"Foremost Insurance Group (PROD)\",\"insertTimestamp\":\"2017-01-09T18:51:17.823\",\"updateTimestamp\":null,\"updatedBy\":null,\"insertedBy\":null,\"versionNum\":null,\"url\":\"https://www.iaproducers.com/Producers/FMLogIn.aspx\"}},{\"questionMasterId\":8981,\"carrierListId\":10,\"stateCd\":\"CT\",\"effDate\":\"2019-01-01T00:00:00\",\"expDate\":\"2099-12-31T00:00:00\",\"questionText\":\"Applicant Effective Date\",\"answerDataType\":\"TEXT\",\"answerText\":\"NA\",\"displayOrder\":1,\"product\":\"AUTO\",\"nodeName\":\"applicant_effectivedate\",\"insertTimestamp\":\"2019-02-26T15:18:16.93\",\"updateTimestamp\":null,\"updatedBy\":null,\"insertedBy\":null,\"showHideInd\":\"N\",\"recordLock\":\"NO\",\"mandatoryInd\":\"NO\",\"imCarrierList\":{\"carrierListId\":10,\"company\":\"EZLYNX\",\"carrierId\":52,\"carrierName\":\"Foremost Insurance Group (PROD)\",\"insertTimestamp\":\"2017-01-09T18:51:17.823\",\"updateTimestamp\":null,\"updatedBy\":null,\"insertedBy\":null,\"versionNum\":null,\"url\":\"https://www.iaproducers.com/Producers/FMLogIn.aspx\"}},{\"questionMasterId\":9085,\"carrierListId\":10,\"stateCd\":\"CT\",\"effDate\":\"2019-01-01T00:00:00\",\"expDate\":\"2099-12-31T00:00:00\",\"questionText\":\"Will insured provide a valid email address?\",\"answerDataType\":\"DROPDOWN\",\"answerText\":\"\",\"displayOrder\":1,\"product\":\"AUTO\",\"nodeName\":\"emailadd\",\"insertTimestamp\":\"2019-02-26T15:18:50.287\",\"updateTimestamp\":null,\"updatedBy\":null,\"insertedBy\":null,\"showHideInd\":\"Y\",\"recordLock\":\"NO\",\"mandatoryInd\":\"NO\",\"imCarrierList\":{\"carrierListId\":10,\"company\":\"EZLYNX\",\"carrierId\":52,\"carrierName\":\"Foremost Insurance Group (PROD)\",\"insertTimestamp\":\"2017-01-09T18:51:17.823\",\"updateTimestamp\":null,\"updatedBy\":null,\"insertedBy\":null,\"versionNum\":null,\"url\":\"https://www.iaproducers.com/Producers/FMLogIn.aspx\"}},{\"questionMasterId\":9095,\"carrierListId\":10,\"stateCd\":\"CT\",\"effDate\":\"2019-01-01T00:00:00\",\"expDate\":\"2099-12-31T00:00:00\",\"questionText\":\"Does the applicant have a Farmers Home Policy\",\"answerDataType\":\"DROPDOWN\",\"answerText\":\"\",\"displayOrder\":1,\"product\":\"AUTO\",\"nodeName\":\"farmers\",\"insertTimestamp\":\"2019-02-26T15:18:53.767\",\"updateTimestamp\":null,\"updatedBy\":null,\"insertedBy\":null,\"showHideInd\":\"Y\",\"recordLock\":\"NO\",\"mandatoryInd\":\"NO\",\"imCarrierList\":{\"carrierListId\":10,\"company\":\"EZLYNX\",\"carrierId\":52,\"carrierName\":\"Foremost Insurance Group (PROD)\",\"insertTimestamp\":\"2017-01-09T18:51:17.823\",\"updateTimestamp\":null,\"updatedBy\":null,\"insertedBy\":null,\"versionNum\":null,\"url\":\"https://www.iaproducers.com/Producers/FMLogIn.aspx\"}},{\"questionMasterId\":9097,\"carrierListId\":10,\"stateCd\":\"CT\",\"effDate\":\"2019-01-01T00:00:00\",\"expDate\":\"2099-12-31T00:00:00\",\"questionText\":\"Does the insured have a Foremost Mobile Home\\\\Specialty Dwelling Policy?\",\"answerDataType\":\"DROPDOWN\",\"answerText\":\"\",\"displayOrder\":1,\"product\":\"AUTO\",\"nodeName\":\"formstmobile\",\"insertTimestamp\":\"2019-02-26T15:18:54.427\",\"updateTimestamp\":null,\"updatedBy\":null,\"insertedBy\":null,\"showHideInd\":\"Y\",\"recordLock\":\"NO\",\"mandatoryInd\":\"NO\",\"imCarrierList\":{\"carrierListId\":10,\"company\":\"EZLYNX\",\"carrierId\":52,\"carrierName\":\"Foremost Insurance Group (PROD)\",\"insertTimestamp\":\"2017-01-09T18:51:17.823\",\"updateTimestamp\":null,\"updatedBy\":null,\"insertedBy\":null,\"versionNum\":null,\"url\":\"https://www.iaproducers.com/Producers/FMLogIn.aspx\"}},{\"questionMasterId\":9099,\"carrierListId\":10,\"stateCd\":\"CT\",\"effDate\":\"2019-01-01T00:00:00\",\"expDate\":\"2099-12-31T00:00:00\",\"questionText\":\"Does the insured have an additional Foremost Specialty Policy?\",\"answerDataType\":\"DROPDOWN\",\"answerText\":\"\",\"displayOrder\":1,\"product\":\"AUTO\",\"nodeName\":\"formstspecialty\",\"insertTimestamp\":\"2019-02-26T15:18:55.433\",\"updateTimestamp\":null,\"updatedBy\":null,\"insertedBy\":null,\"showHideInd\":\"Y\",\"recordLock\":\"NO\",\"mandatoryInd\":\"NO\",\"imCarrierList\":{\"carrierListId\":10,\"company\":\"EZLYNX\",\"carrierId\":52,\"carrierName\":\"Foremost Insurance Group (PROD)\",\"insertTimestamp\":\"2017-01-09T18:51:17.823\",\"updateTimestamp\":null,\"updatedBy\":null,\"insertedBy\":null,\"versionNum\":null,\"url\":\"https://www.iaproducers.com/Producers/FMLogIn.aspx\"}},{\"questionMasterId\":9108,\"carrierListId\":10,\"stateCd\":\"CT\",\"effDate\":\"2019-01-01T00:00:00\",\"expDate\":\"2099-12-31T00:00:00\",\"questionText\":\"Server Environment\",\"answerDataType\":\"DROPDOWN\",\"answerText\":\"\",\"displayOrder\":1,\"product\":\"AUTO\",\"nodeName\":\"servertype\",\"insertTimestamp\":\"2019-02-26T15:19:02.287\",\"updateTimestamp\":null,\"updatedBy\":null,\"insertedBy\":null,\"showHideInd\":\"N\",\"recordLock\":\"YES\",\"mandatoryInd\":\"YES\",\"imCarrierList\":{\"carrierListId\":10,\"company\":\"EZLYNX\",\"carrierId\":52,\"carrierName\":\"Foremost Insurance Group (PROD)\",\"insertTimestamp\":\"2017-01-09T18:51:17.823\",\"updateTimestamp\":null,\"updatedBy\":null,\"insertedBy\":null,\"versionNum\":null,\"url\":\"https://www.iaproducers.com/Producers/FMLogIn.aspx\"}},{\"questionMasterId\":9382,\"carrierListId\":4,\"stateCd\":\"CT\",\"effDate\":\"2019-01-01T00:00:00\",\"expDate\":\"2099-12-31T00:00:00\",\"questionText\":\"username\",\"answerDataType\":\"TEXT\",\"answerText\":\"1HH8101\",\"displayOrder\":1,\"product\":\"AUTO\",\"nodeName\":\"username\",\"insertTimestamp\":\"2019-02-26T15:20:32.03\",\"updateTimestamp\":null,\"updatedBy\":null,\"insertedBy\":null,\"showHideInd\":\"N\",\"recordLock\":\"NO\",\"mandatoryInd\":\"NO\",\"imCarrierList\":{\"carrierListId\":4,\"company\":\"EZLYNX\",\"carrierId\":7,\"carrierName\":\"MetLife Auto & Home\",\"insertTimestamp\":\"2016-10-18T20:14:27.903\",\"updateTimestamp\":null,\"updatedBy\":null,\"insertedBy\":null,\"versionNum\":null,\"url\":\"https://ars.metlife.com/public/default.jsp?\"}},{\"questionMasterId\":9427,\"carrierListId\":4,\"stateCd\":\"CT\",\"effDate\":\"2019-01-01T00:00:00\",\"expDate\":\"2099-12-31T00:00:00\",\"questionText\":\"password\",\"answerDataType\":\"TEXT\",\"answerText\":\"metlife1\",\"displayOrder\":1,\"product\":\"AUTO\",\"nodeName\":\"password\",\"insertTimestamp\":\"2019-02-26T15:20:42.47\",\"updateTimestamp\":null,\"updatedBy\":null,\"insertedBy\":null,\"showHideInd\":\"N\",\"recordLock\":\"NO\",\"mandatoryInd\":\"NO\",\"imCarrierList\":{\"carrierListId\":4,\"company\":\"EZLYNX\",\"carrierId\":7,\"carrierName\":\"MetLife Auto & Home\",\"insertTimestamp\":\"2016-10-18T20:14:27.903\",\"updateTimestamp\":null,\"updatedBy\":null,\"insertedBy\":null,\"versionNum\":null,\"url\":\"https://ars.metlife.com/public/default.jsp?\"}},{\"questionMasterId\":9472,\"carrierListId\":4,\"stateCd\":\"CT\",\"effDate\":\"2019-01-01T00:00:00\",\"expDate\":\"2099-12-31T00:00:00\",\"questionText\":\"Effective Date entered cannot be more than 90 days in future from today. Enter the Effective Date[MM/DD/YYYY]\",\"answerDataType\":\"TEXT\",\"answerText\":\"10/25/2016\",\"displayOrder\":1,\"product\":\"AUTO\",\"nodeName\":\"applicant_effectivedate\",\"insertTimestamp\":\"2019-02-26T15:20:53.06\",\"updateTimestamp\":null,\"updatedBy\":null,\"insertedBy\":null,\"showHideInd\":\"N\",\"recordLock\":\"NO\",\"mandatoryInd\":\"NO\",\"imCarrierList\":{\"carrierListId\":4,\"company\":\"EZLYNX\",\"carrierId\":7,\"carrierName\":\"MetLife Auto & Home\",\"insertTimestamp\":\"2016-10-18T20:14:27.903\",\"updateTimestamp\":null,\"updatedBy\":null,\"insertedBy\":null,\"versionNum\":null,\"url\":\"https://ars.metlife.com/public/default.jsp?\"}},{\"questionMasterId\":9517,\"carrierListId\":4,\"stateCd\":\"CT\",\"effDate\":\"2019-01-01T00:00:00\",\"expDate\":\"2099-12-31T00:00:00\",\"questionText\":\"If you want to work as another agent enter a valid ID\",\"answerDataType\":\"TEXT\",\"answerText\":\"\",\"displayOrder\":1,\"product\":\"AUTO\",\"nodeName\":\"agentidxml\",\"insertTimestamp\":\"2019-02-26T15:21:05.76\",\"updateTimestamp\":null,\"updatedBy\":null,\"insertedBy\":null,\"showHideInd\":\"Y\",\"recordLock\":\"NO\",\"mandatoryInd\":\"NO\",\"imCarrierList\":{\"carrierListId\":4,\"company\":\"EZLYNX\",\"carrierId\":7,\"carrierName\":\"MetLife Auto & Home\",\"insertTimestamp\":\"2016-10-18T20:14:27.903\",\"updateTimestamp\":null,\"updatedBy\":null,\"insertedBy\":null,\"versionNum\":null,\"url\":\"https://ars.metlife.com/public/default.jsp?\"}},{\"questionMasterId\":9562,\"carrierListId\":4,\"stateCd\":\"CT\",\"effDate\":\"2019-01-01T00:00:00\",\"expDate\":\"2099-12-31T00:00:00\",\"questionText\":\"Qualifying Life Product with MetLife?\",\"answerDataType\":\"DROPDOWN\",\"answerText\":\"\",\"displayOrder\":1,\"product\":\"AUTO\",\"nodeName\":\"lifemetautoxml\",\"insertTimestamp\":\"2019-02-26T15:21:21.41\",\"updateTimestamp\":null,\"updatedBy\":null,\"insertedBy\":null,\"showHideInd\":\"Y\",\"recordLock\":\"NO\",\"mandatoryInd\":\"NO\",\"imCarrierList\":{\"carrierListId\":4,\"company\":\"EZLYNX\",\"carrierId\":7,\"carrierName\":\"MetLife Auto & Home\",\"insertTimestamp\":\"2016-10-18T20:14:27.903\",\"updateTimestamp\":null,\"updatedBy\":null,\"insertedBy\":null,\"versionNum\":null,\"url\":\"https://ars.metlife.com/public/default.jsp?\"}},{\"questionMasterId\":9651,\"carrierListId\":4,\"stateCd\":\"CT\",\"effDate\":\"2019-01-01T00:00:00\",\"expDate\":\"2099-12-31T00:00:00\",\"questionText\":\"Product to be quoted\",\"answerDataType\":\"DROPDOWN\",\"answerText\":\"\",\"displayOrder\":1,\"product\":\"AUTO\",\"nodeName\":\"productxml\",\"insertTimestamp\":\"2019-02-26T15:21:58.19\",\"updateTimestamp\":null,\"updatedBy\":null,\"insertedBy\":null,\"showHideInd\":\"Y\",\"recordLock\":\"NO\",\"mandatoryInd\":\"NO\",\"imCarrierList\":{\"carrierListId\":4,\"company\":\"EZLYNX\",\"carrierId\":7,\"carrierName\":\"MetLife Auto & Home\",\"insertTimestamp\":\"2016-10-18T20:14:27.903\",\"updateTimestamp\":null,\"updatedBy\":null,\"insertedBy\":null,\"versionNum\":null,\"url\":\"https://ars.metlife.com/public/default.jsp?\"}},{\"questionMasterId\":9655,\"carrierListId\":4,\"stateCd\":\"CT\",\"effDate\":\"2019-01-01T00:00:00\",\"expDate\":\"2099-12-31T00:00:00\",\"questionText\":\"Is the driver interested in enrolling in the My Journey program?\",\"answerDataType\":\"DROPDOWN\",\"answerText\":\"\",\"displayOrder\":1,\"product\":\"AUTO\",\"nodeName\":\"journey{driver_index}\",\"insertTimestamp\":\"2019-02-26T15:21:59.6\",\"updateTimestamp\":null,\"updatedBy\":null,\"insertedBy\":null,\"showHideInd\":\"Y\",\"recordLock\":\"NO\",\"mandatoryInd\":\"NO\",\"imCarrierList\":{\"carrierListId\":4,\"company\":\"EZLYNX\",\"carrierId\":7,\"carrierName\":\"MetLife Auto & Home\",\"insertTimestamp\":\"2016-10-18T20:14:27.903\",\"updateTimestamp\":null,\"updatedBy\":null,\"insertedBy\":null,\"versionNum\":null,\"url\":\"https://ars.metlife.com/public/default.jsp?\"}},{\"questionMasterId\":10024,\"carrierListId\":11,\"stateCd\":\"CT\",\"effDate\":\"2019-01-01T00:00:00\",\"expDate\":\"2099-12-31T00:00:00\",\"questionText\":\"username\",\"answerDataType\":\"TEXT\",\"answerText\":\"EZLCTAgent\",\"displayOrder\":1,\"product\":\"AUTO\",\"nodeName\":\"username\",\"insertTimestamp\":\"2019-02-26T15:24:37.863\",\"updateTimestamp\":null,\"updatedBy\":null,\"insertedBy\":null,\"showHideInd\":\"N\",\"recordLock\":\"NO\",\"mandatoryInd\":\"NO\",\"imCarrierList\":{\"carrierListId\":11,\"company\":\"EZLYNX\",\"carrierId\":131,\"carrierName\":\"Plymouth Rock Assurance\",\"insertTimestamp\":\"2017-01-23T18:51:17.823\",\"updateTimestamp\":null,\"updatedBy\":null,\"insertedBy\":null,\"versionNum\":null,\"url\":\"https://agentweb1.plymouthrock.com/aiui/login\"}},{\"questionMasterId\":10027,\"carrierListId\":11,\"stateCd\":\"CT\",\"effDate\":\"2019-01-01T00:00:00\",\"expDate\":\"2099-12-31T00:00:00\",\"questionText\":\"password\",\"answerDataType\":\"TEXT\",\"answerText\":\"Ezlplyct1!\",\"displayOrder\":1,\"product\":\"AUTO\",\"nodeName\":\"password\",\"insertTimestamp\":\"2019-02-26T15:24:38.72\",\"updateTimestamp\":null,\"updatedBy\":null,\"insertedBy\":null,\"showHideInd\":\"N\",\"recordLock\":\"NO\",\"mandatoryInd\":\"NO\",\"imCarrierList\":{\"carrierListId\":11,\"company\":\"EZLYNX\",\"carrierId\":131,\"carrierName\":\"Plymouth Rock Assurance\",\"insertTimestamp\":\"2017-01-23T18:51:17.823\",\"updateTimestamp\":null,\"updatedBy\":null,\"insertedBy\":null,\"versionNum\":null,\"url\":\"https://agentweb1.plymouthrock.com/aiui/login\"}},{\"questionMasterId\":10031,\"carrierListId\":11,\"stateCd\":\"CT\",\"effDate\":\"2019-01-01T00:00:00\",\"expDate\":\"2099-12-31T00:00:00\",\"questionText\":\"Is the prior policy a New Jersey policy?\",\"answerDataType\":\"DROPDOWN\",\"answerText\":\"\",\"displayOrder\":1,\"product\":\"AUTO\",\"nodeName\":\"priornj\",\"insertTimestamp\":\"2019-02-26T15:24:40.16\",\"updateTimestamp\":null,\"updatedBy\":null,\"insertedBy\":null,\"showHideInd\":\"Y\",\"recordLock\":\"NO\",\"mandatoryInd\":\"NO\",\"imCarrierList\":{\"carrierListId\":11,\"company\":\"EZLYNX\",\"carrierId\":131,\"carrierName\":\"Plymouth Rock Assurance\",\"insertTimestamp\":\"2017-01-23T18:51:17.823\",\"updateTimestamp\":null,\"updatedBy\":null,\"insertedBy\":null,\"versionNum\":null,\"url\":\"https://agentweb1.plymouthrock.com/aiui/login\"}},{\"questionMasterId\":10034,\"carrierListId\":11,\"stateCd\":\"CT\",\"effDate\":\"2019-01-01T00:00:00\",\"expDate\":\"2099-12-31T00:00:00\",\"questionText\":\"Is this an existing Personal Auto client in the agency?\",\"answerDataType\":\"DROPDOWN\",\"answerText\":\"\",\"displayOrder\":1,\"product\":\"AUTO\",\"nodeName\":\"existingclient\",\"insertTimestamp\":\"2019-02-26T15:24:41.39\",\"updateTimestamp\":null,\"updatedBy\":null,\"insertedBy\":null,\"showHideInd\":\"Y\",\"recordLock\":\"NO\",\"mandatoryInd\":\"NO\",\"imCarrierList\":{\"carrierListId\":11,\"company\":\"EZLYNX\",\"carrierId\":131,\"carrierName\":\"Plymouth Rock Assurance\",\"insertTimestamp\":\"2017-01-23T18:51:17.823\",\"updateTimestamp\":null,\"updatedBy\":null,\"insertedBy\":null,\"versionNum\":null,\"url\":\"https://agentweb1.plymouthrock.com/aiui/login\"}},{\"questionMasterId\":10038,\"carrierListId\":11,\"stateCd\":\"CT\",\"effDate\":\"2019-01-01T00:00:00\",\"expDate\":\"2099-12-31T00:00:00\",\"questionText\":\"Enter producer code\",\"answerDataType\":\"TEXT\",\"answerText\":\"5001002\",\"displayOrder\":1,\"product\":\"AUTO\",\"nodeName\":\"producercode\",\"insertTimestamp\":\"2019-02-26T15:24:43.083\",\"updateTimestamp\":null,\"updatedBy\":null,\"insertedBy\":null,\"showHideInd\":\"N\",\"recordLock\":\"NO\",\"mandatoryInd\":\"NO\",\"imCarrierList\":{\"carrierListId\":11,\"company\":\"EZLYNX\",\"carrierId\":131,\"carrierName\":\"Plymouth Rock Assurance\",\"insertTimestamp\":\"2017-01-23T18:51:17.823\",\"updateTimestamp\":null,\"updatedBy\":null,\"insertedBy\":null,\"versionNum\":null,\"url\":\"https://agentweb1.plymouthrock.com/aiui/login\"}}],\"last\":false,\"totalElements\":128,\"totalPages\":7,\"sort\":[],\"first\":true,\"numberOfElements\":20,\"size\":20,\"number\":0}",
    "convertedResponse" : null
  },
  "proxy" : null
}
