{
  "basePath" : "${rest.CreateImPriorPolicyInfo.basepath}",
  "paths" : {
    "/services/UNIVERSAL_RATE/ImPriorPolicyInfo" : {
      "post" : {
        "x-WM-METHOD_NAME" : "invoke",
        "x-WM-ACCESS_SPECIFIER" : "APP_ONLY",
        "operationId" : "CreateImPriorPolicyInfo_RestServiceVirtualController-invoke",
        "responses" : {
          "200" : {
            "schema" : {
              "$ref" : "#/definitions/RootResponse"
            },
            "description" : "Success"
          }
        },
        "parameters" : [ {
          "schema" : {
            "$ref" : "#/definitions/RootRequest"
          },
          "in" : "body",
          "name" : "RequestBody",
          "description" : "RequestBody",
          "x-WM-FULLY_QUALIFIED_TYPE" : "java.lang.Object",
          "required" : false
        } ],
        "tags" : [ "RestServiceVirtualController" ],
        "consumes" : [ "application/json" ]
      },
      "x-WM-BASE_PATH" : "/services/UNIVERSAL_RATE/ImPriorPolicyInfo",
      "x-WM-TAG" : "RestServiceVirtualController",
      "x-WM-RELATIVE_PATH" : "",
      "x-WM-COMPLETE_PATH" : "${rest.CreateImPriorPolicyInfo.scheme}://${rest.CreateImPriorPolicyInfo.host}${rest.CreateImPriorPolicyInfo.basepath}/services/UNIVERSAL_RATE/ImPriorPolicyInfo"
    }
  },
  "host" : "${rest.CreateImPriorPolicyInfo.host}",
  "schemes" : [ "${rest.CreateImPriorPolicyInfo.scheme}" ],
  "definitions" : {
    "imPolicyInfo" : {
      "x-WM-FULLY_QUALIFIED_NAME" : "CreateImPriorPolicyInfo.imPolicyInfo",
      "x-WM-TAGS" : [ "RestServiceVirtualController" ],
      "required" : [ "company", "creditCheckAuth", "effective", "insertTimestamp", "insertedBy", "insuramatchId", "package_", "polNum", "polSeqNum", "policyId", "policyTerm", "riskState", "updateTimestamp", "updatedBy", "versionNum" ],
      "properties" : {
        "creditCheckAuth" : {
          "type" : "string"
        },
        "updatedBy" : {
          "type" : "string"
        },
        "insuramatchId" : {
          "type" : "string"
        },
        "policyTerm" : {
          "type" : "string"
        },
        "versionNum" : {
          "type" : "string"
        },
        "insertTimestamp" : {
          "type" : "string"
        },
        "polSeqNum" : {
          "type" : "string"
        },
        "updateTimestamp" : {
          "type" : "string"
        },
        "effective" : {
          "type" : "string"
        },
        "insertedBy" : {
          "type" : "string"
        },
        "policyId" : {
          "format" : "int32",
          "type" : "integer"
        },
        "polNum" : {
          "type" : "string"
        },
        "package_" : {
          "type" : "string"
        },
        "company" : {
          "type" : "string"
        },
        "riskState" : {
          "type" : "string"
        }
      }
    },
    "RootRequest" : {
      "x-WM-FULLY_QUALIFIED_NAME" : "CreateImPriorPolicyInfo.RootRequest",
      "x-WM-TAGS" : [ "RestServiceVirtualController" ],
      "required" : [ "expiration", "insertTimestamp", "insertedBy", "monthsWithContinuousCoverage", "monthsWithPriorCarrier", "policyId", "priorCarrierType", "priorLiabilityLimit", "priorPolicyInfoId", "priorPolicyPremium", "priorPolicyTerm", "reasonForLapse", "reasonNoPrior", "updateTimestamp", "updatedBy", "versionNum", "yearsWithContinuousCoverage", "yearsWithPriorCarrier" ],
      "properties" : {
        "priorLiabilityLimit" : {
          "type" : "string"
        },
        "yearsWithContinuousCoverage" : {
          "type" : "string"
        },
        "priorPolicyTerm" : {
          "type" : "string"
        },
        "updatedBy" : {
          "type" : "string"
        },
        "reasonForLapse" : {
          "type" : "string"
        },
        "priorCarrierType" : {
          "type" : "string"
        },
        "versionNum" : {
          "type" : "string"
        },
        "monthsWithPriorCarrier" : {
          "type" : "string"
        },
        "insertTimestamp" : {
          "type" : "string"
        },
        "reasonNoPrior" : {
          "type" : "string"
        },
        "updateTimestamp" : {
          "type" : "string"
        },
        "insertedBy" : {
          "type" : "string"
        },
        "priorPolicyPremium" : {
          "type" : "string"
        },
        "policyId" : {
          "format" : "int32",
          "type" : "integer"
        },
        "expiration" : {
          "type" : "string"
        },
        "priorPolicyInfoId" : {
          "format" : "int32",
          "type" : "integer"
        },
        "yearsWithPriorCarrier" : {
          "type" : "string"
        },
        "monthsWithContinuousCoverage" : {
          "type" : "string"
        }
      }
    },
    "RootResponse" : {
      "x-WM-FULLY_QUALIFIED_NAME" : "CreateImPriorPolicyInfo.RootResponse",
      "x-WM-TAGS" : [ "RestServiceVirtualController" ],
      "required" : [ "expiration", "imPolicyInfo", "insertTimestamp", "insertedBy", "monthsWithContinuousCoverage", "monthsWithPriorCarrier", "policyId", "priorCarrierType", "priorLiabilityLimit", "priorPolicyInfoId", "priorPolicyPremium", "priorPolicyTerm", "reasonForLapse", "reasonNoPrior", "updateTimestamp", "updatedBy", "versionNum", "yearsWithContinuousCoverage", "yearsWithPriorCarrier" ],
      "properties" : {
        "imPolicyInfo" : {
          "$ref" : "#/definitions/imPolicyInfo"
        },
        "priorLiabilityLimit" : {
          "type" : "string"
        },
        "yearsWithContinuousCoverage" : {
          "type" : "string"
        },
        "priorPolicyTerm" : {
          "type" : "string"
        },
        "updatedBy" : {
          "type" : "string"
        },
        "reasonForLapse" : {
          "type" : "string"
        },
        "priorCarrierType" : {
          "type" : "string"
        },
        "versionNum" : {
          "type" : "string"
        },
        "monthsWithPriorCarrier" : {
          "type" : "string"
        },
        "insertTimestamp" : {
          "type" : "string"
        },
        "reasonNoPrior" : {
          "type" : "string"
        },
        "updateTimestamp" : {
          "type" : "string"
        },
        "insertedBy" : {
          "type" : "string"
        },
        "priorPolicyPremium" : {
          "type" : "string"
        },
        "policyId" : {
          "format" : "int32",
          "type" : "integer"
        },
        "expiration" : {
          "type" : "string"
        },
        "priorPolicyInfoId" : {
          "format" : "int32",
          "type" : "integer"
        },
        "yearsWithPriorCarrier" : {
          "type" : "string"
        },
        "monthsWithContinuousCoverage" : {
          "type" : "string"
        }
      }
    }
  },
  "swagger" : "2.0",
  "info" : {
    "x-WM-USE_PROXY_FOR_WEB" : true,
    "x-WM-USE_PROXY_FOR_MOBILE" : true,
    "x-WM-API_ID" : "9e47ceba-adc8-4742-8e77-466ff94bb31e",
    "x-WM-SERVICE_ID" : "cloud",
    "version" : "2.0",
    "x-WM-SERVICE_TYPE" : "RestService"
  },
  "tags" : [ {
    "name" : "RestServiceVirtualController",
    "description" : "Rest service swagger documentation"
  } ]
}