{
  "swagger" : "2.0",
  "info" : {
    "version" : "2.0",
    "x-WM-USE_PROXY_FOR_WEB" : true,
    "x-WM-USE_PROXY_FOR_MOBILE" : true,
    "x-WM-API_ID" : "016170e6-1802-4123-8ad3-2bbca4dcee55",
    "x-WM-SERVICE_ID" : "cloud2",
    "x-WM-SERVICE_TYPE" : "RestService"
  },
  "host" : "pkhgqfmqv632.cloud.wavemakeronline.com",
  "basePath" : "",
  "tags" : [ {
    "name" : "RestServiceVirtualController",
    "description" : "Rest service swagger documentation"
  } ],
  "schemes" : [ "http" ],
  "paths" : {
    "/getVehicleAssignmntByPolicyId/invoke/services/UNIVERSAL_RATE/ImVehicleAssignment" : {
      "get" : {
        "tags" : [ "RestServiceVirtualController" ],
        "operationId" : "getVehicleAssignmntByPolicyId_RestServiceVirtualController-invoke",
        "consumes" : [ "application/json" ],
        "produces" : [ "application/json" ],
        "parameters" : [ {
          "name" : "q",
          "in" : "query",
          "description" : "q",
          "required" : false,
          "type" : "string",
          "format" : "string",
          "x-WM-EDITABLE" : false
        } ],
        "responses" : {
          "200" : {
            "description" : "Success",
            "schema" : {
              "$ref" : "#/definitions/RootResponse"
            }
          }
        },
        "x-WM-METHOD_NAME" : "invoke",
        "x-WM-ACCESS_SPECIFIER" : "APP_ONLY"
      },
      "x-WM-BASE_PATH" : "/getVehicleAssignmntByPolicyId/invoke/services/UNIVERSAL_RATE/ImVehicleAssignment",
      "x-WM-TAG" : "RestServiceVirtualController",
      "x-WM-RELATIVE_PATH" : "",
      "x-WM-COMPLETE_PATH" : "${rest.getVehicleAssignmntByPolicyId.scheme}://${rest.getVehicleAssignmntByPolicyId.host}${rest.getVehicleAssignmntByPolicyId.basepath}/services/UNIVERSAL_RATE/ImVehicleAssignment"
    }
  },
  "definitions" : {
    "imPolicyInfo" : {
      "required" : [ "company", "creditCheckAuth", "effective", "insertTimestamp", "insertedBy", "insuramatchId", "package_", "polNum", "polSeqNum", "policyId", "policyTerm", "riskState", "submittedStatus", "submittedTime", "updateTimestamp", "updatedBy", "versionNum" ],
      "properties" : {
        "creditCheckAuth" : {
          "type" : "string"
        },
        "updatedBy" : {
          "type" : "string"
        },
        "insuramatchId" : {
          "type" : "string"
        },
        "submittedStatus" : {
          "type" : "string"
        },
        "policyTerm" : {
          "type" : "string"
        },
        "submittedTime" : {
          "type" : "string"
        },
        "versionNum" : {
          "type" : "string"
        },
        "insertTimestamp" : {
          "type" : "string"
        },
        "polSeqNum" : {
          "type" : "string"
        },
        "updateTimestamp" : {
          "type" : "string"
        },
        "effective" : {
          "type" : "string"
        },
        "insertedBy" : {
          "type" : "string"
        },
        "policyId" : {
          "type" : "integer",
          "format" : "int32"
        },
        "polNum" : {
          "type" : "string"
        },
        "package_" : {
          "type" : "string"
        },
        "company" : {
          "type" : "string"
        },
        "riskState" : {
          "type" : "string"
        }
      },
      "x-WM-FULLY_QUALIFIED_NAME" : "getVehicleAssignmntByPolicyId.imPolicyInfo",
      "x-WM-TAGS" : [ "RestServiceVirtualController" ]
    },
    "imVehicle" : {
      "required" : [ "alternateGarageAddressId", "antiLockBrake", "antiTheft", "daytimeRunningLight", "garageAddressId", "imPolicyInfo", "insertTimestamp", "insertedBy", "make", "model", "passiveRestraint", "policyId", "subModel", "updateTimestamp", "updatedBy", "useVehLookup", "useVinLookup", "vehicleId", "vehicleInspection", "versionNum", "vin", "year" ],
      "properties" : {
        "garageAddressId" : {
          "type" : "string"
        },
        "imPolicyInfo" : {
          "$ref" : "#/definitions/imPolicyInfo"
        },
        "antiTheft" : {
          "type" : "string"
        },
        "passiveRestraint" : {
          "type" : "string"
        },
        "useVinLookup" : {
          "type" : "string"
        },
        "updatedBy" : {
          "type" : "string"
        },
        "year" : {
          "type" : "string"
        },
        "subModel" : {
          "type" : "string"
        },
        "daytimeRunningLight" : {
          "type" : "string"
        },
        "versionNum" : {
          "type" : "string"
        },
        "vehicleInspection" : {
          "type" : "string"
        },
        "insertTimestamp" : {
          "type" : "string"
        },
        "alternateGarageAddressId" : {
          "type" : "string"
        },
        "updateTimestamp" : {
          "type" : "string"
        },
        "useVehLookup" : {
          "type" : "string"
        },
        "insertedBy" : {
          "type" : "string"
        },
        "policyId" : {
          "type" : "integer",
          "format" : "int32"
        },
        "vin" : {
          "type" : "string"
        },
        "model" : {
          "type" : "string"
        },
        "vehicleId" : {
          "type" : "integer",
          "format" : "int32"
        },
        "antiLockBrake" : {
          "type" : "string"
        },
        "make" : {
          "type" : "string"
        }
      },
      "x-WM-FULLY_QUALIFIED_NAME" : "getVehicleAssignmntByPolicyId.imVehicle",
      "x-WM-TAGS" : [ "RestServiceVirtualController" ]
    },
    "contentEntryItem" : {
      "required" : [ "driverId", "imDriver", "imPolicyInfo", "imVehicle", "insertTimestamp", "insertedBy", "policyId", "updateTimestamp", "updatedBy", "usePercent", "vehicleAssignmentId", "vehicleId", "versionNum" ],
      "properties" : {
        "imPolicyInfo" : {
          "$ref" : "#/definitions/imPolicyInfo"
        },
        "updatedBy" : {
          "type" : "string"
        },
        "imVehicle" : {
          "$ref" : "#/definitions/imVehicle"
        },
        "versionNum" : {
          "type" : "string"
        },
        "imDriver" : {
          "$ref" : "#/definitions/imDriver"
        },
        "insertTimestamp" : {
          "type" : "string"
        },
        "vehicleAssignmentId" : {
          "type" : "integer",
          "format" : "int32"
        },
        "updateTimestamp" : {
          "type" : "string"
        },
        "insertedBy" : {
          "type" : "string"
        },
        "policyId" : {
          "type" : "integer",
          "format" : "int32"
        },
        "driverId" : {
          "type" : "integer",
          "format" : "int32"
        },
        "usePercent" : {
          "type" : "string"
        },
        "vehicleId" : {
          "type" : "integer",
          "format" : "int32"
        }
      },
      "x-WM-FULLY_QUALIFIED_NAME" : "getVehicleAssignmntByPolicyId.contentEntryItem",
      "x-WM-TAGS" : [ "RestServiceVirtualController" ]
    },
    "imDriver" : {
      "required" : [ "accPrev", "ageLicensed", "dateLicensed", "dob", "driverId", "driverLicenseNumber", "driverLicenseState", "driverLicenseStatus", "driverTraining", "firstName", "fr44", "gender", "goodDriver", "goodStudent", "imPolicyInfo", "industry", "insertTimestamp", "insertedBy", "lastName", "licenseRevokedSuspended", "maritalStatus", "matDriver", "middleName", "occupation", "policyId", "prefix", "principalVehicle", "rated", "relation", "sdipPoint", "sr22", "ssn", "student100", "suffix", "updateTimestamp", "updatedBy", "versionNum" ],
      "properties" : {
        "lastName" : {
          "type" : "string"
        },
        "imPolicyInfo" : {
          "$ref" : "#/definitions/imPolicyInfo"
        },
        "driverTraining" : {
          "type" : "string"
        },
        "occupation" : {
          "type" : "string"
        },
        "gender" : {
          "type" : "string"
        },
        "prefix" : {
          "type" : "string"
        },
        "versionNum" : {
          "type" : "string"
        },
        "industry" : {
          "type" : "string"
        },
        "goodStudent" : {
          "type" : "string"
        },
        "insertTimestamp" : {
          "type" : "string"
        },
        "suffix" : {
          "type" : "string"
        },
        "ageLicensed" : {
          "type" : "integer",
          "format" : "int32"
        },
        "driverLicenseStatus" : {
          "type" : "string"
        },
        "goodDriver" : {
          "type" : "string"
        },
        "ssn" : {
          "type" : "string"
        },
        "relation" : {
          "type" : "string"
        },
        "licenseRevokedSuspended" : {
          "type" : "string"
        },
        "accPrev" : {
          "type" : "string"
        },
        "insertedBy" : {
          "type" : "string"
        },
        "dateLicensed" : {
          "type" : "string"
        },
        "matDriver" : {
          "type" : "string"
        },
        "sdipPoint" : {
          "type" : "string"
        },
        "student100" : {
          "type" : "string"
        },
        "updatedBy" : {
          "type" : "string"
        },
        "driverLicenseState" : {
          "type" : "string"
        },
        "sr22" : {
          "type" : "string"
        },
        "principalVehicle" : {
          "type" : "string"
        },
        "updateTimestamp" : {
          "type" : "string"
        },
        "rated" : {
          "type" : "string"
        },
        "firstName" : {
          "type" : "string"
        },
        "driverLicenseNumber" : {
          "type" : "string"
        },
        "driverId" : {
          "type" : "integer",
          "format" : "int32"
        },
        "policyId" : {
          "type" : "integer",
          "format" : "int32"
        },
        "dob" : {
          "type" : "string"
        },
        "middleName" : {
          "type" : "string"
        },
        "fr44" : {
          "type" : "string"
        },
        "maritalStatus" : {
          "type" : "string"
        }
      },
      "x-WM-FULLY_QUALIFIED_NAME" : "getVehicleAssignmntByPolicyId.imDriver",
      "x-WM-TAGS" : [ "RestServiceVirtualController" ]
    },
    "java.lang.Object" : {
      "x-WM-FULLY_QUALIFIED_NAME" : "getVehicleAssignmntByPolicyId.java.lang.Object",
      "x-WM-TAGS" : [ "RestServiceVirtualController" ]
    },
    "RootResponse" : {
      "required" : [ "content", "first", "last", "number", "numberOfElements", "size", "sort", "totalElements", "totalPages" ],
      "properties" : {
        "number" : {
          "type" : "integer",
          "format" : "int32"
        },
        "last" : {
          "type" : "boolean"
        },
        "numberOfElements" : {
          "type" : "integer",
          "format" : "int32"
        },
        "size" : {
          "type" : "integer",
          "format" : "int32"
        },
        "totalPages" : {
          "type" : "integer",
          "format" : "int32"
        },
        "sort" : {
          "type" : "array",
          "items" : {
            "$ref" : "#/definitions/java.lang.Object"
          },
          "x-WM-IS_LIST" : true
        },
        "content" : {
          "type" : "array",
          "items" : {
            "$ref" : "#/definitions/contentEntryItem"
          },
          "x-WM-IS_LIST" : true
        },
        "first" : {
          "type" : "boolean"
        },
        "totalElements" : {
          "type" : "integer",
          "format" : "int32"
        }
      },
      "x-WM-FULLY_QUALIFIED_NAME" : "getVehicleAssignmntByPolicyId.RootResponse",
      "x-WM-TAGS" : [ "RestServiceVirtualController" ]
    }
  }
}