{
  "endpointAddress" : "http://pkhgqfmqv632.cloud.wavemakeronline.com/UniRateServices/services/UNIVERSAL_RATE//queryExecutor/queries/GetStateDropDownValues",
  "method" : "GET",
  "headers" : { },
  "redirectEnabled" : true,
  "requestBody" : "",
  "queryParams" : {
    "state_code" : "FL-%25"
  },
  "authDetails" : null,
  "contentType" : "application/json",
  "multiParamInfoList" : null,
  "sampleHttpResponseDetails" : {
    "statusCode" : 0,
    "headers" : { },
    "responseBody" : "{\"content\":[{\"listName\":\"FL-PIPDeductibleType\",\"listItemValue\":\"0,250,500,1000\"},{\"listName\":\"FL-PIPOptionsType\",\"listItemValue\":\"Basic,Extended\"},{\"listName\":\"FL-WageLossType\",\"listItemValue\":\"Included,Excluded\"}],\"last\":true,\"totalPages\":1,\"totalElements\":3,\"sort\":[],\"first\":true,\"numberOfElements\":3,\"size\":20,\"number\":0}",
    "convertedResponse" : null
  },
  "proxy" : null
}