{
  "endpointAddress" : "http://pkhgqfmqv632.cloud.wavemakeronline.com/UniRateServices/services/UNIVERSAL_RATE/ImApplicant",
  "method" : "GET",
  "headers" : { },
  "redirectEnabled" : true,
  "requestBody" : "",
  "queryParams" : {
    "q" : "policyId=409"
  },
  "authDetails" : null,
  "contentType" : "application/json",
  "multiParamInfoList" : null,
  "sampleHttpResponseDetails" : {
    "statusCode" : 0,
    "headers" : { },
    "responseBody" : "{\"content\":[{\"applicantId\":269,\"policyId\":409,\"applicantType\":null,\"prefix\":null,\"firstName\":\"Jabez\",\"middleName\":null,\"lastName\":\"Gentles\",\"suffix\":\"JR\",\"dob\":\"12/23/1979\",\"ssn\":null,\"gender\":\"Male\",\"maritalStatus\":\"Single\",\"industry\":\"Mfg/Production\",\"occupation\":\"Machine Operator\",\"yearsWithEmployer\":null,\"yearsWithPreviousEmployer\":null,\"education\":\"Some College - No Degree\",\"licenseToDrive\":null,\"relation\":null,\"maidenName\":null,\"nickName\":null,\"insertTimestamp\":null,\"updateTimestamp\":null,\"updatedBy\":null,\"insertedBy\":null,\"versionNum\":null,\"yearsAtCurrResidence\":null,\"monthsAtCurrResidence\":null,\"imPolicyInfo\":{\"policyId\":409,\"polNum\":null,\"polSeqNum\":null,\"company\":null,\"policyTerm\":\"12\",\"package_\":null,\"effective\":\"03/19/2019\",\"creditCheckAuth\":\"Yes\",\"insertTimestamp\":null,\"updateTimestamp\":null,\"updatedBy\":null,\"insertedBy\":null,\"riskState\":null,\"insuramatchId\":\"3933491\",\"versionNum\":null,\"submittedTime\":null,\"submittedStatus\":null}}],\"last\":true,\"totalPages\":1,\"totalElements\":1,\"sort\":[],\"first\":true,\"numberOfElements\":1,\"size\":20,\"number\":0}",
    "convertedResponse" : null
  },
  "proxy" : null
}