{
  "swagger" : "2.0",
  "info" : {
    "version" : "2.0",
    "x-WM-USE_PROXY_FOR_WEB" : true,
    "x-WM-USE_PROXY_FOR_MOBILE" : true,
    "x-WM-API_ID" : "5954c4a1-4393-4ed1-858c-ee35cbb09889",
    "x-WM-SERVICE_ID" : "cloud3",
    "x-WM-SERVICE_TYPE" : "RestService"
  },
  "host" : "pkhgqfmqv632.cloud.wavemakeronline.com",
  "basePath" : "",
  "tags" : [ {
    "name" : "RestServiceVirtualController",
    "description" : "Rest service swagger documentation"
  } ],
  "schemes" : [ "http" ],
  "paths" : {
    "/updateAnswerLookupDefaultNo/invoke/services/UNIVERSAL_RATE/queryExecutor/queries/updateAnswerLookupDefaultNo" : {
      "put" : {
        "tags" : [ "RestServiceVirtualController" ],
        "operationId" : "updateAnswerLookupDefaultNo_RestServiceVirtualController-invoke",
        "consumes" : [ "application/json" ],
        "parameters" : [ {
          "in" : "body",
          "name" : "RequestBody",
          "description" : "RequestBody",
          "required" : false,
          "schema" : {
            "$ref" : "#/definitions/RootRequest"
          },
          "x-WM-FULLY_QUALIFIED_TYPE" : "java.lang.Object"
        } ],
        "responses" : {
          "200" : {
            "description" : "Success",
            "schema" : {
              "$ref" : "#/definitions/RootResponse"
            }
          }
        },
        "x-WM-METHOD_NAME" : "invoke",
        "x-WM-ACCESS_SPECIFIER" : "APP_ONLY"
      },
      "x-WM-BASE_PATH" : "/updateAnswerLookupDefaultNo/invoke/services/UNIVERSAL_RATE/queryExecutor/queries/updateAnswerLookupDefaultNo",
      "x-WM-TAG" : "RestServiceVirtualController",
      "x-WM-RELATIVE_PATH" : "",
      "x-WM-COMPLETE_PATH" : "${rest.updateAnswerLookupDefaultNo.scheme}://${rest.updateAnswerLookupDefaultNo.host}${rest.updateAnswerLookupDefaultNo.basepath}/services/UNIVERSAL_RATE/queryExecutor/queries/updateAnswerLookupDefaultNo"
    }
  },
  "definitions" : {
    "RootRequest" : {
      "required" : [ "qmi" ],
      "properties" : {
        "qmi" : {
          "type" : "string"
        }
      },
      "x-WM-FULLY_QUALIFIED_NAME" : "updateAnswerLookupDefaultNo.RootRequest",
      "x-WM-TAGS" : [ "RestServiceVirtualController" ]
    },
    "RootResponse" : {
      "required" : [ "result" ],
      "properties" : {
        "result" : {
          "type" : "integer",
          "format" : "int32"
        }
      },
      "x-WM-FULLY_QUALIFIED_NAME" : "updateAnswerLookupDefaultNo.RootResponse",
      "x-WM-TAGS" : [ "RestServiceVirtualController" ]
    }
  }
}