{
  "endpointAddress" : "http://pkhgqfmqv632.cloud.wavemakeronline.com/UniRateServices/services/UNIVERSAL_RATE/queryExecutor/queries/GetRecentQuotesByUser",
  "method" : "GET",
  "headers" : { },
  "redirectEnabled" : true,
  "requestBody" : "",
  "queryParams" : {
    "insertedBy" : "ndole"
  },
  "authDetails" : null,
  "contentType" : "application/json",
  "multiParamInfoList" : null,
  "sampleHttpResponseDetails" : {
    "statusCode" : 200,
    "headers" : {
      "X-XSS-Protection" : [ "1; mode=block" ],
      "Date" : [ "Fri, 19 Apr 2019 17:56:23 GMT" ],
      "Content-Security-Policy" : [ "frame-ancestors 'self'" ],
      "ETag" : [ "\"09606cab507e6517b9923c17888f97d1b\"" ],
      "X-Content-Type-Options" : [ "nosniff" ],
      "Connection" : [ "keep-alive" ],
      "Content-Type" : [ "application/json;charset=UTF-8" ],
      "Content-Length" : [ "695" ],
      "Cache-Control" : [ "max-age=0" ]
    },
    "responseBody" : "{\"content\":[{\"fullName\":\"Jennifer Freeman\",\"insertTimestamp\":\"2019-04-19T10:55:24.323\",\"policyId\":6421,\"applicantId\":1846,\"srNo\":1},{\"fullName\":\"Anu Test\",\"insertTimestamp\":\"2019-04-19T10:20:34.53\",\"policyId\":6413,\"applicantId\":1840,\"srNo\":2},{\"fullName\":\"Naveen Putta\",\"insertTimestamp\":\"2019-04-19T10:14:07.177\",\"policyId\":6410,\"applicantId\":1839,\"srNo\":3},{\"fullName\":\"CT Test\",\"insertTimestamp\":\"2019-04-19T09:35:34.947\",\"policyId\":6399,\"applicantId\":1835,\"srNo\":4},{\"fullName\":\"Robert Mart\",\"insertTimestamp\":\"2019-04-19T08:58:10.93\",\"policyId\":6390,\"applicantId\":1826,\"srNo\":5}],\"last\":true,\"totalPages\":1,\"totalElements\":5,\"sort\":[],\"first\":true,\"numberOfElements\":5,\"size\":20,\"number\":0}",
    "convertedResponse" : null
  },
  "proxy" : null
}
