{
  "endpointAddress" : "http://pkhgqfmqv632.cloud.wavemakeronline.com/UniRateServices/services/carrierAnswers/carrierQuestionsAndAnswers",
  "method" : "POST",
  "headers" : { },
  "redirectEnabled" : true,
  "requestBody" : "{\n  \"question\": {\n    \"nodeName\": \"\",\n    \"answerDataType\": \"\",\n    \"product\": \"\",\n    \"updatedBy\": \"\",\n    \"answerText\": \"\",\n    \"mandatoryInd\": \"\",\n    \"showHideInd\": \"\",\n    \"displayOrder\": \"\",\n    \"insertTimestamp\": \"\",\n    \"expDate\": \"\",\n    \"questionText\": \"\",\n    \"updateTimestamp\": \"\",\n    \"insertedBy\": \"\",\n    \"carrierListId\": \"\",\n    \"effDate\": \"\",\n    \"imCarrierList\": {\n      \"company\": \"\",\n      \"insertTimestamp\": \"\",\n      \"carrierId\": \"\",\n      \"updateTimestamp\": \"\",\n      \"url\": \"\",\n      \"insertedBy\": \"\",\n      \"updatedBy\": \"\",\n      \"carrierListId\": \"\",\n      \"carrierName\": \"\",\n      \"versionNum\": \"\"\n    },\n    \"recordLock\": \"\",\n    \"stateCd\": \"\",\n    \"questionMasterId\": \"\"\n  },\n  \"answers\": [\n    {\n      \"answerValue\": \"\",\n      \"updatedBy\": \"\",\n      \"answerKey\": \"\",\n      \"insertedBy\": \"\",\n      \"imQuestionMaster\": {},\n      \"updateTimestamp\": \"\",\n      \"defaultInd\": \"\",\n      \"questionMasterId\": \"\",\n      \"insertTimestamp\": \"\",\n      \"questionAnswerId\": \"\",\n      \"displayOrder\": \"\"\n    }\n  ]\n}",
  "queryParams" : { },
  "authDetails" : null,
  "contentType" : "application/json",
  "multiParamInfoList" : null,
  "sampleHttpResponseDetails" : {
    "statusCode" : 0,
    "headers" : { },
    "responseBody" : "{\"errors\":{\"error\":[{\"id\":null,\"messageKey\":\"com.wavemaker.studio.json$InvalidJsonObject\",\"message\":null,\"parameters\":[\"N/A (through reference chain: com.unirateservices.universal_rate.CreateQuestionAnswersRequest[\\\"question\\\"]->com.unirateservices.universal_rate.ImQuestionMaster[\\\"imCarrierList\\\"])\"]}]}}",
    "convertedResponse" : null
  },
  "proxy" : null
}
