{
  "swagger" : "2.0",
  "info" : {
    "version" : "2.0",
    "x-WM-USE_PROXY_FOR_WEB" : true,
    "x-WM-USE_PROXY_FOR_MOBILE" : true,
    "x-WM-API_ID" : "e968106b-e543-4d81-8bd9-412805fe43c5",
    "x-WM-SERVICE_ID" : "cloud3",
    "x-WM-SERVICE_TYPE" : "RestService"
  },
  "host" : "pkhgqfmqv632.cloud.wavemakeronline.com",
  "basePath" : "/UniRateServices",
  "tags" : [ {
    "name" : "RestServiceVirtualController",
    "description" : "Rest service swagger documentation"
  } ],
  "schemes" : [ "http" ],
  "paths" : {
    "/services/UNIVERSAL_RATE/queryExecutor/queries/GetStateOrderValues" : {
      "get" : {
        "tags" : [ "RestServiceVirtualController" ],
        "operationId" : "GetStateOrderValues_RestServiceVirtualController-invoke",
        "consumes" : [ "application/json" ],
        "parameters" : [ {
          "name" : "state_code",
          "in" : "query",
          "description" : "state_code",
          "required" : false,
          "type" : "string",
          "format" : "string",
          "x-WM-EDITABLE" : false
        }, {
          "name" : "size",
          "in" : "query",
          "required" : false,
          "type" : "string",
          "format" : "string"
        } ],
        "responses" : {
          "200" : {
            "description" : "Success",
            "schema" : {
              "$ref" : "#/definitions/RootResponse"
            }
          }
        },
        "x-WM-METHOD_NAME" : "invoke",
        "x-WM-ACCESS_SPECIFIER" : "APP_ONLY"
      },
      "x-WM-BASE_PATH" : "/services/UNIVERSAL_RATE/queryExecutor/queries/GetStateOrderValues",
      "x-WM-TAG" : "RestServiceVirtualController",
      "x-WM-RELATIVE_PATH" : "",
      "x-WM-COMPLETE_PATH" : "${rest.GetStateOrderValues.scheme}://${rest.GetStateOrderValues.host}${rest.GetStateOrderValues.basepath}/services/UNIVERSAL_RATE/queryExecutor/queries/GetStateOrderValues"
    }
  },
  "definitions" : {
    "contentEntryItem" : {
      "required" : [ "defaultValueInd", "displayOrder", "dropdownListItemId", "helpText", "listDesc", "listDisplayOrder", "listItemDesc", "listItemValue", "listName", "stateCode" ],
      "properties" : {
        "listDesc" : {
          "type" : "string"
        },
        "listDisplayOrder" : {
          "type" : "string"
        },
        "listItemValue" : {
          "type" : "string"
        },
        "listItemDesc" : {
          "type" : "string"
        },
        "helpText" : {
          "type" : "string"
        },
        "defaultValueInd" : {
          "type" : "string"
        },
        "displayOrder" : {
          "type" : "integer",
          "format" : "int32"
        },
        "dropdownListItemId" : {
          "type" : "integer",
          "format" : "int32"
        },
        "stateCode" : {
          "type" : "string"
        },
        "listName" : {
          "type" : "string"
        }
      },
      "x-WM-FULLY_QUALIFIED_NAME" : "GetStateOrderValues.contentEntryItem",
      "x-WM-TAGS" : [ "RestServiceVirtualController" ]
    },
    "java.lang.Object" : {
      "x-WM-FULLY_QUALIFIED_NAME" : "GetStateOrderValues.java.lang.Object",
      "x-WM-TAGS" : [ "RestServiceVirtualController" ]
    },
    "RootResponse" : {
      "required" : [ "content", "first", "last", "number", "numberOfElements", "size", "sort", "totalElements", "totalPages" ],
      "properties" : {
        "number" : {
          "type" : "integer",
          "format" : "int32"
        },
        "last" : {
          "type" : "boolean"
        },
        "numberOfElements" : {
          "type" : "integer",
          "format" : "int32"
        },
        "size" : {
          "type" : "integer",
          "format" : "int32"
        },
        "totalPages" : {
          "type" : "integer",
          "format" : "int32"
        },
        "sort" : {
          "type" : "array",
          "items" : {
            "$ref" : "#/definitions/java.lang.Object"
          },
          "x-WM-IS_LIST" : true
        },
        "content" : {
          "type" : "array",
          "items" : {
            "$ref" : "#/definitions/contentEntryItem"
          },
          "x-WM-IS_LIST" : true
        },
        "first" : {
          "type" : "boolean"
        },
        "totalElements" : {
          "type" : "integer",
          "format" : "int32"
        }
      },
      "x-WM-FULLY_QUALIFIED_NAME" : "GetStateOrderValues.RootResponse",
      "x-WM-TAGS" : [ "RestServiceVirtualController" ]
    }
  }
}