{
  "endpointAddress" : "http://pkhgqfmqv632.cloud.wavemakeronline.com/UniRateServices/services/UNIVERSAL_RATE/ImPolicyQuestions",
  "method" : "GET",
  "headers" : { },
  "redirectEnabled" : true,
  "requestBody" : "",
  "queryParams" : { },
  "authDetails" : null,
  "contentType" : "application/json",
  "multiParamInfoList" : null,
  "sampleHttpResponseDetails" : {
    "statusCode" : 0,
    "headers" : { },
    "responseBody" : "{\"content\":[{\"policyQuestionsId\":124,\"policyId\":16,\"questionMasterId\":8886,\"questionAnswerId\":20275,\"insertTimestamp\":null,\"updateTimestamp\":null,\"updatedBy\":null,\"insertedBy\":null,\"versionNum\":null,\"answerText\":null,\"imQuestionMaster\":{\"questionMasterId\":8886,\"carrierListId\":12,\"stateCd\":\"NV\",\"effDate\":\"1900-01-01T00:00:00\",\"expDate\":\"1900-01-01T00:00:00\",\"questionText\":\"SpecEquip\",\"answerDataType\":\"DROPDOWN\",\"answerText\":\"\",\"displayOrder\":1,\"product\":\"AUTO\",\"nodeName\":\"SpecEquip*ALL{vehicle_index}\",\"insertTimestamp\":\"2019-02-26T15:17:33.473\",\"updateTimestamp\":null,\"updatedBy\":null,\"insertedBy\":null,\"showHideInd\":\"Y\",\"imCarrierList\":{\"carrierListId\":12,\"company\":\"EZLYNX\",\"carrierId\":334,\"carrierName\":\"Dairyland\",\"insertTimestamp\":\"2017-01-25T11:47:38.9\",\"updateTimestamp\":null,\"updatedBy\":null,\"insertedBy\":null,\"versionNum\":null}},\"imQuestionAnswerLookup\":{\"questionAnswerId\":20275,\"questionMasterId\":8886,\"answerKey\":\"None\",\"answerValue\":\"None\",\"defaultInd\":\"\",\"displayOrder\":1,\"insertTimestamp\":\"2019-02-26T15:17:33.683\",\"updateTimestamp\":null,\"updatedBy\":\"\",\"insertedBy\":\"\",\"imQuestionMaster\":{\"questionMasterId\":8886,\"carrierListId\":12,\"stateCd\":\"NV\",\"effDate\":\"1900-01-01T00:00:00\",\"expDate\":\"1900-01-01T00:00:00\",\"questionText\":\"SpecEquip\",\"answerDataType\":\"DROPDOWN\",\"answerText\":\"\",\"displayOrder\":1,\"product\":\"AUTO\",\"nodeName\":\"SpecEquip*ALL{vehicle_index}\",\"insertTimestamp\":\"2019-02-26T15:17:33.473\",\"updateTimestamp\":null,\"updatedBy\":null,\"insertedBy\":null,\"showHideInd\":\"Y\",\"imCarrierList\":{\"carrierListId\":12,\"company\":\"EZLYNX\",\"carrierId\":334,\"carrierName\":\"Dairyland\",\"insertTimestamp\":\"2017-01-25T11:47:38.9\",\"updateTimestamp\":null,\"updatedBy\":null,\"insertedBy\":null,\"versionNum\":null}}}},{\"policyQuestionsId\":125,\"policyId\":16,\"questionMasterId\":8886,\"questionAnswerId\":20276,\"insertTimestamp\":null,\"updateTimestamp\":null,\"updatedBy\":null,\"insertedBy\":null,\"versionNum\":null,\"answerText\":null,\"imQuestionMaster\":{\"questionMasterId\":8886,\"carrierListId\":12,\"stateCd\":\"NV\",\"effDate\":\"1900-01-01T00:00:00\",\"expDate\":\"1900-01-01T00:00:00\",\"questionText\":\"SpecEquip\",\"answerDataType\":\"DROPDOWN\",\"answerText\":\"\",\"displayOrder\":1,\"product\":\"AUTO\",\"nodeName\":\"SpecEquip*ALL{vehicle_index}\",\"insertTimestamp\":\"2019-02-26T15:17:33.473\",\"updateTimestamp\":null,\"updatedBy\":null,\"insertedBy\":null,\"showHideInd\":\"Y\",\"imCarrierList\":{\"carrierListId\":12,\"company\":\"EZLYNX\",\"carrierId\":334,\"carrierName\":\"Dairyland\",\"insertTimestamp\":\"2017-01-25T11:47:38.9\",\"updateTimestamp\":null,\"updatedBy\":null,\"insertedBy\":null,\"versionNum\":null}},\"imQuestionAnswerLookup\":{\"questionAnswerId\":20276,\"questionMasterId\":8886,\"answerKey\":\"100\",\"answerValue\":\".1\",\"defaultInd\":\"\",\"displayOrder\":1,\"insertTimestamp\":\"2019-02-26T15:17:33.683\",\"updateTimestamp\":null,\"updatedBy\":\"\",\"insertedBy\":\"\",\"imQuestionMaster\":{\"questionMasterId\":8886,\"carrierListId\":12,\"stateCd\":\"NV\",\"effDate\":\"1900-01-01T00:00:00\",\"expDate\":\"1900-01-01T00:00:00\",\"questionText\":\"SpecEquip\",\"answerDataType\":\"DROPDOWN\",\"answerText\":\"\",\"displayOrder\":1,\"product\":\"AUTO\",\"nodeName\":\"SpecEquip*ALL{vehicle_index}\",\"insertTimestamp\":\"2019-02-26T15:17:33.473\",\"updateTimestamp\":null,\"updatedBy\":null,\"insertedBy\":null,\"showHideInd\":\"Y\",\"imCarrierList\":{\"carrierListId\":12,\"company\":\"EZLYNX\",\"carrierId\":334,\"carrierName\":\"Dairyland\",\"insertTimestamp\":\"2017-01-25T11:47:38.9\",\"updateTimestamp\":null,\"updatedBy\":null,\"insertedBy\":null,\"versionNum\":null}}}},{\"policyQuestionsId\":126,\"policyId\":16,\"questionMasterId\":8887,\"questionAnswerId\":20307,\"insertTimestamp\":null,\"updateTimestamp\":null,\"updatedBy\":null,\"insertedBy\":null,\"versionNum\":null,\"answerText\":null,\"imQuestionMaster\":{\"questionMasterId\":8887,\"carrierListId\":12,\"stateCd\":\"WA\",\"effDate\":\"1900-01-01T00:00:00\",\"expDate\":\"1900-01-01T00:00:00\",\"questionText\":\"SpecEquip\",\"answerDataType\":\"DROPDOWN\",\"answerText\":\"\",\"displayOrder\":1,\"product\":\"AUTO\",\"nodeName\":\"SpecEquip*ALL{vehicle_index}\",\"insertTimestamp\":\"2019-02-26T15:17:33.893\",\"updateTimestamp\":null,\"updatedBy\":null,\"insertedBy\":null,\"showHideInd\":\"Y\",\"imCarrierList\":{\"carrierListId\":12,\"company\":\"EZLYNX\",\"carrierId\":334,\"carrierName\":\"Dairyland\",\"insertTimestamp\":\"2017-01-25T11:47:38.9\",\"updateTimestamp\":null,\"updatedBy\":null,\"insertedBy\":null,\"versionNum\":null}},\"imQuestionAnswerLookup\":{\"questionAnswerId\":20307,\"questionMasterId\":8887,\"answerKey\":\"100\",\"answerValue\":\".1\",\"defaultInd\":\"\",\"displayOrder\":1,\"insertTimestamp\":\"2019-02-26T15:17:34.073\",\"updateTimestamp\":null,\"updatedBy\":\"\",\"insertedBy\":\"\",\"imQuestionMaster\":{\"questionMasterId\":8887,\"carrierListId\":12,\"stateCd\":\"WA\",\"effDate\":\"1900-01-01T00:00:00\",\"expDate\":\"1900-01-01T00:00:00\",\"questionText\":\"SpecEquip\",\"answerDataType\":\"DROPDOWN\",\"answerText\":\"\",\"displayOrder\":1,\"product\":\"AUTO\",\"nodeName\":\"SpecEquip*ALL{vehicle_index}\",\"insertTimestamp\":\"2019-02-26T15:17:33.893\",\"updateTimestamp\":null,\"updatedBy\":null,\"insertedBy\":null,\"showHideInd\":\"Y\",\"imCarrierList\":{\"carrierListId\":12,\"company\":\"EZLYNX\",\"carrierId\":334,\"carrierName\":\"Dairyland\",\"insertTimestamp\":\"2017-01-25T11:47:38.9\",\"updateTimestamp\":null,\"updatedBy\":null,\"insertedBy\":null,\"versionNum\":null}}}},{\"policyQuestionsId\":127,\"policyId\":16,\"questionMasterId\":8888,\"questionAnswerId\":20338,\"insertTimestamp\":null,\"updateTimestamp\":null,\"updatedBy\":null,\"insertedBy\":null,\"versionNum\":null,\"answerText\":null,\"imQuestionMaster\":{\"questionMasterId\":8888,\"carrierListId\":12,\"stateCd\":\"WI\",\"effDate\":\"1900-01-01T00:00:00\",\"expDate\":\"1900-01-01T00:00:00\",\"questionText\":\"SpecEquip\",\"answerDataType\":\"DROPDOWN\",\"answerText\":\"\",\"displayOrder\":1,\"product\":\"AUTO\",\"nodeName\":\"SpecEquip*ALL{vehicle_index}\",\"insertTimestamp\":\"2019-02-26T15:17:34.27\",\"updateTimestamp\":null,\"updatedBy\":null,\"insertedBy\":null,\"showHideInd\":\"Y\",\"imCarrierList\":{\"carrierListId\":12,\"company\":\"EZLYNX\",\"carrierId\":334,\"carrierName\":\"Dairyland\",\"insertTimestamp\":\"2017-01-25T11:47:38.9\",\"updateTimestamp\":null,\"updatedBy\":null,\"insertedBy\":null,\"versionNum\":null}},\"imQuestionAnswerLookup\":{\"questionAnswerId\":20338,\"questionMasterId\":8888,\"answerKey\":\"100\",\"answerValue\":\".1\",\"defaultInd\":\"\",\"displayOrder\":1,\"insertTimestamp\":\"2019-02-26T15:17:34.45\",\"updateTimestamp\":null,\"updatedBy\":\"\",\"insertedBy\":\"\",\"imQuestionMaster\":{\"questionMasterId\":8888,\"carrierListId\":12,\"stateCd\":\"WI\",\"effDate\":\"1900-01-01T00:00:00\",\"expDate\":\"1900-01-01T00:00:00\",\"questionText\":\"SpecEquip\",\"answerDataType\":\"DROPDOWN\",\"answerText\":\"\",\"displayOrder\":1,\"product\":\"AUTO\",\"nodeName\":\"SpecEquip*ALL{vehicle_index}\",\"insertTimestamp\":\"2019-02-26T15:17:34.27\",\"updateTimestamp\":null,\"updatedBy\":null,\"insertedBy\":null,\"showHideInd\":\"Y\",\"imCarrierList\":{\"carrierListId\":12,\"company\":\"EZLYNX\",\"carrierId\":334,\"carrierName\":\"Dairyland\",\"insertTimestamp\":\"2017-01-25T11:47:38.9\",\"updateTimestamp\":null,\"updatedBy\":null,\"insertedBy\":null,\"versionNum\":null}}}},{\"policyQuestionsId\":128,\"policyId\":16,\"questionMasterId\":8889,\"questionAnswerId\":20387,\"insertTimestamp\":null,\"updateTimestamp\":null,\"updatedBy\":null,\"insertedBy\":null,\"versionNum\":null,\"answerText\":null,\"imQuestionMaster\":{\"questionMasterId\":8889,\"carrierListId\":12,\"stateCd\":\"MO\",\"effDate\":\"1900-01-01T00:00:00\",\"expDate\":\"1900-01-01T00:00:00\",\"questionText\":\"SpecEquip\",\"answerDataType\":\"DROPDOWN\",\"answerText\":\"\",\"displayOrder\":1,\"product\":\"AUTO\",\"nodeName\":\"SpecEquip*ALL{vehicle_index}\",\"insertTimestamp\":\"2019-02-26T15:17:34.673\",\"updateTimestamp\":null,\"updatedBy\":null,\"insertedBy\":null,\"showHideInd\":\"Y\",\"imCarrierList\":{\"carrierListId\":12,\"company\":\"EZLYNX\",\"carrierId\":334,\"carrierName\":\"Dairyland\",\"insertTimestamp\":\"2017-01-25T11:47:38.9\",\"updateTimestamp\":null,\"updatedBy\":null,\"insertedBy\":null,\"versionNum\":null}},\"imQuestionAnswerLookup\":{\"questionAnswerId\":20387,\"questionMasterId\":8889,\"answerKey\":\"1900\",\"answerValue\":\"1.9\",\"defaultInd\":\"\",\"displayOrder\":1,\"insertTimestamp\":\"2019-02-26T15:17:34.853\",\"updateTimestamp\":null,\"updatedBy\":\"\",\"insertedBy\":\"\",\"imQuestionMaster\":{\"questionMasterId\":8889,\"carrierListId\":12,\"stateCd\":\"MO\",\"effDate\":\"1900-01-01T00:00:00\",\"expDate\":\"1900-01-01T00:00:00\",\"questionText\":\"SpecEquip\",\"answerDataType\":\"DROPDOWN\",\"answerText\":\"\",\"displayOrder\":1,\"product\":\"AUTO\",\"nodeName\":\"SpecEquip*ALL{vehicle_index}\",\"insertTimestamp\":\"2019-02-26T15:17:34.673\",\"updateTimestamp\":null,\"updatedBy\":null,\"insertedBy\":null,\"showHideInd\":\"Y\",\"imCarrierList\":{\"carrierListId\":12,\"company\":\"EZLYNX\",\"carrierId\":334,\"carrierName\":\"Dairyland\",\"insertTimestamp\":\"2017-01-25T11:47:38.9\",\"updateTimestamp\":null,\"updatedBy\":null,\"insertedBy\":null,\"versionNum\":null}}}},{\"policyQuestionsId\":129,\"policyId\":16,\"questionMasterId\":9620,\"questionAnswerId\":21754,\"insertTimestamp\":null,\"updateTimestamp\":null,\"updatedBy\":null,\"insertedBy\":null,\"versionNum\":null,\"answerText\":null,\"imQuestionMaster\":{\"questionMasterId\":9620,\"carrierListId\":4,\"stateCd\":\"IL\",\"effDate\":\"1900-01-01T00:00:00\",\"expDate\":\"1900-01-01T00:00:00\",\"questionText\":\"Product to be quoted\",\"answerDataType\":\"DROPDOWN\",\"answerText\":\"\",\"displayOrder\":1,\"product\":\"AUTO\",\"nodeName\":\"productxml\",\"insertTimestamp\":\"2019-02-26T15:21:42.98\",\"updateTimestamp\":null,\"updatedBy\":null,\"insertedBy\":null,\"showHideInd\":\"Y\",\"imCarrierList\":{\"carrierListId\":4,\"company\":\"EZLYNX\",\"carrierId\":7,\"carrierName\":\"MetLife Auto & Home\",\"insertTimestamp\":\"2016-10-18T20:14:27.903\",\"updateTimestamp\":null,\"updatedBy\":null,\"insertedBy\":null,\"versionNum\":null}},\"imQuestionAnswerLookup\":{\"questionAnswerId\":21754,\"questionMasterId\":9620,\"answerKey\":\"Combo Auto\",\"answerValue\":\"C\",\"defaultInd\":\"\",\"displayOrder\":1,\"insertTimestamp\":\"2019-02-26T15:21:43.117\",\"updateTimestamp\":null,\"updatedBy\":\"\",\"insertedBy\":\"\",\"imQuestionMaster\":{\"questionMasterId\":9620,\"carrierListId\":4,\"stateCd\":\"IL\",\"effDate\":\"1900-01-01T00:00:00\",\"expDate\":\"1900-01-01T00:00:00\",\"questionText\":\"Product to be quoted\",\"answerDataType\":\"DROPDOWN\",\"answerText\":\"\",\"displayOrder\":1,\"product\":\"AUTO\",\"nodeName\":\"productxml\",\"insertTimestamp\":\"2019-02-26T15:21:42.98\",\"updateTimestamp\":null,\"updatedBy\":null,\"insertedBy\":null,\"showHideInd\":\"Y\",\"imCarrierList\":{\"carrierListId\":4,\"company\":\"EZLYNX\",\"carrierId\":7,\"carrierName\":\"MetLife Auto & Home\",\"insertTimestamp\":\"2016-10-18T20:14:27.903\",\"updateTimestamp\":null,\"updatedBy\":null,\"insertedBy\":null,\"versionNum\":null}}}},{\"policyQuestionsId\":130,\"policyId\":202,\"questionMasterId\":8886,\"questionAnswerId\":20276,\"insertTimestamp\":null,\"updateTimestamp\":null,\"updatedBy\":null,\"insertedBy\":null,\"versionNum\":null,\"answerText\":null,\"imQuestionMaster\":{\"questionMasterId\":8886,\"carrierListId\":12,\"stateCd\":\"NV\",\"effDate\":\"1900-01-01T00:00:00\",\"expDate\":\"1900-01-01T00:00:00\",\"questionText\":\"SpecEquip\",\"answerDataType\":\"DROPDOWN\",\"answerText\":\"\",\"displayOrder\":1,\"product\":\"AUTO\",\"nodeName\":\"SpecEquip*ALL{vehicle_index}\",\"insertTimestamp\":\"2019-02-26T15:17:33.473\",\"updateTimestamp\":null,\"updatedBy\":null,\"insertedBy\":null,\"showHideInd\":\"Y\",\"imCarrierList\":{\"carrierListId\":12,\"company\":\"EZLYNX\",\"carrierId\":334,\"carrierName\":\"Dairyland\",\"insertTimestamp\":\"2017-01-25T11:47:38.9\",\"updateTimestamp\":null,\"updatedBy\":null,\"insertedBy\":null,\"versionNum\":null}},\"imQuestionAnswerLookup\":{\"questionAnswerId\":20276,\"questionMasterId\":8886,\"answerKey\":\"100\",\"answerValue\":\".1\",\"defaultInd\":\"\",\"displayOrder\":1,\"insertTimestamp\":\"2019-02-26T15:17:33.683\",\"updateTimestamp\":null,\"updatedBy\":\"\",\"insertedBy\":\"\",\"imQuestionMaster\":{\"questionMasterId\":8886,\"carrierListId\":12,\"stateCd\":\"NV\",\"effDate\":\"1900-01-01T00:00:00\",\"expDate\":\"1900-01-01T00:00:00\",\"questionText\":\"SpecEquip\",\"answerDataType\":\"DROPDOWN\",\"answerText\":\"\",\"displayOrder\":1,\"product\":\"AUTO\",\"nodeName\":\"SpecEquip*ALL{vehicle_index}\",\"insertTimestamp\":\"2019-02-26T15:17:33.473\",\"updateTimestamp\":null,\"updatedBy\":null,\"insertedBy\":null,\"showHideInd\":\"Y\",\"imCarrierList\":{\"carrierListId\":12,\"company\":\"EZLYNX\",\"carrierId\":334,\"carrierName\":\"Dairyland\",\"insertTimestamp\":\"2017-01-25T11:47:38.9\",\"updateTimestamp\":null,\"updatedBy\":null,\"insertedBy\":null,\"versionNum\":null}}}},{\"policyQuestionsId\":131,\"policyId\":202,\"questionMasterId\":8887,\"questionAnswerId\":20307,\"insertTimestamp\":null,\"updateTimestamp\":null,\"updatedBy\":null,\"insertedBy\":null,\"versionNum\":null,\"answerText\":null,\"imQuestionMaster\":{\"questionMasterId\":8887,\"carrierListId\":12,\"stateCd\":\"WA\",\"effDate\":\"1900-01-01T00:00:00\",\"expDate\":\"1900-01-01T00:00:00\",\"questionText\":\"SpecEquip\",\"answerDataType\":\"DROPDOWN\",\"answerText\":\"\",\"displayOrder\":1,\"product\":\"AUTO\",\"nodeName\":\"SpecEquip*ALL{vehicle_index}\",\"insertTimestamp\":\"2019-02-26T15:17:33.893\",\"updateTimestamp\":null,\"updatedBy\":null,\"insertedBy\":null,\"showHideInd\":\"Y\",\"imCarrierList\":{\"carrierListId\":12,\"company\":\"EZLYNX\",\"carrierId\":334,\"carrierName\":\"Dairyland\",\"insertTimestamp\":\"2017-01-25T11:47:38.9\",\"updateTimestamp\":null,\"updatedBy\":null,\"insertedBy\":null,\"versionNum\":null}},\"imQuestionAnswerLookup\":{\"questionAnswerId\":20307,\"questionMasterId\":8887,\"answerKey\":\"100\",\"answerValue\":\".1\",\"defaultInd\":\"\",\"displayOrder\":1,\"insertTimestamp\":\"2019-02-26T15:17:34.073\",\"updateTimestamp\":null,\"updatedBy\":\"\",\"insertedBy\":\"\",\"imQuestionMaster\":{\"questionMasterId\":8887,\"carrierListId\":12,\"stateCd\":\"WA\",\"effDate\":\"1900-01-01T00:00:00\",\"expDate\":\"1900-01-01T00:00:00\",\"questionText\":\"SpecEquip\",\"answerDataType\":\"DROPDOWN\",\"answerText\":\"\",\"displayOrder\":1,\"product\":\"AUTO\",\"nodeName\":\"SpecEquip*ALL{vehicle_index}\",\"insertTimestamp\":\"2019-02-26T15:17:33.893\",\"updateTimestamp\":null,\"updatedBy\":null,\"insertedBy\":null,\"showHideInd\":\"Y\",\"imCarrierList\":{\"carrierListId\":12,\"company\":\"EZLYNX\",\"carrierId\":334,\"carrierName\":\"Dairyland\",\"insertTimestamp\":\"2017-01-25T11:47:38.9\",\"updateTimestamp\":null,\"updatedBy\":null,\"insertedBy\":null,\"versionNum\":null}}}},{\"policyQuestionsId\":132,\"policyId\":202,\"questionMasterId\":9620,\"questionAnswerId\":21754,\"insertTimestamp\":null,\"updateTimestamp\":null,\"updatedBy\":null,\"insertedBy\":null,\"versionNum\":null,\"answerText\":null,\"imQuestionMaster\":{\"questionMasterId\":9620,\"carrierListId\":4,\"stateCd\":\"IL\",\"effDate\":\"1900-01-01T00:00:00\",\"expDate\":\"1900-01-01T00:00:00\",\"questionText\":\"Product to be quoted\",\"answerDataType\":\"DROPDOWN\",\"answerText\":\"\",\"displayOrder\":1,\"product\":\"AUTO\",\"nodeName\":\"productxml\",\"insertTimestamp\":\"2019-02-26T15:21:42.98\",\"updateTimestamp\":null,\"updatedBy\":null,\"insertedBy\":null,\"showHideInd\":\"Y\",\"imCarrierList\":{\"carrierListId\":4,\"company\":\"EZLYNX\",\"carrierId\":7,\"carrierName\":\"MetLife Auto & Home\",\"insertTimestamp\":\"2016-10-18T20:14:27.903\",\"updateTimestamp\":null,\"updatedBy\":null,\"insertedBy\":null,\"versionNum\":null}},\"imQuestionAnswerLookup\":{\"questionAnswerId\":21754,\"questionMasterId\":9620,\"answerKey\":\"Combo Auto\",\"answerValue\":\"C\",\"defaultInd\":\"\",\"displayOrder\":1,\"insertTimestamp\":\"2019-02-26T15:21:43.117\",\"updateTimestamp\":null,\"updatedBy\":\"\",\"insertedBy\":\"\",\"imQuestionMaster\":{\"questionMasterId\":9620,\"carrierListId\":4,\"stateCd\":\"IL\",\"effDate\":\"1900-01-01T00:00:00\",\"expDate\":\"1900-01-01T00:00:00\",\"questionText\":\"Product to be quoted\",\"answerDataType\":\"DROPDOWN\",\"answerText\":\"\",\"displayOrder\":1,\"product\":\"AUTO\",\"nodeName\":\"productxml\",\"insertTimestamp\":\"2019-02-26T15:21:42.98\",\"updateTimestamp\":null,\"updatedBy\":null,\"insertedBy\":null,\"showHideInd\":\"Y\",\"imCarrierList\":{\"carrierListId\":4,\"company\":\"EZLYNX\",\"carrierId\":7,\"carrierName\":\"MetLife Auto & Home\",\"insertTimestamp\":\"2016-10-18T20:14:27.903\",\"updateTimestamp\":null,\"updatedBy\":null,\"insertedBy\":null,\"versionNum\":null}}}}],\"last\":true,\"totalPages\":1,\"totalElements\":9,\"sort\":[],\"first\":true,\"numberOfElements\":9,\"size\":20,\"number\":0}",
    "convertedResponse" : null
  },
  "proxy" : null
}