{
  "swagger" : "2.0",
  "info" : {
    "version" : "2.0",
    "x-WM-USE_PROXY_FOR_WEB" : true,
    "x-WM-USE_PROXY_FOR_MOBILE" : true,
    "x-WM-API_ID" : "5afba3e9-2d36-4473-90d4-79bc10fb88ff",
    "x-WM-SERVICE_ID" : "cloud3",
    "x-WM-SERVICE_TYPE" : "RestService"
  },
  "host" : "pkhgqfmqv632.cloud.wavemakeronline.com",
  "basePath" : "/UniRateServices",
  "tags" : [ {
    "name" : "RestServiceVirtualController",
    "description" : "Rest service swagger documentation"
  } ],
  "schemes" : [ "http" ],
  "paths" : {
    "/services/carrierAnswers/changeCarrierQuestionsNAnswers" : {
      "post" : {
        "tags" : [ "RestServiceVirtualController" ],
        "operationId" : "editCarrierQuestionsNAnswers_RestServiceVirtualController-invoke",
        "consumes" : [ "application/json" ],
        "parameters" : [ {
          "in" : "body",
          "name" : "RequestBody",
          "description" : "RequestBody",
          "required" : false,
          "schema" : {
            "$ref" : "#/definitions/RootRequest"
          },
          "x-WM-FULLY_QUALIFIED_TYPE" : "java.lang.Object"
        } ],
        "responses" : {
          "200" : {
            "description" : "Success",
            "schema" : {
              "$ref" : "#/definitions/RootResponse"
            }
          }
        },
        "x-WM-METHOD_NAME" : "invoke",
        "x-WM-ACCESS_SPECIFIER" : "APP_ONLY"
      },
      "x-WM-BASE_PATH" : "/services/carrierAnswers/changeCarrierQuestionsNAnswers",
      "x-WM-TAG" : "RestServiceVirtualController",
      "x-WM-RELATIVE_PATH" : "",
      "x-WM-COMPLETE_PATH" : "${rest.editCarrierQuestionsNAnswers.scheme}://${rest.editCarrierQuestionsNAnswers.host}${rest.editCarrierQuestionsNAnswers.basepath}/services/carrierAnswers/changeCarrierQuestionsNAnswers"
    }
  },
  "definitions" : {
    "errorEntryItem" : {
      "required" : [ "id", "message", "messageKey", "parameters" ],
      "properties" : {
        "messageKey" : {
          "type" : "string"
        },
        "id" : {
          "type" : "string"
        },
        "message" : {
          "type" : "string"
        },
        "parameters" : {
          "type" : "array",
          "items" : {
            "type" : "string"
          },
          "x-WM-IS_LIST" : true
        }
      },
      "x-WM-FULLY_QUALIFIED_NAME" : "editCarrierQuestionsNAnswers.errorEntryItem",
      "x-WM-TAGS" : [ "RestServiceVirtualController" ]
    },
    "imQuestionMaster" : {
      "required" : [ "answerDataType", "answerText", "carrierListId", "displayOrder", "effDate", "expDate", "imCarrierList", "insertTimestamp", "insertedBy", "mandatoryInd", "nodeName", "product", "questionMasterId", "questionText", "recordLock", "showHideInd", "stateCd", "updateTimestamp", "updatedBy" ],
      "properties" : {
        "nodeName" : {
          "type" : "string"
        },
        "answerDataType" : {
          "type" : "string"
        },
        "product" : {
          "type" : "string"
        },
        "updatedBy" : {
          "type" : "string"
        },
        "answerText" : {
          "type" : "string"
        },
        "mandatoryInd" : {
          "type" : "string"
        },
        "showHideInd" : {
          "type" : "string"
        },
        "displayOrder" : {
          "type" : "string"
        },
        "insertTimestamp" : {
          "type" : "string"
        },
        "expDate" : {
          "type" : "string"
        },
        "questionText" : {
          "type" : "string"
        },
        "updateTimestamp" : {
          "type" : "string"
        },
        "insertedBy" : {
          "type" : "string"
        },
        "carrierListId" : {
          "type" : "string"
        },
        "effDate" : {
          "type" : "string"
        },
        "imCarrierList" : {
          "$ref" : "#/definitions/imCarrierList"
        },
        "recordLock" : {
          "type" : "string"
        },
        "stateCd" : {
          "type" : "string"
        },
        "questionMasterId" : {
          "type" : "string"
        }
      },
      "x-WM-FULLY_QUALIFIED_NAME" : "editCarrierQuestionsNAnswers.imQuestionMaster",
      "x-WM-TAGS" : [ "RestServiceVirtualController" ]
    },
    "imCarrierList" : {
      "required" : [ "carrierId", "carrierListId", "carrierName", "company", "insertTimestamp", "insertedBy", "updateTimestamp", "updatedBy", "url", "versionNum" ],
      "properties" : {
        "insertedBy" : {
          "type" : "string"
        },
        "carrierListId" : {
          "type" : "string"
        },
        "updatedBy" : {
          "type" : "string"
        },
        "carrierName" : {
          "type" : "string"
        },
        "versionNum" : {
          "type" : "string"
        },
        "company" : {
          "type" : "string"
        },
        "insertTimestamp" : {
          "type" : "string"
        },
        "carrierId" : {
          "type" : "string"
        },
        "updateTimestamp" : {
          "type" : "string"
        },
        "url" : {
          "type" : "string"
        }
      },
      "x-WM-FULLY_QUALIFIED_NAME" : "editCarrierQuestionsNAnswers.imCarrierList",
      "x-WM-TAGS" : [ "RestServiceVirtualController" ]
    },
    "question" : {
      "x-WM-FULLY_QUALIFIED_NAME" : "editCarrierQuestionsNAnswers.question",
      "x-WM-TAGS" : [ "RestServiceVirtualController" ]
    },
    "currentAnwersEntryItem" : {
      "required" : [ "answerKey", "answerValue", "defaultInd", "displayOrder", "imQuestionMaster", "insertTimestamp", "insertedBy", "questionAnswerId", "questionMasterId", "updateTimestamp", "updatedBy" ],
      "properties" : {
        "imQuestionMaster" : {
          "$ref" : "#/definitions/imQuestionMaster"
        },
        "answerKey" : {
          "type" : "string"
        },
        "insertedBy" : {
          "type" : "string"
        },
        "updatedBy" : {
          "type" : "string"
        },
        "answerValue" : {
          "type" : "string"
        },
        "displayOrder" : {
          "type" : "string"
        },
        "questionAnswerId" : {
          "type" : "string"
        },
        "questionMasterId" : {
          "type" : "string"
        },
        "insertTimestamp" : {
          "type" : "string"
        },
        "defaultInd" : {
          "type" : "string"
        },
        "updateTimestamp" : {
          "type" : "string"
        }
      },
      "x-WM-FULLY_QUALIFIED_NAME" : "editCarrierQuestionsNAnswers.currentAnwersEntryItem",
      "x-WM-TAGS" : [ "RestServiceVirtualController" ]
    },
    "RootRequest" : {
      "required" : [ "currentAnwers", "newAnswers", "oldQuestion", "question" ],
      "properties" : {
        "oldQuestion" : {
          "type" : "string"
        },
        "question" : {
          "$ref" : "#/definitions/question"
        },
        "newAnswers" : {
          "type" : "array",
          "items" : {
            "$ref" : "#/definitions/newAnswersEntryItem"
          },
          "x-WM-IS_LIST" : true
        },
        "currentAnwers" : {
          "type" : "array",
          "items" : {
            "$ref" : "#/definitions/currentAnwersEntryItem"
          },
          "x-WM-IS_LIST" : true
        }
      },
      "x-WM-FULLY_QUALIFIED_NAME" : "editCarrierQuestionsNAnswers.RootRequest",
      "x-WM-TAGS" : [ "RestServiceVirtualController" ]
    },
    "newAnswersEntryItem" : {
      "x-WM-FULLY_QUALIFIED_NAME" : "editCarrierQuestionsNAnswers.newAnswersEntryItem",
      "x-WM-TAGS" : [ "RestServiceVirtualController" ]
    },
    "errors" : {
      "required" : [ "error" ],
      "properties" : {
        "error" : {
          "type" : "array",
          "items" : {
            "$ref" : "#/definitions/errorEntryItem"
          },
          "x-WM-IS_LIST" : true
        }
      },
      "x-WM-FULLY_QUALIFIED_NAME" : "editCarrierQuestionsNAnswers.errors",
      "x-WM-TAGS" : [ "RestServiceVirtualController" ]
    },
    "RootResponse" : {
      "required" : [ "errors" ],
      "properties" : {
        "errors" : {
          "$ref" : "#/definitions/errors"
        }
      },
      "x-WM-FULLY_QUALIFIED_NAME" : "editCarrierQuestionsNAnswers.RootResponse",
      "x-WM-TAGS" : [ "RestServiceVirtualController" ]
    }
  }
}