{
  "swagger" : "2.0",
  "info" : {
    "version" : "2.0",
    "x-WM-USE_PROXY_FOR_WEB" : true,
    "x-WM-USE_PROXY_FOR_MOBILE" : true,
    "x-WM-API_ID" : "09642c4a-3f79-451b-a090-9f91e972af34",
    "x-WM-SERVICE_ID" : "cloud2",
    "x-WM-SERVICE_TYPE" : "RestService"
  },
  "host" : "pkhgqfmqv632.cloud.wavemakeronline.com",
  "basePath" : "/UniRateServices",
  "tags" : [ {
    "name" : "RestServiceVirtualController",
    "description" : "Rest service swagger documentation"
  } ],
  "schemes" : [ "http" ],
  "paths" : {
    "/services/UNIVERSAL_RATE/ImDriver/{ID}" : {
      "delete" : {
        "tags" : [ "RestServiceVirtualController" ],
        "operationId" : "deleteImDriver_RestServiceVirtualController-invoke",
        "consumes" : [ "application/json" ],
        "produces" : [ "application/json" ],
        "parameters" : [ {
          "name" : "ID",
          "in" : "path",
          "required" : true,
          "type" : "string"
        } ],
        "responses" : {
          "200" : {
            "description" : "Success",
            "schema" : {
              "$ref" : "#/definitions/RootResponse"
            }
          }
        },
        "x-WM-METHOD_NAME" : "invoke",
        "x-WM-ACCESS_SPECIFIER" : "APP_ONLY"
      },
      "x-WM-BASE_PATH" : "/services/UNIVERSAL_RATE/ImDriver/{ID}",
      "x-WM-TAG" : "RestServiceVirtualController",
      "x-WM-RELATIVE_PATH" : "",
      "x-WM-COMPLETE_PATH" : "${rest.deleteImDriver.scheme}://${rest.deleteImDriver.host}${rest.deleteImDriver.basepath}/services/UNIVERSAL_RATE/ImDriver/{ID}"
    }
  },
  "definitions" : {
    "RootResponse" : {
      "x-WM-FULLY_QUALIFIED_NAME" : "deleteImDriver.RootResponse",
      "x-WM-TAGS" : [ "RestServiceVirtualController" ]
    }
  }
}