{
  "endpointAddress" : "http://pkhgqfmqv632.cloud.wavemakeronline.com/UniRateServices/services/UNIVERSAL_RATE/ImDriver/{ID}",
  "method" : "DELETE",
  "headers" : { },
  "redirectEnabled" : true,
  "requestBody" : "",
  "queryParams" : { },
  "authDetails" : null,
  "contentType" : "application/json",
  "multiParamInfoList" : null,
  "sampleHttpResponseDetails" : {
    "statusCode" : 200,
    "headers" : {
      "X-XSS-Protection" : [ "1; mode=block" ],
      "Content-Security-Policy" : [ "frame-ancestors 'self'" ],
      "X-Content-Type-Options" : [ "nosniff" ],
      "Content-Type" : [ "application/json;charset=UTF-8" ],
      "Transfer-Encoding" : [ "chunked" ],
      "Vary" : [ "Accept-Encoding" ],
      "Date" : [ "Wed, 03 Apr 2019 03:35:22 GMT" ],
      "Connection" : [ "keep-alive" ]
    },
    "responseBody" : "true",
    "convertedResponse" : null
  },
  "proxy" : null
}