{
  "endpointAddress" : "http://pkhgqfmqv632.cloud.wavemakeronline.com/UniRateServices/services/UNIVERSAL_RATE/ImVehicleCoverage",
  "method" : "GET",
  "headers" : { },
  "redirectEnabled" : true,
  "requestBody" : "",
  "queryParams" : {
    "q" : "policyId = 196"
  },
  "authDetails" : null,
  "contentType" : "application/json",
  "multiParamInfoList" : null,
  "sampleHttpResponseDetails" : {
    "statusCode" : 200,
    "headers" : {
      "Cache-Control" : [ "max-age=0" ],
      "X-XSS-Protection" : [ "1; mode=block" ],
      "Content-Security-Policy" : [ "frame-ancestors 'self'" ],
      "X-Content-Type-Options" : [ "nosniff" ],
      "ETag" : [ "\"0363bf312e77714afd2d232e11b5a6788\"" ],
      "Content-Type" : [ "application/json;charset=UTF-8" ],
      "Transfer-Encoding" : [ "chunked" ],
      "Vary" : [ "Accept-Encoding" ],
      "Date" : [ "Sun, 10 Mar 2019 21:15:26 GMT" ],
      "Connection" : [ "keep-alive" ]
    },
    "responseBody" : "{\"content\":[{\"vehicleCoverageId\":19,\"policyId\":196,\"vehicleId\":null,\"otherCollDeduct\":null,\"collDeduct\":null,\"fullGlass\":null,\"towingDeduct\":null,\"rentalDeduct\":null,\"liabilityNotRequired\":null,\"loanLeseCov\":null,\"statedAmount\":null,\"replacemntCost\":null,\"waiwerCollDamage\":null,\"insertTimestamp\":null,\"updateTimestamp\":null,\"updatedBy\":null,\"insertedBy\":null,\"versionNum\":null,\"comprehensive\":null,\"imPolicyInfo\":{\"policyId\":196,\"polNum\":null,\"polSeqNum\":null,\"company\":null,\"policyTerm\":null,\"package_\":null,\"effective\":null,\"creditCheckAuth\":null,\"insertTimestamp\":null,\"updateTimestamp\":null,\"updatedBy\":null,\"insertedBy\":null,\"riskState\":null,\"insuramatchId\":null,\"versionNum\":null},\"imVehicle\":null},{\"vehicleCoverageId\":20,\"policyId\":196,\"vehicleId\":null,\"otherCollDeduct\":null,\"collDeduct\":null,\"fullGlass\":null,\"towingDeduct\":null,\"rentalDeduct\":null,\"liabilityNotRequired\":null,\"loanLeseCov\":null,\"statedAmount\":null,\"replacemntCost\":null,\"waiwerCollDamage\":null,\"insertTimestamp\":null,\"updateTimestamp\":null,\"updatedBy\":null,\"insertedBy\":null,\"versionNum\":null,\"comprehensive\":null,\"imPolicyInfo\":{\"policyId\":196,\"polNum\":null,\"polSeqNum\":null,\"company\":null,\"policyTerm\":null,\"package_\":null,\"effective\":null,\"creditCheckAuth\":null,\"insertTimestamp\":null,\"updateTimestamp\":null,\"updatedBy\":null,\"insertedBy\":null,\"riskState\":null,\"insuramatchId\":null,\"versionNum\":null},\"imVehicle\":null}],\"last\":true,\"totalPages\":1,\"totalElements\":2,\"sort\":[],\"numberOfElements\":2,\"first\":true,\"size\":20,\"number\":0}",
    "convertedResponse" : null
  },
  "proxy" : null
}