{
  "swagger" : "2.0",
  "info" : {
    "version" : "2.0",
    "x-WM-USE_PROXY_FOR_WEB" : true,
    "x-WM-USE_PROXY_FOR_MOBILE" : true,
    "x-WM-API_ID" : "b456d669-7589-4f17-ab94-4665a7d70acf",
    "x-WM-SERVICE_ID" : "cloud2",
    "x-WM-SERVICE_TYPE" : "RestService"
  },
  "host" : "pkhgqfmqv632.cloud.wavemakeronline.com",
  "basePath" : "",
  "tags" : [ {
    "name" : "RestServiceVirtualController",
    "description" : "Rest service swagger documentation"
  } ],
  "schemes" : [ "http" ],
  "paths" : {
    "/updateIMIncident/invoke/services/UNIVERSAL_RATE/ImIncident/{ID}" : {
      "put" : {
        "tags" : [ "RestServiceVirtualController" ],
        "operationId" : "updateIMIncident_RestServiceVirtualController-invoke",
        "consumes" : [ "application/json" ],
        "produces" : [ "application/json" ],
        "parameters" : [ {
          "in" : "body",
          "name" : "RequestBody",
          "description" : "RequestBody",
          "required" : false,
          "schema" : {
            "$ref" : "#/definitions/RootRequest"
          },
          "x-WM-FULLY_QUALIFIED_TYPE" : "java.lang.Object"
        }, {
          "name" : "ID",
          "in" : "path",
          "required" : true,
          "type" : "string"
        } ],
        "responses" : {
          "200" : {
            "description" : "Success",
            "schema" : {
              "$ref" : "#/definitions/RootResponse"
            }
          }
        },
        "x-WM-METHOD_NAME" : "invoke",
        "x-WM-ACCESS_SPECIFIER" : "APP_ONLY"
      },
      "x-WM-BASE_PATH" : "/updateIMIncident/invoke/services/UNIVERSAL_RATE/ImIncident/{ID}",
      "x-WM-TAG" : "RestServiceVirtualController",
      "x-WM-RELATIVE_PATH" : "",
      "x-WM-COMPLETE_PATH" : "${rest.updateIMIncident.scheme}://${rest.updateIMIncident.host}${rest.updateIMIncident.basepath}/services/UNIVERSAL_RATE/ImIncident/{ID}"
    }
  },
  "definitions" : {
    "imPolicyInfo" : {
      "required" : [ "company", "creditCheckAuth", "effective", "insertTimestamp", "insertedBy", "insuramatchId", "package_", "polNum", "polSeqNum", "policyId", "policyTerm", "riskState", "updateTimestamp", "updatedBy", "versionNum" ],
      "properties" : {
        "creditCheckAuth" : {
          "type" : "string"
        },
        "updatedBy" : {
          "type" : "string"
        },
        "insuramatchId" : {
          "type" : "string"
        },
        "policyTerm" : {
          "type" : "string"
        },
        "versionNum" : {
          "type" : "string"
        },
        "insertTimestamp" : {
          "type" : "string"
        },
        "polSeqNum" : {
          "type" : "string"
        },
        "updateTimestamp" : {
          "type" : "string"
        },
        "effective" : {
          "type" : "string"
        },
        "insertedBy" : {
          "type" : "string"
        },
        "policyId" : {
          "type" : "integer",
          "format" : "int32"
        },
        "polNum" : {
          "type" : "string"
        },
        "package_" : {
          "type" : "string"
        },
        "company" : {
          "type" : "string"
        },
        "riskState" : {
          "type" : "string"
        }
      },
      "x-WM-FULLY_QUALIFIED_NAME" : "updateIMIncident.imPolicyInfo",
      "x-WM-TAGS" : [ "RestServiceVirtualController" ]
    },
    "imDriver" : {
      "required" : [ "accPrev", "ageLicensed", "dateLicensed", "dob", "driverId", "driverLicenseNumber", "driverLicenseState", "driverLicenseStatus", "driverTraining", "firstName", "fr44", "gender", "goodDriver", "goodStudent", "imPolicyInfo", "industry", "insertTimestamp", "insertedBy", "lastName", "licenseRevokedSuspended", "maritalStatus", "matDriver", "middleName", "occupation", "policyId", "prefix", "principalVehicle", "rated", "relation", "sdipPoint", "sr22", "ssn", "student100", "suffix", "updateTimestamp", "updatedBy", "versionNum" ],
      "properties" : {
        "lastName" : {
          "type" : "string"
        },
        "imPolicyInfo" : {
          "$ref" : "#/definitions/imPolicyInfo"
        },
        "driverTraining" : {
          "type" : "string"
        },
        "occupation" : {
          "type" : "string"
        },
        "gender" : {
          "type" : "string"
        },
        "prefix" : {
          "type" : "string"
        },
        "versionNum" : {
          "type" : "string"
        },
        "industry" : {
          "type" : "string"
        },
        "goodStudent" : {
          "type" : "string"
        },
        "insertTimestamp" : {
          "type" : "string"
        },
        "suffix" : {
          "type" : "string"
        },
        "ageLicensed" : {
          "type" : "integer",
          "format" : "int32"
        },
        "driverLicenseStatus" : {
          "type" : "string"
        },
        "goodDriver" : {
          "type" : "string"
        },
        "ssn" : {
          "type" : "string"
        },
        "relation" : {
          "type" : "string"
        },
        "licenseRevokedSuspended" : {
          "type" : "string"
        },
        "accPrev" : {
          "type" : "string"
        },
        "insertedBy" : {
          "type" : "string"
        },
        "dateLicensed" : {
          "type" : "string"
        },
        "matDriver" : {
          "type" : "string"
        },
        "sdipPoint" : {
          "type" : "string"
        },
        "student100" : {
          "type" : "string"
        },
        "updatedBy" : {
          "type" : "string"
        },
        "driverLicenseState" : {
          "type" : "string"
        },
        "sr22" : {
          "type" : "string"
        },
        "principalVehicle" : {
          "type" : "string"
        },
        "updateTimestamp" : {
          "type" : "string"
        },
        "rated" : {
          "type" : "string"
        },
        "firstName" : {
          "type" : "string"
        },
        "driverLicenseNumber" : {
          "type" : "string"
        },
        "driverId" : {
          "type" : "integer",
          "format" : "int32"
        },
        "policyId" : {
          "type" : "integer",
          "format" : "int32"
        },
        "dob" : {
          "type" : "string"
        },
        "middleName" : {
          "type" : "string"
        },
        "fr44" : {
          "type" : "string"
        },
        "maritalStatus" : {
          "type" : "string"
        }
      },
      "x-WM-FULLY_QUALIFIED_NAME" : "updateIMIncident.imDriver",
      "x-WM-TAGS" : [ "RestServiceVirtualController" ]
    },
    "RootRequest" : {
      "required" : [ "bi", "collission", "date", "description", "driverId", "incidentId", "incidentType", "insertTimestamp", "insertedBy", "mp", "pd", "updateTimestamp", "updatedBy", "value", "vehicleInvolved", "versionNum" ],
      "properties" : {
        "date" : {
          "type" : "string"
        },
        "collission" : {
          "type" : "string"
        },
        "mp" : {
          "type" : "string"
        },
        "updatedBy" : {
          "type" : "string"
        },
        "vehicleInvolved" : {
          "type" : "string"
        },
        "versionNum" : {
          "type" : "string"
        },
        "bi" : {
          "type" : "string"
        },
        "incidentType" : {
          "type" : "string"
        },
        "description" : {
          "type" : "string"
        },
        "insertTimestamp" : {
          "type" : "string"
        },
        "updateTimestamp" : {
          "type" : "string"
        },
        "insertedBy" : {
          "type" : "string"
        },
        "driverId" : {
          "type" : "integer",
          "format" : "int32"
        },
        "pd" : {
          "type" : "string"
        },
        "incidentId" : {
          "type" : "integer",
          "format" : "int32"
        },
        "value" : {
          "type" : "string"
        }
      },
      "x-WM-FULLY_QUALIFIED_NAME" : "updateIMIncident.RootRequest",
      "x-WM-TAGS" : [ "RestServiceVirtualController" ]
    },
    "RootResponse" : {
      "required" : [ "bi", "collission", "date", "description", "driverId", "imDriver", "incidentId", "incidentType", "insertTimestamp", "insertedBy", "mp", "pd", "updateTimestamp", "updatedBy", "value", "vehicleInvolved", "versionNum" ],
      "properties" : {
        "date" : {
          "type" : "string"
        },
        "collission" : {
          "type" : "string"
        },
        "mp" : {
          "type" : "string"
        },
        "updatedBy" : {
          "type" : "string"
        },
        "vehicleInvolved" : {
          "type" : "string"
        },
        "versionNum" : {
          "type" : "string"
        },
        "bi" : {
          "type" : "string"
        },
        "incidentType" : {
          "type" : "string"
        },
        "imDriver" : {
          "$ref" : "#/definitions/imDriver"
        },
        "description" : {
          "type" : "string"
        },
        "insertTimestamp" : {
          "type" : "string"
        },
        "updateTimestamp" : {
          "type" : "string"
        },
        "insertedBy" : {
          "type" : "string"
        },
        "driverId" : {
          "type" : "integer",
          "format" : "int32"
        },
        "pd" : {
          "type" : "string"
        },
        "incidentId" : {
          "type" : "integer",
          "format" : "int32"
        },
        "value" : {
          "type" : "string"
        }
      },
      "x-WM-FULLY_QUALIFIED_NAME" : "updateIMIncident.RootResponse",
      "x-WM-TAGS" : [ "RestServiceVirtualController" ]
    }
  }
}