{
  "basePath" : "${rest.FetchStatesForCarrier.basepath}",
  "paths" : {
    "/services/UNIVERSAL_RATE/queryExecutor/queries/FetchStatesForCarrier" : {
      "x-WM-BASE_PATH" : "/services/UNIVERSAL_RATE/queryExecutor/queries/FetchStatesForCarrier",
      "x-WM-TAG" : "RestServiceVirtualController",
      "x-WM-RELATIVE_PATH" : "",
      "get" : {
        "x-WM-METHOD_NAME" : "invoke",
        "x-WM-ACCESS_SPECIFIER" : "APP_ONLY",
        "operationId" : "FetchStatesForCarrier_RestServiceVirtualController-invoke",
        "responses" : {
          "200" : {
            "schema" : {
              "$ref" : "#/definitions/RootResponse"
            },
            "description" : "Success"
          }
        },
        "parameters" : [ {
          "x-WM-EDITABLE" : false,
          "in" : "query",
          "name" : "carrier",
          "format" : "string",
          "description" : "carrier",
          "type" : "string",
          "required" : false
        }, {
          "x-WM-EDITABLE" : false,
          "in" : "query",
          "name" : "size",
          "format" : "string",
          "description" : "size",
          "type" : "string",
          "required" : false
        }, {
          "x-WM-EDITABLE" : false,
          "in" : "query",
          "name" : "page",
          "format" : "string",
          "description" : "page",
          "type" : "string",
          "required" : false
        }, {
          "in" : "query",
          "name" : "sort",
          "format" : "string",
          "type" : "string",
          "required" : false
        } ],
        "tags" : [ "RestServiceVirtualController" ],
        "consumes" : [ "application/json" ]
      },
      "x-WM-COMPLETE_PATH" : "${rest.FetchStatesForCarrier.scheme}://${rest.FetchStatesForCarrier.host}${rest.FetchStatesForCarrier.basepath}/services/UNIVERSAL_RATE/queryExecutor/queries/FetchStatesForCarrier"
    }
  },
  "host" : "${rest.FetchStatesForCarrier.host}",
  "schemes" : [ "${rest.FetchStatesForCarrier.scheme}" ],
  "definitions" : {
    "contentEntryItem" : {
      "x-WM-FULLY_QUALIFIED_NAME" : "FetchStatesForCarrier.contentEntryItem",
      "x-WM-TAGS" : [ "RestServiceVirtualController" ],
      "required" : [ "carrierListId", "carrierName", "carrierStates", "imCarrierManagementId" ],
      "properties" : {
        "carrierStates" : {
          "type" : "string"
        },
        "carrierListId" : {
          "format" : "int32",
          "type" : "integer"
        },
        "carrierName" : {
          "type" : "string"
        },
        "imCarrierManagementId" : {
          "format" : "int32",
          "type" : "integer"
        }
      }
    },
    "sortEntryItem" : {
      "x-WM-FULLY_QUALIFIED_NAME" : "FetchStatesForCarrier.sortEntryItem",
      "x-WM-TAGS" : [ "RestServiceVirtualController" ],
      "required" : [ "ascending", "direction", "ignoreCase", "nullHandling", "property" ],
      "properties" : {
        "nullHandling" : {
          "type" : "string"
        },
        "ignoreCase" : {
          "type" : "boolean"
        },
        "property" : {
          "type" : "string"
        },
        "ascending" : {
          "type" : "boolean"
        },
        "direction" : {
          "type" : "string"
        }
      }
    },
    "RootResponse" : {
      "x-WM-FULLY_QUALIFIED_NAME" : "FetchStatesForCarrier.RootResponse",
      "x-WM-TAGS" : [ "RestServiceVirtualController" ],
      "required" : [ "content", "first", "last", "number", "numberOfElements", "size", "sort", "totalElements", "totalPages" ],
      "properties" : {
        "number" : {
          "format" : "int32",
          "type" : "integer"
        },
        "last" : {
          "type" : "boolean"
        },
        "numberOfElements" : {
          "format" : "int32",
          "type" : "integer"
        },
        "size" : {
          "format" : "int32",
          "type" : "integer"
        },
        "totalPages" : {
          "format" : "int32",
          "type" : "integer"
        },
        "sort" : {
          "x-WM-IS_LIST" : true,
          "type" : "array",
          "items" : {
            "$ref" : "#/definitions/sortEntryItem"
          }
        },
        "content" : {
          "x-WM-IS_LIST" : true,
          "type" : "array",
          "items" : {
            "$ref" : "#/definitions/contentEntryItem"
          }
        },
        "first" : {
          "type" : "boolean"
        },
        "totalElements" : {
          "format" : "int32",
          "type" : "integer"
        }
      }
    }
  },
  "swagger" : "2.0",
  "info" : {
    "x-WM-USE_PROXY_FOR_WEB" : true,
    "x-WM-USE_PROXY_FOR_MOBILE" : true,
    "x-WM-API_ID" : "fbf6fd96-0179-43dd-b129-2efd5ad8c357",
    "x-WM-SERVICE_ID" : "cloud3",
    "version" : "2.0",
    "x-WM-SERVICE_TYPE" : "RestService"
  },
  "tags" : [ {
    "name" : "RestServiceVirtualController",
    "description" : "Rest service swagger documentation"
  } ]
}
