{
  "endpointAddress" : "https://apismod.plymouthrock.com/edge/public/test/universalraterservice/getUrQuestionAnswerData",
  "method" : "GET",
  "headers" : { },
  "redirectEnabled" : true,
  "requestBody" : "",
  "queryParams" : {
    "policyId" : "15813"
  },
  "authDetails" : null,
  "contentType" : "application/json",
  "multiParamInfoList" : null,
  "sampleHttpResponseDetails" : {
    "statusCode" : 0,
    "headers" : { },
    "responseBody" : "[{\"questionMasterId\":8997,\"carrierId\":52,\"carrierName\":\"Foremost Insurance Group (PROD)\",\"stateCd\":\"CO\",\"effDate\":1546318800000,\"expDate\":4102376400000,\"questionText\":\"Advance Quoting Discount\",\"answerDataType\":\"DROPDOWN\",\"answerText\":\"Yes\",\"questionAnswerId\":\"20960\",\"defaultValue\":\"\",\"displayOrder\":\"1\",\"product\":\"AUTO\",\"nodeName\":\"effectivediscount\",\"showHideInd\":\"Y\",\"recordLock\":\"NO\",\"mandatoryInd\":\"NO\"},{\"questionMasterId\":9009,\"carrierId\":52,\"carrierName\":\"Foremost Insurance Group (PROD)\",\"stateCd\":\"CO\",\"effDate\":1546318800000,\"expDate\":4102376400000,\"questionText\":\"Go Paperless?\",\"answerDataType\":\"DROPDOWN\",\"answerText\":\"N\",\"questionAnswerId\":\"20985\",\"defaultValue\":\"\",\"displayOrder\":\"1\",\"product\":\"AUTO\",\"nodeName\":\"gopaperless\",\"showHideInd\":\"Y\",\"recordLock\":\"NO\",\"mandatoryInd\":\"NO\"},{\"questionMasterId\":9049,\"carrierId\":52,\"carrierName\":\"Foremost Insurance Group (PROD)\",\"stateCd\":\"CO\",\"effDate\":1546318800000,\"expDate\":4102376400000,\"questionText\":\"Vehicle Ownership Length\",\"answerDataType\":\"DROPDOWN\",\"answerText\":\"3\",\"questionAnswerId\":\"21070\",\"defaultValue\":\"\",\"displayOrder\":\"1\",\"product\":\"AUTO\",\"nodeName\":\"ownershiplength{vehicle_Index}\",\"showHideInd\":\"Y\",\"recordLock\":\"NO\",\"mandatoryInd\":\"NO\"},{\"questionMasterId\":9059,\"carrierId\":52,\"carrierName\":\"Foremost Insurance Group (PROD)\",\"stateCd\":\"CO\",\"effDate\":1546318800000,\"expDate\":4102376400000,\"questionText\":\"Full Permissive User Coverage\",\"answerDataType\":\"DROPDOWN\",\"answerText\":\"No\",\"questionAnswerId\":\"21117\",\"defaultValue\":\"\",\"displayOrder\":\"1\",\"product\":\"AUTO\",\"nodeName\":\"permissiveuser\",\"showHideInd\":\"Y\",\"recordLock\":\"NO\",\"mandatoryInd\":\"NO\"},{\"questionMasterId\":9063,\"carrierId\":52,\"carrierName\":\"Foremost Insurance Group (PROD)\",\"stateCd\":\"CO\",\"effDate\":1546318800000,\"expDate\":4102376400000,\"questionText\":\"Dynamite Deductible\",\"answerDataType\":\"DROPDOWN\",\"answerText\":\"NO\",\"questionAnswerId\":\"21125\",\"defaultValue\":\"\",\"displayOrder\":\"1\",\"product\":\"AUTO\",\"nodeName\":\"dynamite\",\"showHideInd\":\"Y\",\"recordLock\":\"NO\",\"mandatoryInd\":\"NO\"},{\"questionMasterId\":12968,\"carrierId\":52,\"carrierName\":\"Foremost Insurance Group (PROD)\",\"stateCd\":\"CO\",\"effDate\":-2208970800000,\"expDate\":-2208970800000,\"questionText\":\"Enter producer code\",\"answerDataType\":\"TEXT\",\"answerText\":\"0599999\",\"questionAnswerId\":null,\"defaultValue\":\"0599999\",\"displayOrder\":\"1\",\"product\":\"AUTO\",\"nodeName\":\"producercode\",\"showHideInd\":\"Y\",\"recordLock\":null,\"mandatoryInd\":\"NO\"},{\"questionMasterId\":12870,\"carrierId\":99,\"carrierName\":\"Liberty Mutual\",\"stateCd\":\"CO\",\"effDate\":-2208970800000,\"expDate\":-2208970800000,\"questionText\":\"Does the Operator agree to sign and participate in Liberty Mutual Parent-Teen Driving Contract?\",\"answerDataType\":\"DROPDOWN\",\"answerText\":\"Yes\",\"questionAnswerId\":\"33055\",\"defaultValue\":\"\",\"displayOrder\":\"1\",\"product\":\"AUTO\",\"nodeName\":\"TBA\",\"showHideInd\":\"Y\",\"recordLock\":null,\"mandatoryInd\":\"NO\"},{\"questionMasterId\":12919,\"carrierId\":99,\"carrierName\":\"Liberty Mutual\",\"stateCd\":\"CO\",\"effDate\":-2208970800000,\"expDate\":-2208970800000,\"questionText\":\"Current Odometer\",\"answerDataType\":\"TEXT\",\"answerText\":\"0\",\"questionAnswerId\":null,\"defaultValue\":\"0\",\"displayOrder\":\"1\",\"product\":\"AUTO\",\"nodeName\":\"TBA\",\"showHideInd\":\"Y\",\"recordLock\":null,\"mandatoryInd\":\"NO\"},{\"questionMasterId\":9516,\"carrierId\":7,\"carrierName\":\"MetLife Auto & Home\",\"stateCd\":\"CO\",\"effDate\":1546318800000,\"expDate\":4102376400000,\"questionText\":\"If you want to work as another agent enter a valid ID\",\"answerDataType\":\"TEXT\",\"answerText\":\"\",\"questionAnswerId\":null,\"defaultValue\":\"\",\"displayOrder\":\"1\",\"product\":\"AUTO\",\"nodeName\":\"agentidxml\",\"showHideInd\":\"Y\",\"recordLock\":\"NO\",\"mandatoryInd\":\"NO\"},{\"questionMasterId\":9561,\"carrierId\":7,\"carrierName\":\"MetLife Auto & Home\",\"stateCd\":\"CO\",\"effDate\":1546318800000,\"expDate\":4102376400000,\"questionText\":\"Qualifying Life Product with MetLife?\",\"answerDataType\":\"DROPDOWN\",\"answerText\":\"No\",\"questionAnswerId\":\"21637\",\"defaultValue\":\"\",\"displayOrder\":\"1\",\"product\":\"AUTO\",\"nodeName\":\"lifemetautoxml\",\"showHideInd\":\"Y\",\"recordLock\":\"NO\",\"mandatoryInd\":\"NO\"},{\"questionMasterId\":9663,\"carrierId\":201,\"carrierName\":\"National General\",\"stateCd\":\"CO\",\"effDate\":1546318800000,\"expDate\":4102376400000,\"questionText\":\"Is your Vehicle equipped with a GM ONStar Anti-Theft Device?\",\"answerDataType\":\"DROPDOWN\",\"answerText\":\"N\",\"questionAnswerId\":\"21841\",\"defaultValue\":\"\",\"displayOrder\":\"1\",\"product\":\"AUTO\",\"nodeName\":\"onstar{vehicle_index}\",\"showHideInd\":\"Y\",\"recordLock\":\"NO\",\"mandatoryInd\":\"NO\"},{\"questionMasterId\":12259,\"carrierId\":201,\"carrierName\":\"National General\",\"stateCd\":\"CO\",\"effDate\":-2208970800000,\"expDate\":-2208970800000,\"questionText\":\"Are any Regular Operators or drivers of vehicles to be insured by us not listed in this application, whether or not they live with you? (Regular operator means any person who has used the vehicle to be insured under this policy at least once a week or at least 30 \",\"answerDataType\":\"DROPDOWN\",\"answerText\":\"No\",\"questionAnswerId\":\"28866\",\"defaultValue\":\"\",\"displayOrder\":\"1\",\"product\":\"AUTO\",\"nodeName\":\"risk\",\"showHideInd\":\"Y\",\"recordLock\":\"NO\",\"mandatoryInd\":\"NO\"},{\"questionMasterId\":12447,\"carrierId\":25,\"carrierName\":\"Progressive Insurance\",\"stateCd\":\"CO\",\"effDate\":-2208970800000,\"expDate\":-2208970800000,\"questionText\":\"Does this Vehicle have automatic braking technology?\",\"answerDataType\":\"DROPDOWN\",\"answerText\":\"0\",\"questionAnswerId\":\"29958\",\"defaultValue\":\"\",\"displayOrder\":\"1\",\"product\":\"AUTO\",\"nodeName\":\"smarttechnology{vehicle_index}\",\"showHideInd\":\"Y\",\"recordLock\":\"NO\",\"mandatoryInd\":\"NO\"},{\"questionMasterId\":12466,\"carrierId\":25,\"carrierName\":\"Progressive Insurance\",\"stateCd\":\"CO\",\"effDate\":-2208970800000,\"expDate\":-2208970800000,\"questionText\":\"Telematics?\",\"answerDataType\":\"DROPDOWN\",\"answerText\":\"No\",\"questionAnswerId\":\"30012\",\"defaultValue\":\"\",\"displayOrder\":\"1\",\"product\":\"AUTO\",\"nodeName\":\"vehicle_v{vehicle_index}telematics\",\"showHideInd\":\"Y\",\"recordLock\":\"NO\",\"mandatoryInd\":\"NO\"},{\"questionMasterId\":12173,\"carrierId\":25,\"carrierName\":\"Progressive Insurance\",\"stateCd\":\"CO\",\"effDate\":-2208970800000,\"expDate\":-2208970800000,\"questionText\":\"Paperless Discount.\",\"answerDataType\":\"DROPDOWN\",\"answerText\":\"None\",\"questionAnswerId\":\"28694\",\"defaultValue\":\"\",\"displayOrder\":\"1\",\"product\":\"AUTO\",\"nodeName\":\"paperlessdisc\",\"showHideInd\":\"Y\",\"recordLock\":\"YES\",\"mandatoryInd\":\"YES\"},{\"questionMasterId\":12196,\"carrierId\":25,\"carrierName\":\"Progressive Insurance\",\"stateCd\":\"CO\",\"effDate\":-2208970800000,\"expDate\":-2208970800000,\"questionText\":\"Paperless Discount.\",\"answerDataType\":\"DROPDOWN\",\"answerText\":\"None\",\"questionAnswerId\":\"28740\",\"defaultValue\":\"\",\"displayOrder\":\"1\",\"product\":\"AUTO\",\"nodeName\":\"paperlessdisc\",\"showHideInd\":\"Y\",\"recordLock\":\"YES\",\"mandatoryInd\":\"YES\"},{\"questionMasterId\":10209,\"carrierId\":25,\"carrierName\":\"Progressive Insurance\",\"stateCd\":\"CO\",\"effDate\":1546318800000,\"expDate\":4102376400000,\"questionText\":\"Insured/Spouse has another in force Progressive non-auto policy?\",\"answerDataType\":\"DROPDOWN\",\"answerText\":\"No\",\"questionAnswerId\":\"23375\",\"defaultValue\":\"\",\"displayOrder\":\"1\",\"product\":\"AUTO\",\"nodeName\":\"multipolicy\",\"showHideInd\":\"Y\",\"recordLock\":\"NO\",\"mandatoryInd\":\"YES\"},{\"questionMasterId\":10227,\"carrierId\":25,\"carrierName\":\"Progressive Insurance\",\"stateCd\":\"CO\",\"effDate\":1546318800000,\"expDate\":4102376400000,\"questionText\":\"Total number of residents living in the home including listed drivers, excluded drivers, children and roommates\",\"answerDataType\":\"DROPDOWN\",\"answerText\":\"1\",\"questionAnswerId\":\"23425\",\"defaultValue\":\"\",\"displayOrder\":\"1\",\"product\":\"AUTO\",\"nodeName\":\"numresidents*AL\",\"showHideInd\":\"Y\",\"recordLock\":\"NO\",\"mandatoryInd\":\"NO\"},{\"questionMasterId\":10267,\"carrierId\":25,\"carrierName\":\"Progressive Insurance\",\"stateCd\":\"CO\",\"effDate\":1546318800000,\"expDate\":4102376400000,\"questionText\":\"Enroll in Snapshot? \",\"answerDataType\":\"DROPDOWN\",\"answerText\":\"0\",\"questionAnswerId\":\"23714\",\"defaultValue\":\"\",\"displayOrder\":\"1\",\"product\":\"AUTO\",\"nodeName\":\"IDmyrate{vehicle_index}*AL\",\"showHideInd\":\"Y\",\"recordLock\":\"NO\",\"mandatoryInd\":\"YES\"},{\"questionMasterId\":10349,\"carrierId\":25,\"carrierName\":\"Progressive Insurance\",\"stateCd\":\"CO\",\"effDate\":1546318800000,\"expDate\":4102376400000,\"questionText\":\"Producer Code\",\"answerDataType\":\"TEXT\",\"answerText\":\"86588\",\"questionAnswerId\":null,\"defaultValue\":\"86588\",\"displayOrder\":\"1\",\"product\":\"AUTO\",\"nodeName\":\"agentloginid\",\"showHideInd\":\"Y\",\"recordLock\":\"NO\",\"mandatoryInd\":\"NO\"},{\"questionMasterId\":10649,\"carrierId\":25,\"carrierName\":\"Progressive Insurance\",\"stateCd\":\"CO\",\"effDate\":1546318800000,\"expDate\":4102376400000,\"questionText\":\"Does the insured/spouse have or will have a Progressive home, condo or renters policy?\",\"answerDataType\":\"DROPDOWN\",\"answerText\":\"No\",\"questionAnswerId\":\"25005\",\"defaultValue\":\"\",\"displayOrder\":\"1\",\"product\":\"AUTO\",\"nodeName\":\"multipolicyoptions1\",\"showHideInd\":\"Y\",\"recordLock\":\"NO\",\"mandatoryInd\":\"NO\"},{\"questionMasterId\":10768,\"carrierId\":25,\"carrierName\":\"Progressive Insurance\",\"stateCd\":\"CO\",\"effDate\":1546318800000,\"expDate\":4102376400000,\"questionText\":\"Does the customer have a homeowner policy within this agency?\",\"answerDataType\":\"DROPDOWN\",\"answerText\":\"0\",\"questionAnswerId\":\"25360\",\"defaultValue\":\"\",\"displayOrder\":\"1\",\"product\":\"AUTO\",\"nodeName\":\"packagedisc*CO\",\"showHideInd\":\"Y\",\"recordLock\":\"NO\",\"mandatoryInd\":\"NO\"},{\"questionMasterId\":10779,\"carrierId\":25,\"carrierName\":\"Progressive Insurance\",\"stateCd\":\"CO\",\"effDate\":1546318800000,\"expDate\":4102376400000,\"questionText\":\"How long have you had vehicle\",\"answerDataType\":\"DROPDOWN\",\"answerText\":\"12\",\"questionAnswerId\":\"25439\",\"defaultValue\":\"\",\"displayOrder\":\"1\",\"product\":\"AUTO\",\"nodeName\":\"lengthofownership{vehicle_index}\",\"showHideInd\":\"Y\",\"recordLock\":\"NO\",\"mandatoryInd\":\"NO\"},{\"questionMasterId\":11051,\"carrierId\":35,\"carrierName\":\"Safeco Insurance\",\"stateCd\":\"CO\",\"effDate\":1546318800000,\"expDate\":4102376400000,\"questionText\":\"Please enter your producer code (Leave blank to use the same as your Safeco assigned agent code.)\",\"answerDataType\":\"TEXT\",\"answerText\":\"\",\"questionAnswerId\":null,\"defaultValue\":\"\",\"displayOrder\":\"1\",\"product\":\"AUTO\",\"nodeName\":\"contractnumber\",\"showHideInd\":\"Y\",\"recordLock\":\"NO\",\"mandatoryInd\":\"NO\"},{\"questionMasterId\":11095,\"carrierId\":35,\"carrierName\":\"Safeco Insurance\",\"stateCd\":\"CO\",\"effDate\":1546318800000,\"expDate\":4102376400000,\"questionText\":\"Please enter your Safeco assigned agent code\",\"answerDataType\":\"TEXT\",\"answerText\":\"003103\",\"questionAnswerId\":null,\"defaultValue\":\"003103\",\"displayOrder\":\"1\",\"product\":\"AUTO\",\"nodeName\":\"custpermid\",\"showHideInd\":\"Y\",\"recordLock\":\"NO\",\"mandatoryInd\":\"NO\"},{\"questionMasterId\":11139,\"carrierId\":35,\"carrierName\":\"Safeco Insurance\",\"stateCd\":\"CO\",\"effDate\":1546318800000,\"expDate\":4102376400000,\"questionText\":\"Enter Agency ID\",\"answerDataType\":\"TEXT\",\"answerText\":\"\",\"questionAnswerId\":null,\"defaultValue\":\"\",\"displayOrder\":\"1\",\"product\":\"AUTO\",\"nodeName\":\"custpermid1\",\"showHideInd\":\"Y\",\"recordLock\":\"NO\",\"mandatoryInd\":\"NO\"},{\"questionMasterId\":11182,\"carrierId\":35,\"carrierName\":\"Safeco Insurance\",\"stateCd\":\"CO\",\"effDate\":1546318800000,\"expDate\":4102376400000,\"questionText\":\"Please enter producer name\",\"answerDataType\":\"TEXT\",\"answerText\":\"003103\",\"questionAnswerId\":null,\"defaultValue\":\"003103\",\"displayOrder\":\"1\",\"product\":\"AUTO\",\"nodeName\":\"producername\",\"showHideInd\":\"Y\",\"recordLock\":\"NO\",\"mandatoryInd\":\"NO\"},{\"questionMasterId\":11230,\"carrierId\":35,\"carrierName\":\"Safeco Insurance\",\"stateCd\":\"CO\",\"effDate\":1546318800000,\"expDate\":4102376400000,\"questionText\":\"Safeco Coverage Level for all Vehicles\",\"answerDataType\":\"DROPDOWN\",\"answerText\":\"B\",\"questionAnswerId\":\"26253\",\"defaultValue\":\"\",\"displayOrder\":\"1\",\"product\":\"AUTO\",\"nodeName\":\"optpackage1\",\"showHideInd\":\"Y\",\"recordLock\":\"NO\",\"mandatoryInd\":\"NO\"},{\"questionMasterId\":11392,\"carrierId\":35,\"carrierName\":\"Safeco Insurance\",\"stateCd\":\"CO\",\"effDate\":1546318800000,\"expDate\":4102376400000,\"questionText\":\"New Vehicle Purchase Date [MM/dd/yyyy] (Purchase date cannot be prior to manufactured date.)\",\"answerDataType\":\"TEXT\",\"answerText\":\"\",\"questionAnswerId\":null,\"defaultValue\":\"\",\"displayOrder\":\"1\",\"product\":\"AUTO\",\"nodeName\":\"newvehdate{vehicle_index}\",\"showHideInd\":\"Y\",\"recordLock\":\"NO\",\"mandatoryInd\":\"NO\"},{\"questionMasterId\":11418,\"carrierId\":35,\"carrierName\":\"Safeco Insurance\",\"stateCd\":\"CO\",\"effDate\":1546318800000,\"expDate\":4102376400000,\"questionText\":\"Orignal Parts Replacement Coverage/OEM\",\"answerDataType\":\"DROPDOWN\",\"answerText\":\"\",\"questionAnswerId\":\"26809\",\"defaultValue\":\"\",\"displayOrder\":\"1\",\"product\":\"AUTO\",\"nodeName\":\"oemcoverage{vehicle_index}\",\"showHideInd\":\"Y\",\"recordLock\":\"NO\",\"mandatoryInd\":\"NO\"},{\"questionMasterId\":11701,\"carrierId\":35,\"carrierName\":\"Safeco Insurance\",\"stateCd\":\"CO\",\"effDate\":1546318800000,\"expDate\":4102376400000,\"questionText\":\"Preferred Payment Method Discount\",\"answerDataType\":\"DROPDOWN\",\"answerText\":\"EFT\",\"questionAnswerId\":\"27567\",\"defaultValue\":\"\",\"displayOrder\":\"1\",\"product\":\"AUTO\",\"nodeName\":\"paymentplannm\",\"showHideInd\":\"Y\",\"recordLock\":\"NO\",\"mandatoryInd\":\"NO\"},{\"questionMasterId\":11707,\"carrierId\":35,\"carrierName\":\"Safeco Insurance\",\"stateCd\":\"CO\",\"effDate\":1546318800000,\"expDate\":4102376400000,\"questionText\":\"RightTrack (Telematics)\",\"answerDataType\":\"DROPDOWN\",\"answerText\":\"N\",\"questionAnswerId\":\"27578\",\"defaultValue\":\"\",\"displayOrder\":\"1\",\"product\":\"AUTO\",\"nodeName\":\"Telematicsor{vehicle_index}\",\"showHideInd\":\"Y\",\"recordLock\":\"NO\",\"mandatoryInd\":\"NO\"},{\"questionMasterId\":11837,\"carrierId\":35,\"carrierName\":\"Safeco Insurance\",\"stateCd\":\"CO\",\"effDate\":1546318800000,\"expDate\":4102376400000,\"questionText\":\"Policy Number for Existing Safeco umbrella Policy\",\"answerDataType\":\"TEXT\",\"answerText\":\"\",\"questionAnswerId\":null,\"defaultValue\":\"\",\"displayOrder\":\"1\",\"product\":\"AUTO\",\"nodeName\":\"umbrellapolicyno\",\"showHideInd\":\"Y\",\"recordLock\":\"NO\",\"mandatoryInd\":\"NO\"},{\"questionMasterId\":11863,\"carrierId\":35,\"carrierName\":\"Safeco Insurance\",\"stateCd\":\"CO\",\"effDate\":1546318800000,\"expDate\":4102376400000,\"questionText\":\"Group Discount ID\",\"answerDataType\":\"TEXT\",\"answerText\":\"\",\"questionAnswerId\":null,\"defaultValue\":\"\",\"displayOrder\":\"1\",\"product\":\"AUTO\",\"nodeName\":\"driver_d{driver_index}membershipid\",\"showHideInd\":\"Y\",\"recordLock\":\"NO\",\"mandatoryInd\":\"NO\"},{\"questionMasterId\":11864,\"carrierId\":35,\"carrierName\":\"Safeco Insurance\",\"stateCd\":\"CO\",\"effDate\":1546318800000,\"expDate\":4102376400000,\"questionText\":\"Group Discount Code\",\"answerDataType\":\"TEXT\",\"answerText\":\"\",\"questionAnswerId\":null,\"defaultValue\":\"\",\"displayOrder\":\"1\",\"product\":\"AUTO\",\"nodeName\":\"driver_d{driver_index}membershiptypecd\",\"showHideInd\":\"Y\",\"recordLock\":\"NO\",\"mandatoryInd\":\"NO\"},{\"questionMasterId\":11870,\"carrierId\":35,\"carrierName\":\"Safeco Insurance\",\"stateCd\":\"CO\",\"effDate\":1546318800000,\"expDate\":4102376400000,\"questionText\":\"Ride Sharing vehicle\",\"answerDataType\":\"DROPDOWN\",\"answerText\":\"No\",\"questionAnswerId\":\"27783\",\"defaultValue\":\"\",\"displayOrder\":\"1\",\"product\":\"AUTO\",\"nodeName\":\"ridesharing{vehicle_index}\",\"showHideInd\":\"Y\",\"recordLock\":\"NO\",\"mandatoryInd\":\"NO\"},{\"questionMasterId\":12616,\"carrierId\":35,\"carrierName\":\"Safeco Insurance\",\"stateCd\":\"CO\",\"effDate\":-2208970800000,\"expDate\":-2208970800000,\"questionText\":\"Telematics?\",\"answerDataType\":\"DROPDOWN\",\"answerText\":null,\"questionAnswerId\":null,\"defaultValue\":\"\",\"displayOrder\":\"1\",\"product\":\"AUTO\",\"nodeName\":\"vehicle_v{vehicle_index}telematics\",\"showHideInd\":\"Y\",\"recordLock\":\"NO\",\"mandatoryInd\":\"NO\"},{\"questionMasterId\":12617,\"carrierId\":35,\"carrierName\":\"Safeco Insurance\",\"stateCd\":\"CO\",\"effDate\":-2208970800000,\"expDate\":-2208970800000,\"questionText\":\"Transportation Network Coverage?(TNC)\",\"answerDataType\":\"DROPDOWN\",\"answerText\":null,\"questionAnswerId\":null,\"defaultValue\":\"\",\"displayOrder\":\"1\",\"product\":\"AUTO\",\"nodeName\":\"vehicle_v{vehicle_index}tnc\",\"showHideInd\":\"Y\",\"recordLock\":\"NO\",\"mandatoryInd\":\"NO\"},{\"questionMasterId\":9185,\"carrierId\":181,\"carrierName\":\"The General\",\"stateCd\":\"CO\",\"effDate\":1546318800000,\"expDate\":4102376400000,\"questionText\":\"Double Deductible\",\"answerDataType\":\"DROPDOWN\",\"answerText\":\"N\",\"questionAnswerId\":\"21278\",\"defaultValue\":\"\",\"displayOrder\":\"1\",\"product\":\"AUTO\",\"nodeName\":\"doubleded*CO\",\"showHideInd\":\"Y\",\"recordLock\":\"NO\",\"mandatoryInd\":\"NO\"},{\"questionMasterId\":9209,\"carrierId\":181,\"carrierName\":\"The General\",\"stateCd\":\"CO\",\"effDate\":1546318800000,\"expDate\":4102376400000,\"questionText\":\"Estimated Credit\",\"answerDataType\":\"DROPDOWN\",\"answerText\":\"Superior\",\"questionAnswerId\":\"21331\",\"defaultValue\":\"\",\"displayOrder\":\"1\",\"product\":\"AUTO\",\"nodeName\":\"credit*CO\",\"showHideInd\":\"Y\",\"recordLock\":\"NO\",\"mandatoryInd\":\"NO\"}]",
    "convertedResponse" : null
  },
  "proxy" : null
}