{
  "swagger" : "2.0",
  "info" : {
    "version" : "2.0",
    "x-WM-USE_PROXY_FOR_WEB" : true,
    "x-WM-USE_PROXY_FOR_MOBILE" : true,
    "x-WM-API_ID" : "358905db-0e9a-4480-a867-8ea60ea90e8b",
    "x-WM-SERVICE_ID" : "cloud3",
    "x-WM-SERVICE_TYPE" : "RestService"
  },
  "host" : "pkhgqfmqv632.cloud.wavemakeronline.com",
  "basePath" : "",
  "tags" : [ {
    "name" : "RestServiceVirtualController",
    "description" : "Rest service swagger documentation"
  } ],
  "schemes" : [ "http" ],
  "paths" : {
    "/UpdateStatesForCarrier/invoke/services/UNIVERSAL_RATE/queryExecutor/queries/UpdateStatesForCarrier" : {
      "put" : {
        "tags" : [ "RestServiceVirtualController" ],
        "operationId" : "UpdateStatesForCarrier_RestServiceVirtualController-invoke",
        "consumes" : [ "application/json" ],
        "produces" : [ "application/json" ],
        "parameters" : [ {
          "in" : "body",
          "name" : "RequestBody",
          "description" : "RequestBody",
          "required" : false,
          "schema" : {
            "$ref" : "#/definitions/RootRequest"
          },
          "x-WM-FULLY_QUALIFIED_TYPE" : "java.lang.Object"
        } ],
        "responses" : {
          "200" : {
            "description" : "Success",
            "schema" : {
              "$ref" : "#/definitions/RootResponse"
            }
          }
        },
        "x-WM-METHOD_NAME" : "invoke",
        "x-WM-ACCESS_SPECIFIER" : "APP_ONLY"
      },
      "x-WM-BASE_PATH" : "/UpdateStatesForCarrier/invoke/services/UNIVERSAL_RATE/queryExecutor/queries/UpdateStatesForCarrier",
      "x-WM-TAG" : "RestServiceVirtualController",
      "x-WM-RELATIVE_PATH" : "",
      "x-WM-COMPLETE_PATH" : "${rest.UpdateStatesForCarrier.scheme}://${rest.UpdateStatesForCarrier.host}${rest.UpdateStatesForCarrier.basepath}/services/UNIVERSAL_RATE/queryExecutor/queries/UpdateStatesForCarrier"
    }
  },
  "definitions" : {
    "RootRequest" : {
      "required" : [ "carrier", "states" ],
      "properties" : {
        "carrier" : {
          "type" : "string"
        },
        "states" : {
          "type" : "string"
        }
      },
      "x-WM-FULLY_QUALIFIED_NAME" : "UpdateStatesForCarrier.RootRequest",
      "x-WM-TAGS" : [ "RestServiceVirtualController" ]
    },
    "RootResponse" : {
      "required" : [ "result" ],
      "properties" : {
        "result" : {
          "type" : "integer",
          "format" : "int32"
        }
      },
      "x-WM-FULLY_QUALIFIED_NAME" : "UpdateStatesForCarrier.RootResponse",
      "x-WM-TAGS" : [ "RestServiceVirtualController" ]
    }
  }
}