{
  "swagger" : "2.0",
  "info" : {
    "version" : "2.0",
    "x-WM-USE_PROXY_FOR_WEB" : true,
    "x-WM-USE_PROXY_FOR_MOBILE" : true,
    "x-WM-API_ID" : "ba50c07f-2fcf-48ee-83c7-35145db97978",
    "x-WM-SERVICE_ID" : "cloud2",
    "x-WM-SERVICE_TYPE" : "RestService"
  },
  "host" : "pkhgqfmqv632.cloud.wavemakeronline.com",
  "basePath" : "/UniRateServices",
  "tags" : [ {
    "name" : "RestServiceVirtualController",
    "description" : "Rest service swagger documentation"
  } ],
  "schemes" : [ "http" ],
  "paths" : {
    "/services/UNIVERSAL_RATE/queryExecutor/queries/GetApplicantInfoByPolicyId" : {
      "get" : {
        "tags" : [ "RestServiceVirtualController" ],
        "operationId" : "GetApplicantInfoByPolicyIdService_RestServiceVirtualController-invoke",
        "consumes" : [ "application/json" ],
        "parameters" : [ {
          "name" : "policyId",
          "in" : "query",
          "required" : false,
          "type" : "string",
          "format" : "string"
        } ],
        "responses" : {
          "200" : {
            "description" : "Success",
            "schema" : {
              "$ref" : "#/definitions/RootResponse"
            }
          }
        },
        "x-WM-METHOD_NAME" : "invoke",
        "x-WM-ACCESS_SPECIFIER" : "APP_ONLY"
      },
      "x-WM-BASE_PATH" : "/services/UNIVERSAL_RATE/queryExecutor/queries/GetApplicantInfoByPolicyId",
      "x-WM-TAG" : "RestServiceVirtualController",
      "x-WM-RELATIVE_PATH" : "",
      "x-WM-COMPLETE_PATH" : "${rest.GetApplicantInfoByPolicyIdService.scheme}://${rest.GetApplicantInfoByPolicyIdService.host}${rest.GetApplicantInfoByPolicyIdService.basepath}/services/UNIVERSAL_RATE/queryExecutor/queries/GetApplicantInfoByPolicyId"
    }
  },
  "definitions" : {
    "contentEntryItem" : {
      "required" : [ "address2", "addressCode", "addressId", "addressType", "applicantId", "applicantType", "city", "county", "dob", "education", "email", "firstName", "gender", "industry", "lastName", "licenseToDrive", "maritalStatus", "middleName", "occupation", "phoneNumber", "phoneNumberType", "phoneType", "policyId", "relation", "ssn", "stateCode", "streetName", "suffix", "unitNumber", "zipCode4", "zipCode5" ],
      "properties" : {
        "lastName" : {
          "type" : "string"
        },
        "education" : {
          "type" : "string"
        },
        "occupation" : {
          "type" : "string"
        },
        "gender" : {
          "type" : "string"
        },
        "city" : {
          "type" : "string"
        },
        "licenseToDrive" : {
          "type" : "string"
        },
        "zipCode4" : {
          "type" : "string"
        },
        "zipCode5" : {
          "type" : "string"
        },
        "county" : {
          "type" : "string"
        },
        "unitNumber" : {
          "type" : "string"
        },
        "industry" : {
          "type" : "string"
        },
        "suffix" : {
          "type" : "string"
        },
        "ssn" : {
          "type" : "string"
        },
        "relation" : {
          "type" : "string"
        },
        "addressId" : {
          "type" : "integer",
          "format" : "int32"
        },
        "streetName" : {
          "type" : "string"
        },
        "applicantType" : {
          "type" : "string"
        },
        "phoneNumberType" : {
          "type" : "string"
        },
        "applicantId" : {
          "type" : "integer",
          "format" : "int32"
        },
        "email" : {
          "type" : "string"
        },
        "addressCode" : {
          "type" : "string"
        },
        "phoneType" : {
          "type" : "string"
        },
        "address2" : {
          "type" : "string"
        },
        "addressType" : {
          "type" : "string"
        },
        "firstName" : {
          "type" : "string"
        },
        "phoneNumber" : {
          "type" : "string"
        },
        "policyId" : {
          "type" : "integer",
          "format" : "int32"
        },
        "dob" : {
          "type" : "string"
        },
        "middleName" : {
          "type" : "string"
        },
        "stateCode" : {
          "type" : "string"
        },
        "maritalStatus" : {
          "type" : "string"
        }
      },
      "x-WM-FULLY_QUALIFIED_NAME" : "GetApplicantInfoByPolicyIdService.contentEntryItem",
      "x-WM-TAGS" : [ "RestServiceVirtualController" ]
    },
    "java.lang.Object" : {
      "x-WM-FULLY_QUALIFIED_NAME" : "GetApplicantInfoByPolicyIdService.java.lang.Object",
      "x-WM-TAGS" : [ "RestServiceVirtualController" ]
    },
    "RootResponse" : {
      "required" : [ "content", "first", "last", "number", "numberOfElements", "size", "sort", "totalElements", "totalPages" ],
      "properties" : {
        "number" : {
          "type" : "integer",
          "format" : "int32"
        },
        "last" : {
          "type" : "boolean"
        },
        "numberOfElements" : {
          "type" : "integer",
          "format" : "int32"
        },
        "size" : {
          "type" : "integer",
          "format" : "int32"
        },
        "totalPages" : {
          "type" : "integer",
          "format" : "int32"
        },
        "sort" : {
          "type" : "array",
          "items" : {
            "$ref" : "#/definitions/java.lang.Object"
          },
          "x-WM-IS_LIST" : true
        },
        "content" : {
          "type" : "array",
          "items" : {
            "$ref" : "#/definitions/contentEntryItem"
          },
          "x-WM-IS_LIST" : true
        },
        "first" : {
          "type" : "boolean"
        },
        "totalElements" : {
          "type" : "integer",
          "format" : "int32"
        }
      },
      "x-WM-FULLY_QUALIFIED_NAME" : "GetApplicantInfoByPolicyIdService.RootResponse",
      "x-WM-TAGS" : [ "RestServiceVirtualController" ]
    }
  }
}