{
  "endpointAddress" : "http://pkhgqfmqv632.cloud.wavemakeronline.com/UniRateServices/services/UNIVERSAL_RATE/ImCoverage",
  "method" : "POST",
  "headers" : { },
  "redirectEnabled" : true,
  "requestBody" : "{\n\t\"coverageId\": 1,\n\t\"policyId\": 1,\n\t\"bi\": null,\n\t\"pd\": \"PD\",\n\t\"mp\": null,\n\t\"um\": null,\n\t\"uim\": null,\n\t\"multiPolicy\": null,\n\t\"retirementCommuty\": null,\n\t\"aaaDiscount\": null,\n\t\"multiCar\": null,\n\t\"insertTimestamp\": null,\n\t\"updateTimestamp\": null,\n\t\"updatedBy\": null,\n\t\"insertedBy\": null,\n\t\"versionNum\": null\n}",
  "queryParams" : { },
  "authDetails" : null,
  "contentType" : "application/json",
  "multiParamInfoList" : null,
  "sampleHttpResponseDetails" : {
    "statusCode" : 0,
    "headers" : { },
    "responseBody" : "{\"coverageId\":7,\"policyId\":1,\"bi\":null,\"pd\":\"PD\",\"mp\":null,\"um\":null,\"uim\":null,\"multiPolicy\":null,\"retirementCommuty\":null,\"aaaDiscount\":null,\"multiCar\":null,\"insertTimestamp\":null,\"updateTimestamp\":null,\"updatedBy\":null,\"insertedBy\":null,\"versionNum\":null,\"imPolicyInfo\":{\"policyId\":1,\"polNum\":null,\"polSeqNum\":null,\"company\":null,\"policyTerm\":null,\"package_\":null,\"effective\":null,\"creditCheckAuth\":null,\"insertTimestamp\":null,\"updateTimestamp\":null,\"updatedBy\":null,\"insertedBy\":null,\"riskState\":null,\"insuramatchId\":null,\"versionNum\":null}}",
    "convertedResponse" : null
  },
  "proxy" : null
}