{
  "swagger" : "2.0",
  "info" : {
    "version" : "2.0",
    "x-WM-USE_PROXY_FOR_WEB" : true,
    "x-WM-USE_PROXY_FOR_MOBILE" : true,
    "x-WM-API_ID" : "428c91b0-bf23-411c-a4bc-3a1c95d7c5fb",
    "x-WM-SERVICE_ID" : "cloud",
    "x-WM-SERVICE_TYPE" : "RestService"
  },
  "host" : "pkhgqfmqv632.cloud.wavemakeronline.com",
  "basePath" : "",
  "tags" : [ {
    "name" : "RestServiceVirtualController",
    "description" : "Rest service swagger documentation"
  } ],
  "schemes" : [ "http" ],
  "paths" : {
    "/GetVehicleByPolicyId/invoke/services/UNIVERSAL_RATE/queryExecutor/queries/GetVehicleByPolicyId" : {
      "get" : {
        "tags" : [ "RestServiceVirtualController" ],
        "operationId" : "GetVehicleByPolicyId_RestServiceVirtualController-invoke",
        "consumes" : [ "application/json" ],
        "produces" : [ "application/json" ],
        "parameters" : [ {
          "name" : "ploicyId",
          "in" : "query",
          "description" : "ploicyId",
          "required" : false,
          "type" : "string",
          "format" : "string",
          "x-WM-EDITABLE" : false
        } ],
        "responses" : {
          "200" : {
            "description" : "Success",
            "schema" : {
              "$ref" : "#/definitions/RootResponse"
            }
          }
        },
        "x-WM-METHOD_NAME" : "invoke",
        "x-WM-ACCESS_SPECIFIER" : "APP_ONLY"
      },
      "x-WM-BASE_PATH" : "/GetVehicleByPolicyId/invoke/services/UNIVERSAL_RATE/queryExecutor/queries/GetVehicleByPolicyId",
      "x-WM-TAG" : "RestServiceVirtualController",
      "x-WM-RELATIVE_PATH" : "",
      "x-WM-COMPLETE_PATH" : "${rest.GetVehicleByPolicyId.scheme}://${rest.GetVehicleByPolicyId.host}${rest.GetVehicleByPolicyId.basepath}/services/UNIVERSAL_RATE/queryExecutor/queries/GetVehicleByPolicyId"
    }
  },
  "definitions" : {
    "contentEntryItem" : {
      "required" : [ "antiLockBrake", "antiTheft", "daytimeRunningLight", "insertTimestamp", "insertedBy", "make", "model", "passiveRestraint", "policyId", "subModel", "updateTimestamp", "updatedBy", "useVehLookup", "useVinLookup", "vehicleId", "vehicleInspection", "versionNum", "vin", "year" ],
      "properties" : {
        "antiTheft" : {
          "type" : "string"
        },
        "passiveRestraint" : {
          "type" : "string"
        },
        "useVinLookup" : {
          "type" : "string"
        },
        "updatedBy" : {
          "type" : "string"
        },
        "year" : {
          "type" : "string"
        },
        "subModel" : {
          "type" : "string"
        },
        "daytimeRunningLight" : {
          "type" : "string"
        },
        "versionNum" : {
          "type" : "string"
        },
        "vehicleInspection" : {
          "type" : "string"
        },
        "insertTimestamp" : {
          "type" : "string"
        },
        "updateTimestamp" : {
          "type" : "string"
        },
        "useVehLookup" : {
          "type" : "string"
        },
        "insertedBy" : {
          "type" : "string"
        },
        "policyId" : {
          "type" : "integer",
          "format" : "int32"
        },
        "vin" : {
          "type" : "string"
        },
        "model" : {
          "type" : "string"
        },
        "vehicleId" : {
          "type" : "integer",
          "format" : "int32"
        },
        "antiLockBrake" : {
          "type" : "string"
        },
        "make" : {
          "type" : "string"
        }
      },
      "x-WM-FULLY_QUALIFIED_NAME" : "GetVehicleByPolicyId.contentEntryItem",
      "x-WM-TAGS" : [ "RestServiceVirtualController" ]
    },
    "java.lang.Object" : {
      "x-WM-FULLY_QUALIFIED_NAME" : "GetVehicleByPolicyId.java.lang.Object",
      "x-WM-TAGS" : [ "RestServiceVirtualController" ]
    },
    "RootResponse" : {
      "required" : [ "content", "first", "last", "number", "numberOfElements", "size", "sort", "totalElements", "totalPages" ],
      "properties" : {
        "number" : {
          "type" : "integer",
          "format" : "int32"
        },
        "last" : {
          "type" : "boolean"
        },
        "numberOfElements" : {
          "type" : "integer",
          "format" : "int32"
        },
        "size" : {
          "type" : "integer",
          "format" : "int32"
        },
        "totalPages" : {
          "type" : "integer",
          "format" : "int32"
        },
        "sort" : {
          "type" : "array",
          "items" : {
            "$ref" : "#/definitions/java.lang.Object"
          },
          "x-WM-IS_LIST" : true
        },
        "content" : {
          "type" : "array",
          "items" : {
            "$ref" : "#/definitions/contentEntryItem"
          },
          "x-WM-IS_LIST" : true
        },
        "first" : {
          "type" : "boolean"
        },
        "totalElements" : {
          "type" : "integer",
          "format" : "int32"
        }
      },
      "x-WM-FULLY_QUALIFIED_NAME" : "GetVehicleByPolicyId.RootResponse",
      "x-WM-TAGS" : [ "RestServiceVirtualController" ]
    }
  }
}