{
  "swagger" : "2.0",
  "info" : {
    "version" : "2.0",
    "x-WM-USE_PROXY_FOR_WEB" : true,
    "x-WM-USE_PROXY_FOR_MOBILE" : true,
    "x-WM-API_ID" : "9fe89bbc-46dd-4ad9-98c7-09800276f85f",
    "x-WM-SERVICE_ID" : "cloud2",
    "x-WM-SERVICE_TYPE" : "RestService"
  },
  "host" : "pkhgqfmqv632.cloud.wavemakeronline.com",
  "basePath" : "/UniRateServices",
  "tags" : [ {
    "name" : "RestServiceVirtualController",
    "description" : "Rest service swagger documentation"
  } ],
  "schemes" : [ "http" ],
  "paths" : {
    "/services/UNIVERSAL_RATE/ImQuestionAnswerLookup" : {
      "post" : {
        "tags" : [ "RestServiceVirtualController" ],
        "operationId" : "createImQuestionMasterLookUp_RestServiceVirtualController-invoke",
        "consumes" : [ "application/json" ],
        "produces" : [ "application/json" ],
        "parameters" : [ {
          "in" : "body",
          "name" : "RequestBody",
          "description" : "RequestBody",
          "required" : false,
          "schema" : {
            "$ref" : "#/definitions/RootRequest"
          },
          "x-WM-FULLY_QUALIFIED_TYPE" : "java.lang.Object"
        } ],
        "responses" : {
          "200" : {
            "description" : "Success",
            "schema" : {
              "$ref" : "#/definitions/RootResponse"
            }
          }
        },
        "x-WM-METHOD_NAME" : "invoke",
        "x-WM-ACCESS_SPECIFIER" : "APP_ONLY"
      },
      "x-WM-BASE_PATH" : "/services/UNIVERSAL_RATE/ImQuestionAnswerLookup",
      "x-WM-TAG" : "RestServiceVirtualController",
      "x-WM-RELATIVE_PATH" : "",
      "x-WM-COMPLETE_PATH" : "${rest.createImQuestionMasterLookUp.scheme}://${rest.createImQuestionMasterLookUp.host}${rest.createImQuestionMasterLookUp.basepath}/services/UNIVERSAL_RATE/ImQuestionAnswerLookup"
    }
  },
  "definitions" : {
    "imQuestionMaster" : {
      "required" : [ "answerDataType", "answerText", "carrierListId", "displayOrder", "effDate", "expDate", "imCarrierList", "insertTimestamp", "insertedBy", "nodeName", "product", "questionMasterId", "questionText", "recordLock", "showHideInd", "stateCd", "updateTimestamp", "updatedBy" ],
      "properties" : {
        "nodeName" : {
          "type" : "string"
        },
        "answerDataType" : {
          "type" : "string"
        },
        "product" : {
          "type" : "string"
        },
        "updatedBy" : {
          "type" : "string"
        },
        "answerText" : {
          "type" : "string"
        },
        "showHideInd" : {
          "type" : "string"
        },
        "displayOrder" : {
          "type" : "integer",
          "format" : "int32"
        },
        "insertTimestamp" : {
          "type" : "string"
        },
        "expDate" : {
          "type" : "string"
        },
        "questionText" : {
          "type" : "string"
        },
        "updateTimestamp" : {
          "type" : "string"
        },
        "insertedBy" : {
          "type" : "string"
        },
        "carrierListId" : {
          "type" : "integer",
          "format" : "int32"
        },
        "effDate" : {
          "type" : "string"
        },
        "imCarrierList" : {
          "$ref" : "#/definitions/imCarrierList"
        },
        "recordLock" : {
          "type" : "string"
        },
        "stateCd" : {
          "type" : "string"
        },
        "questionMasterId" : {
          "type" : "integer",
          "format" : "int32"
        }
      },
      "x-WM-FULLY_QUALIFIED_NAME" : "createImQuestionMasterLookUp.imQuestionMaster",
      "x-WM-TAGS" : [ "RestServiceVirtualController" ]
    },
    "imCarrierList" : {
      "required" : [ "carrierId", "carrierListId", "carrierName", "company", "insertTimestamp", "insertedBy", "updateTimestamp", "updatedBy", "versionNum" ],
      "properties" : {
        "insertedBy" : {
          "type" : "string"
        },
        "carrierListId" : {
          "type" : "integer",
          "format" : "int32"
        },
        "updatedBy" : {
          "type" : "string"
        },
        "carrierName" : {
          "type" : "string"
        },
        "versionNum" : {
          "type" : "string"
        },
        "company" : {
          "type" : "string"
        },
        "insertTimestamp" : {
          "type" : "string"
        },
        "carrierId" : {
          "type" : "integer",
          "format" : "int32"
        },
        "updateTimestamp" : {
          "type" : "string"
        }
      },
      "x-WM-FULLY_QUALIFIED_NAME" : "createImQuestionMasterLookUp.imCarrierList",
      "x-WM-TAGS" : [ "RestServiceVirtualController" ]
    },
    "RootRequest" : {
      "required" : [ "answerKey", "answerValue", "defaultInd", "displayOrder", "insertTimestamp", "insertedBy", "questionAnswerId", "questionMasterId", "updateTimestamp", "updatedBy" ],
      "properties" : {
        "answerKey" : {
          "type" : "string"
        },
        "insertedBy" : {
          "type" : "string"
        },
        "updatedBy" : {
          "type" : "string"
        },
        "answerValue" : {
          "type" : "string"
        },
        "displayOrder" : {
          "type" : "integer",
          "format" : "int32"
        },
        "questionAnswerId" : {
          "type" : "integer",
          "format" : "int32"
        },
        "questionMasterId" : {
          "type" : "integer",
          "format" : "int32"
        },
        "insertTimestamp" : {
          "type" : "string"
        },
        "defaultInd" : {
          "type" : "string"
        },
        "updateTimestamp" : {
          "type" : "string"
        }
      },
      "x-WM-FULLY_QUALIFIED_NAME" : "createImQuestionMasterLookUp.RootRequest",
      "x-WM-TAGS" : [ "RestServiceVirtualController" ]
    },
    "RootResponse" : {
      "required" : [ "answerKey", "answerValue", "defaultInd", "displayOrder", "imQuestionMaster", "insertTimestamp", "insertedBy", "questionAnswerId", "questionMasterId", "updateTimestamp", "updatedBy" ],
      "properties" : {
        "imQuestionMaster" : {
          "$ref" : "#/definitions/imQuestionMaster"
        },
        "answerKey" : {
          "type" : "string"
        },
        "insertedBy" : {
          "type" : "string"
        },
        "updatedBy" : {
          "type" : "string"
        },
        "answerValue" : {
          "type" : "string"
        },
        "displayOrder" : {
          "type" : "integer",
          "format" : "int32"
        },
        "questionAnswerId" : {
          "type" : "integer",
          "format" : "int32"
        },
        "questionMasterId" : {
          "type" : "integer",
          "format" : "int32"
        },
        "insertTimestamp" : {
          "type" : "string"
        },
        "defaultInd" : {
          "type" : "string"
        },
        "updateTimestamp" : {
          "type" : "string"
        }
      },
      "x-WM-FULLY_QUALIFIED_NAME" : "createImQuestionMasterLookUp.RootResponse",
      "x-WM-TAGS" : [ "RestServiceVirtualController" ]
    }
  }
}