{
  "getClientDetailsByName1" : {
    "_id" : "wm-getClientDetailsByName1-wm.ServiceVariable-1558096266588",
    "name" : "getClientDetailsByName1",
    "owner" : "Page",
    "category" : "wm.ServiceVariable",
    "dataBinding" : [ {
      "target" : "size",
      "value" : "200",
      "type" : "java.lang.String"
    }, {
      "target" : "k",
      "value" : "Ja",
      "type" : "java.lang.String"
    } ],
    "type" : "getClientDetailsByName.RootResponse",
    "service" : "getClientDetailsByName",
    "operation" : "invoke",
    "operationId" : "getClientDetailsByName_RestServiceVirtualController-invoke",
    "operationType" : "get",
    "serviceType" : "RestService",
    "dataSet" : [ ],
    "isList" : false,
    "maxResults" : 20,
    "startUpdate" : false,
    "autoUpdate" : true,
    "inFlightBehavior" : "executeLast",
    "transformationRequired" : false,
    "saveInPhonegap" : false,
    "controller" : "RestServiceVirtual"
  }
}