{
  "swagger" : "2.0",
  "info" : {
    "version" : "2.0",
    "x-WM-USE_PROXY_FOR_WEB" : true,
    "x-WM-USE_PROXY_FOR_MOBILE" : true,
    "x-WM-API_ID" : "74deb60f-a4fb-4d54-bc6d-84cadfcf93ef",
    "x-WM-SERVICE_ID" : "cloud3",
    "x-WM-SERVICE_TYPE" : "RestService"
  },
  "host" : "pkhgqfmqv632.cloud.wavemakeronline.com",
  "basePath" : "",
  "tags" : [ {
    "name" : "RestServiceVirtualController",
    "description" : "Rest service swagger documentation"
  } ],
  "schemes" : [ "http" ],
  "paths" : {
    "/GetQuotes/invoke/services/UNIVERSAL_RATE/queryExecutor/queries/GetQuotes" : {
      "get" : {
        "tags" : [ "RestServiceVirtualController" ],
        "operationId" : "GetQuotes_RestServiceVirtualController-invoke",
        "consumes" : [ "application/json" ],
        "parameters" : [ {
          "name" : "size",
          "in" : "query",
          "required" : false,
          "type" : "string",
          "format" : "string"
        }, {
          "name" : "page",
          "in" : "query",
          "required" : false,
          "type" : "string",
          "format" : "string"
        }, {
          "name" : "sort",
          "in" : "query",
          "required" : false,
          "type" : "string",
          "format" : "string"
        }, {
          "name" : "first_name",
          "in" : "query",
          "required" : false,
          "type" : "string",
          "format" : "string"
        }, {
          "name" : "last_name",
          "in" : "query",
          "required" : false,
          "type" : "string",
          "format" : "string"
        } ],
        "responses" : {
          "200" : {
            "description" : "Success",
            "schema" : {
              "$ref" : "#/definitions/RootResponse"
            }
          }
        },
        "x-WM-METHOD_NAME" : "invoke",
        "x-WM-ACCESS_SPECIFIER" : "APP_ONLY"
      },
      "x-WM-BASE_PATH" : "/GetQuotes/invoke/services/UNIVERSAL_RATE/queryExecutor/queries/GetQuotes",
      "x-WM-TAG" : "RestServiceVirtualController",
      "x-WM-RELATIVE_PATH" : "",
      "x-WM-COMPLETE_PATH" : "${rest.GetQuotes.scheme}://${rest.GetQuotes.host}${rest.GetQuotes.basepath}/services/UNIVERSAL_RATE/queryExecutor/queries/GetQuotes"
    }
  },
  "definitions" : {
    "contentEntryItem" : {
      "required" : [ "bi", "insertedBy", "name", "policyId", "product", "submittedStatus", "submittedTime" ],
      "properties" : {
        "insertedBy" : {
          "type" : "string"
        },
        "product" : {
          "type" : "string"
        },
        "submittedStatus" : {
          "type" : "string"
        },
        "policyId" : {
          "type" : "integer",
          "format" : "int32"
        },
        "submittedTime" : {
          "type" : "string"
        },
        "bi" : {
          "type" : "string"
        },
        "name" : {
          "type" : "string"
        }
      },
      "x-WM-FULLY_QUALIFIED_NAME" : "GetQuotes.contentEntryItem",
      "x-WM-TAGS" : [ "RestServiceVirtualController" ]
    },
    "sortEntryItem" : {
      "required" : [ "ascending", "direction", "ignoreCase", "nullHandling", "property" ],
      "properties" : {
        "nullHandling" : {
          "type" : "string"
        },
        "ignoreCase" : {
          "type" : "boolean"
        },
        "property" : {
          "type" : "string"
        },
        "ascending" : {
          "type" : "boolean"
        },
        "direction" : {
          "type" : "string"
        }
      },
      "x-WM-FULLY_QUALIFIED_NAME" : "GetQuotes.sortEntryItem",
      "x-WM-TAGS" : [ "RestServiceVirtualController" ]
    },
    "RootResponse" : {
      "required" : [ "content", "first", "last", "number", "numberOfElements", "size", "sort", "totalElements", "totalPages" ],
      "properties" : {
        "number" : {
          "type" : "integer",
          "format" : "int32"
        },
        "last" : {
          "type" : "boolean"
        },
        "numberOfElements" : {
          "type" : "integer",
          "format" : "int32"
        },
        "size" : {
          "type" : "integer",
          "format" : "int32"
        },
        "totalPages" : {
          "type" : "integer",
          "format" : "int32"
        },
        "sort" : {
          "type" : "array",
          "items" : {
            "$ref" : "#/definitions/sortEntryItem"
          },
          "x-WM-IS_LIST" : true
        },
        "content" : {
          "type" : "array",
          "items" : {
            "$ref" : "#/definitions/contentEntryItem"
          },
          "x-WM-IS_LIST" : true
        },
        "first" : {
          "type" : "boolean"
        },
        "totalElements" : {
          "type" : "integer",
          "format" : "int32"
        }
      },
      "x-WM-FULLY_QUALIFIED_NAME" : "GetQuotes.RootResponse",
      "x-WM-TAGS" : [ "RestServiceVirtualController" ]
    }
  }
}
