{
  "basePath" : "${rest.GetCarrierXml.basepath}",
  "paths" : {
    "/services/iMAutoQuote/iMAutoRequest" : {
      "post" : {
        "x-WM-METHOD_NAME" : "invoke",
        "x-WM-ACCESS_SPECIFIER" : "APP_ONLY",
        "operationId" : "GetCarrierXml_RestServiceVirtualController-invoke",
        "responses" : {
          "200" : {
            "schema" : {
              "x-WM-IS_LIST" : true,
              "type" : "array",
              "items" : {
                "$ref" : "#/definitions/RootResponseROOTEntryItem"
              }
            },
            "description" : "Success"
          }
        },
        "parameters" : [ {
          "x-WM-EDITABLE" : false,
          "in" : "query",
          "name" : "policyId",
          "format" : "string",
          "description" : "policyId",
          "type" : "string",
          "required" : false
        }, {
          "in" : "query",
          "name" : "carrierIds",
          "format" : "string",
          "type" : "string",
          "required" : false
        } ],
        "tags" : [ "RestServiceVirtualController" ],
        "consumes" : [ "application/json" ]
      },
      "x-WM-BASE_PATH" : "/services/iMAutoQuote/iMAutoRequest",
      "x-WM-TAG" : "RestServiceVirtualController",
      "x-WM-RELATIVE_PATH" : "",
      "x-WM-COMPLETE_PATH" : "${rest.GetCarrierXml.scheme}://${rest.GetCarrierXml.host}${rest.GetCarrierXml.basepath}/services/iMAutoQuote/iMAutoRequest"
    }
  },
  "host" : "${rest.GetCarrierXml.host}",
  "schemes" : [ "${rest.GetCarrierXml.scheme}" ],
  "definitions" : {
    "RootResponseROOTEntryItem" : {
      "x-WM-FULLY_QUALIFIED_NAME" : "GetCarrierXml.RootResponseROOTEntryItem",
      "x-WM-TAGS" : [ "RestServiceVirtualController" ],
      "required" : [ "applicantID", "company", "comprater", "id", "insuraMatchID", "name", "policyNumber", "quoteExecutionID", "totalPremium" ],
      "properties" : {
        "comprater" : {
          "type" : "string"
        },
        "quoteExecutionID" : {
          "type" : "string"
        },
        "name" : {
          "type" : "string"
        },
        "policyNumber" : {
          "type" : "string"
        },
        "insuraMatchID" : {
          "type" : "string"
        },
        "totalPremium" : {
          "type" : "string"
        },
        "company" : {
          "type" : "string"
        },
        "id" : {
          "type" : "string"
        },
        "applicantID" : {
          "type" : "string"
        }
      }
    },
    "RootResponse" : {
      "x-WM-FULLY_QUALIFIED_NAME" : "GetCarrierXml.RootResponse",
      "x-WM-TAGS" : [ "RestServiceVirtualController" ],
      "required" : [ "RootResponseROOT" ],
      "properties" : {
        "RootResponseROOT" : {
          "x-WM-IS_LIST" : true,
          "type" : "array",
          "items" : {
            "$ref" : "#/definitions/RootResponseROOTEntryItem"
          }
        }
      }
    }
  },
  "swagger" : "2.0",
  "info" : {
    "x-WM-USE_PROXY_FOR_WEB" : true,
    "x-WM-USE_PROXY_FOR_MOBILE" : true,
    "x-WM-API_ID" : "7eacbc9e-8e31-4959-bd98-4241f9df5d5c",
    "x-WM-SERVICE_ID" : "cloud2",
    "version" : "2.0",
    "x-WM-SERVICE_TYPE" : "RestService"
  },
  "tags" : [ {
    "name" : "RestServiceVirtualController",
    "description" : "Rest service swagger documentation"
  } ]
}