{
  "swagger" : "2.0",
  "info" : {
    "version" : "2.0",
    "x-WM-USE_PROXY_FOR_WEB" : true,
    "x-WM-USE_PROXY_FOR_MOBILE" : true,
    "x-WM-API_ID" : "02839c42-dc58-4423-a776-9e65e618be77",
    "x-WM-SERVICE_ID" : "cloud",
    "x-WM-SERVICE_TYPE" : "RestService"
  },
  "host" : "pkhgqfmqv632.cloud.wavemakeronline.com",
  "basePath" : "",
  "tags" : [ {
    "name" : "RestServiceVirtualController",
    "description" : "Rest service swagger documentation"
  } ],
  "schemes" : [ "http" ],
  "paths" : {
    "/GetImStateSpecificCoverage/invoke/services/UNIVERSAL_RATE/ImStateSpecificCoverage" : {
      "get" : {
        "tags" : [ "RestServiceVirtualController" ],
        "operationId" : "GetImStateSpecificCoverage_RestServiceVirtualController-invoke",
        "consumes" : [ "application/json" ],
        "produces" : [ "application/json" ],
        "parameters" : [ {
          "name" : "q",
          "in" : "query",
          "description" : "q",
          "required" : false,
          "type" : "string",
          "format" : "string",
          "x-WM-EDITABLE" : false
        } ],
        "responses" : {
          "200" : {
            "description" : "Success",
            "schema" : {
              "$ref" : "#/definitions/RootResponse"
            }
          }
        },
        "x-WM-METHOD_NAME" : "invoke",
        "x-WM-ACCESS_SPECIFIER" : "APP_ONLY"
      },
      "x-WM-BASE_PATH" : "/GetImStateSpecificCoverage/invoke/services/UNIVERSAL_RATE/ImStateSpecificCoverage",
      "x-WM-TAG" : "RestServiceVirtualController",
      "x-WM-RELATIVE_PATH" : "",
      "x-WM-COMPLETE_PATH" : "${rest.GetImStateSpecificCoverage.scheme}://${rest.GetImStateSpecificCoverage.host}${rest.GetImStateSpecificCoverage.basepath}/services/UNIVERSAL_RATE/ImStateSpecificCoverage"
    }
  },
  "definitions" : {
    "imPolicyInfo" : {
      "required" : [ "company", "creditCheckAuth", "effective", "insertTimestamp", "insertedBy", "insuramatchId", "package_", "polNum", "polSeqNum", "policyId", "policyTerm", "riskState", "updateTimestamp", "updatedBy", "versionNum" ],
      "properties" : {
        "creditCheckAuth" : {
          "type" : "string"
        },
        "updatedBy" : {
          "type" : "string"
        },
        "insuramatchId" : {
          "type" : "string"
        },
        "policyTerm" : {
          "type" : "string"
        },
        "versionNum" : {
          "type" : "string"
        },
        "insertTimestamp" : {
          "type" : "string"
        },
        "polSeqNum" : {
          "type" : "string"
        },
        "updateTimestamp" : {
          "type" : "string"
        },
        "effective" : {
          "type" : "string"
        },
        "insertedBy" : {
          "type" : "string"
        },
        "policyId" : {
          "type" : "integer",
          "format" : "int32"
        },
        "polNum" : {
          "type" : "string"
        },
        "package_" : {
          "type" : "string"
        },
        "company" : {
          "type" : "string"
        },
        "riskState" : {
          "type" : "string"
        }
      },
      "x-WM-FULLY_QUALIFIED_NAME" : "GetImStateSpecificCoverage.imPolicyInfo",
      "x-WM-TAGS" : [ "RestServiceVirtualController" ]
    },
    "contentEntryItem" : {
      "required" : [ "coverageName", "coverageValue", "imPolicyInfo", "insertTimestamp", "insertedBy", "policyId", "stateSpecificCoverageId", "updateTimestamp", "updatedBy", "versionNum" ],
      "properties" : {
        "insertedBy" : {
          "type" : "string"
        },
        "imPolicyInfo" : {
          "$ref" : "#/definitions/imPolicyInfo"
        },
        "stateSpecificCoverageId" : {
          "type" : "integer",
          "format" : "int32"
        },
        "coverageName" : {
          "type" : "string"
        },
        "updatedBy" : {
          "type" : "string"
        },
        "policyId" : {
          "type" : "integer",
          "format" : "int32"
        },
        "versionNum" : {
          "type" : "string"
        },
        "insertTimestamp" : {
          "type" : "string"
        },
        "updateTimestamp" : {
          "type" : "string"
        },
        "coverageValue" : {
          "type" : "string"
        }
      },
      "x-WM-FULLY_QUALIFIED_NAME" : "GetImStateSpecificCoverage.contentEntryItem",
      "x-WM-TAGS" : [ "RestServiceVirtualController" ]
    },
    "java.lang.Object" : {
      "x-WM-FULLY_QUALIFIED_NAME" : "GetImStateSpecificCoverage.java.lang.Object",
      "x-WM-TAGS" : [ "RestServiceVirtualController" ]
    },
    "RootResponse" : {
      "required" : [ "content", "first", "last", "number", "numberOfElements", "size", "sort", "totalElements", "totalPages" ],
      "properties" : {
        "number" : {
          "type" : "integer",
          "format" : "int32"
        },
        "last" : {
          "type" : "boolean"
        },
        "numberOfElements" : {
          "type" : "integer",
          "format" : "int32"
        },
        "size" : {
          "type" : "integer",
          "format" : "int32"
        },
        "totalPages" : {
          "type" : "integer",
          "format" : "int32"
        },
        "sort" : {
          "type" : "array",
          "items" : {
            "$ref" : "#/definitions/java.lang.Object"
          },
          "x-WM-IS_LIST" : true
        },
        "content" : {
          "type" : "array",
          "items" : {
            "$ref" : "#/definitions/contentEntryItem"
          },
          "x-WM-IS_LIST" : true
        },
        "first" : {
          "type" : "boolean"
        },
        "totalElements" : {
          "type" : "integer",
          "format" : "int32"
        }
      },
      "x-WM-FULLY_QUALIFIED_NAME" : "GetImStateSpecificCoverage.RootResponse",
      "x-WM-TAGS" : [ "RestServiceVirtualController" ]
    }
  }
}