{
  "endpointAddress" : "http://pkhgqfmqv632.cloud.wavemakeronline.com/UniRateServices/services/UNIVERSAL_RATE/ImAddress/{ID}",
  "method" : "PUT",
  "headers" : { },
  "redirectEnabled" : true,
  "requestBody" : "{\n\t\t\t\"addressId\": 82,\n\t\t\t\"policyId\": 198,\n\t\t\t\"addressType\": null,\n\t\t\t\"addressCode\": null,\n\t\t\t\"streetName\": null,\n\t\t\t\"streetNumber\": null,\n\t\t\t\"unitNumber\": null,\n\t\t\t\"address2\": \"road no 1 banjarahills\",\n\t\t\t\"city\": \"hyderabad\",\n\t\t\t\"stateCode\": \"CT\",\n\t\t\t\"county\": \"India\",\n\t\t\t\"zipCode5\": \"50003\",\n\t\t\t\"zipCode4\": null,\n\t\t\t\"phoneType\": null,\n\t\t\t\"phoneNumberType\": null,\n\t\t\t\"phoneNumber\": \"04033552000\",\n\t\t\t\"extn\": null,\n\t\t\t\"email\": \"abc@gmail.com\",\n\t\t\t\"prefContactMethod\": null,\n\t\t\t\"prefContactTime\": null,\n\t\t\t\"validation\": null,\n\t\t\t\"insertTimestamp\": null,\n\t\t\t\"updateTimestamp\": null,\n\t\t\t\"updatedBy\": null,\n\t\t\t\"insertedBy\": null,\n\t\t\t\"versionNum\": null,\n\t\t\t\"imPolicyInfo\": {\n\t\t\t\t\"policyId\": 198,\n\t\t\t\t\"polNum\": null,\n\t\t\t\t\"polSeqNum\": null,\n\t\t\t\t\"company\": null,\n\t\t\t\t\"policyTerm\": null,\n\t\t\t\t\"package_\": null,\n\t\t\t\t\"effective\": null,\n\t\t\t\t\"creditCheckAuth\": null,\n\t\t\t\t\"insertTimestamp\": null,\n\t\t\t\t\"updateTimestamp\": null,\n\t\t\t\t\"updatedBy\": null,\n\t\t\t\t\"insertedBy\": null,\n\t\t\t\t\"riskState\": null,\n\t\t\t\t\"insuramatchId\": null,\n\t\t\t\t\"versionNum\": null\n\t\t\t}\n\t\t}",
  "queryParams" : { },
  "authDetails" : null,
  "contentType" : "application/json",
  "multiParamInfoList" : null,
  "sampleHttpResponseDetails" : {
    "statusCode" : 200,
    "headers" : {
      "X-XSS-Protection" : [ "1; mode=block" ],
      "Content-Security-Policy" : [ "frame-ancestors 'self'" ],
      "X-Content-Type-Options" : [ "nosniff" ],
      "Content-Type" : [ "application/json;charset=UTF-8" ],
      "Transfer-Encoding" : [ "chunked" ],
      "Vary" : [ "Accept-Encoding" ],
      "Date" : [ "Fri, 15 Mar 2019 04:20:59 GMT" ],
      "Connection" : [ "keep-alive" ]
    },
    "responseBody" : "{\"addressId\":82,\"policyId\":198,\"addressType\":null,\"addressCode\":null,\"streetName\":null,\"streetNumber\":null,\"unitNumber\":null,\"address2\":\"road no 1 banjarahills\",\"city\":\"hyderabad\",\"stateCode\":\"CT\",\"county\":\"India\",\"zipCode5\":\"50003\",\"zipCode4\":null,\"phoneType\":null,\"phoneNumberType\":null,\"phoneNumber\":\"04033552000\",\"extn\":null,\"email\":\"abc@gmail.com\",\"prefContactMethod\":null,\"prefContactTime\":null,\"validation\":null,\"insertTimestamp\":null,\"updateTimestamp\":null,\"updatedBy\":null,\"insertedBy\":null,\"versionNum\":null,\"imPolicyInfo\":{\"policyId\":198,\"polNum\":null,\"polSeqNum\":null,\"company\":null,\"policyTerm\":null,\"package_\":null,\"effective\":null,\"creditCheckAuth\":null,\"insertTimestamp\":null,\"updateTimestamp\":null,\"updatedBy\":null,\"insertedBy\":null,\"riskState\":null,\"insuramatchId\":null,\"versionNum\":null}}",
    "convertedResponse" : null
  },
  "proxy" : null
}