{
  "swagger" : "2.0",
  "info" : {
    "version" : "2.0",
    "x-WM-USE_PROXY_FOR_WEB" : true,
    "x-WM-USE_PROXY_FOR_MOBILE" : true,
    "x-WM-API_ID" : "d305b5c4-7395-4c31-b438-cba2cb002eac",
    "x-WM-SERVICE_ID" : "cloud2",
    "x-WM-SERVICE_TYPE" : "RestService"
  },
  "host" : "pkhgqfmqv632.cloud.wavemakeronline.com",
  "basePath" : "/UniRateServices",
  "tags" : [ {
    "name" : "RestServiceVirtualController",
    "description" : "Rest service swagger documentation"
  } ],
  "schemes" : [ "http" ],
  "paths" : {
    "/services/UNIVERSAL_RATE/ImAddress/{ID}" : {
      "put" : {
        "tags" : [ "RestServiceVirtualController" ],
        "operationId" : "UpdateImAddress_RestServiceVirtualController-invoke",
        "consumes" : [ "application/json" ],
        "produces" : [ "application/json" ],
        "parameters" : [ {
          "in" : "body",
          "name" : "RequestBody",
          "description" : "RequestBody",
          "required" : false,
          "schema" : {
            "$ref" : "#/definitions/RootRequest"
          },
          "x-WM-FULLY_QUALIFIED_TYPE" : "java.lang.Object"
        }, {
          "name" : "ID",
          "in" : "path",
          "required" : true,
          "type" : "string"
        } ],
        "responses" : {
          "200" : {
            "description" : "Success",
            "schema" : {
              "$ref" : "#/definitions/RootResponse"
            }
          }
        },
        "x-WM-METHOD_NAME" : "invoke",
        "x-WM-ACCESS_SPECIFIER" : "APP_ONLY"
      },
      "x-WM-BASE_PATH" : "/services/UNIVERSAL_RATE/ImAddress/{ID}",
      "x-WM-TAG" : "RestServiceVirtualController",
      "x-WM-RELATIVE_PATH" : "",
      "x-WM-COMPLETE_PATH" : "${rest.UpdateImAddress.scheme}://${rest.UpdateImAddress.host}${rest.UpdateImAddress.basepath}/services/UNIVERSAL_RATE/ImAddress/{ID}"
    }
  },
  "definitions" : {
    "imPolicyInfo" : {
      "required" : [ "company", "creditCheckAuth", "effective", "insertTimestamp", "insertedBy", "insuramatchId", "package_", "polNum", "polSeqNum", "policyId", "policyTerm", "riskState", "updateTimestamp", "updatedBy", "versionNum" ],
      "properties" : {
        "creditCheckAuth" : {
          "type" : "string"
        },
        "updatedBy" : {
          "type" : "string"
        },
        "insuramatchId" : {
          "type" : "string"
        },
        "policyTerm" : {
          "type" : "string"
        },
        "versionNum" : {
          "type" : "string"
        },
        "insertTimestamp" : {
          "type" : "string"
        },
        "polSeqNum" : {
          "type" : "string"
        },
        "updateTimestamp" : {
          "type" : "string"
        },
        "effective" : {
          "type" : "string"
        },
        "insertedBy" : {
          "type" : "string"
        },
        "policyId" : {
          "type" : "integer",
          "format" : "int32"
        },
        "polNum" : {
          "type" : "string"
        },
        "package_" : {
          "type" : "string"
        },
        "company" : {
          "type" : "string"
        },
        "riskState" : {
          "type" : "string"
        }
      },
      "x-WM-FULLY_QUALIFIED_NAME" : "UpdateImAddress.imPolicyInfo",
      "x-WM-TAGS" : [ "RestServiceVirtualController" ]
    },
    "RootRequest" : {
      "required" : [ "address2", "addressCode", "addressId", "addressType", "city", "county", "email", "extn", "imPolicyInfo", "insertTimestamp", "insertedBy", "phoneNumber", "phoneNumberType", "phoneType", "policyId", "prefContactMethod", "prefContactTime", "stateCode", "streetName", "streetNumber", "unitNumber", "updateTimestamp", "updatedBy", "validation", "versionNum", "zipCode4", "zipCode5" ],
      "properties" : {
        "imPolicyInfo" : {
          "$ref" : "#/definitions/imPolicyInfo"
        },
        "extn" : {
          "type" : "string"
        },
        "city" : {
          "type" : "string"
        },
        "zipCode4" : {
          "type" : "string"
        },
        "versionNum" : {
          "type" : "string"
        },
        "zipCode5" : {
          "type" : "string"
        },
        "county" : {
          "type" : "string"
        },
        "unitNumber" : {
          "type" : "string"
        },
        "insertTimestamp" : {
          "type" : "string"
        },
        "addressId" : {
          "type" : "integer",
          "format" : "int32"
        },
        "insertedBy" : {
          "type" : "string"
        },
        "streetName" : {
          "type" : "string"
        },
        "phoneNumberType" : {
          "type" : "string"
        },
        "email" : {
          "type" : "string"
        },
        "validation" : {
          "type" : "string"
        },
        "addressCode" : {
          "type" : "string"
        },
        "phoneType" : {
          "type" : "string"
        },
        "updatedBy" : {
          "type" : "string"
        },
        "streetNumber" : {
          "type" : "string"
        },
        "address2" : {
          "type" : "string"
        },
        "addressType" : {
          "type" : "string"
        },
        "prefContactMethod" : {
          "type" : "string"
        },
        "updateTimestamp" : {
          "type" : "string"
        },
        "phoneNumber" : {
          "type" : "string"
        },
        "policyId" : {
          "type" : "integer",
          "format" : "int32"
        },
        "stateCode" : {
          "type" : "string"
        },
        "prefContactTime" : {
          "type" : "string"
        }
      },
      "x-WM-FULLY_QUALIFIED_NAME" : "UpdateImAddress.RootRequest",
      "x-WM-TAGS" : [ "RestServiceVirtualController" ]
    },
    "RootResponse" : {
      "required" : [ "address2", "addressCode", "addressId", "addressType", "city", "county", "email", "extn", "imPolicyInfo", "insertTimestamp", "insertedBy", "phoneNumber", "phoneNumberType", "phoneType", "policyId", "prefContactMethod", "prefContactTime", "stateCode", "streetName", "streetNumber", "unitNumber", "updateTimestamp", "updatedBy", "validation", "versionNum", "zipCode4", "zipCode5" ],
      "properties" : {
        "imPolicyInfo" : {
          "$ref" : "#/definitions/imPolicyInfo"
        },
        "extn" : {
          "type" : "string"
        },
        "city" : {
          "type" : "string"
        },
        "zipCode4" : {
          "type" : "string"
        },
        "versionNum" : {
          "type" : "string"
        },
        "zipCode5" : {
          "type" : "string"
        },
        "county" : {
          "type" : "string"
        },
        "unitNumber" : {
          "type" : "string"
        },
        "insertTimestamp" : {
          "type" : "string"
        },
        "addressId" : {
          "type" : "integer",
          "format" : "int32"
        },
        "insertedBy" : {
          "type" : "string"
        },
        "streetName" : {
          "type" : "string"
        },
        "phoneNumberType" : {
          "type" : "string"
        },
        "email" : {
          "type" : "string"
        },
        "validation" : {
          "type" : "string"
        },
        "addressCode" : {
          "type" : "string"
        },
        "phoneType" : {
          "type" : "string"
        },
        "updatedBy" : {
          "type" : "string"
        },
        "streetNumber" : {
          "type" : "string"
        },
        "address2" : {
          "type" : "string"
        },
        "addressType" : {
          "type" : "string"
        },
        "prefContactMethod" : {
          "type" : "string"
        },
        "updateTimestamp" : {
          "type" : "string"
        },
        "phoneNumber" : {
          "type" : "string"
        },
        "policyId" : {
          "type" : "integer",
          "format" : "int32"
        },
        "stateCode" : {
          "type" : "string"
        },
        "prefContactTime" : {
          "type" : "string"
        }
      },
      "x-WM-FULLY_QUALIFIED_NAME" : "UpdateImAddress.RootResponse",
      "x-WM-TAGS" : [ "RestServiceVirtualController" ]
    }
  }
}