{
  "endpointAddress" : "http://pkhgqfmqv632.cloud.wavemakeronline.com/UniRateServices/services/UNIVERSAL_RATE/queryExecutor/queries/GetAccidentListByPolicyId",
  "method" : "GET",
  "headers" : { },
  "redirectEnabled" : true,
  "requestBody" : "",
  "queryParams" : {
    "policyId" : "6020"
  },
  "authDetails" : null,
  "contentType" : "application/json",
  "multiParamInfoList" : null,
  "sampleHttpResponseDetails" : {
    "statusCode" : 200,
    "headers" : {
      "X-XSS-Protection" : [ "1; mode=block" ],
      "Content-Security-Policy" : [ "frame-ancestors 'self'" ],
      "X-Content-Type-Options" : [ "nosniff" ],
      "Date" : [ "Fri, 19 Apr 2019 04:43:35 GMT" ],
      "Connection" : [ "keep-alive" ],
      "Content-Type" : [ "application/json;charset=UTF-8" ],
      "Cache-Control" : [ "max-age=0" ],
      "ETag" : [ "\"0e95ae7589e025f589ba5943c9a24b285\"" ],
      "Content-Length" : [ "124" ]
    },
    "responseBody" : "{\"content\":[],\"last\":true,\"totalPages\":0,\"totalElements\":0,\"sort\":[],\"first\":true,\"numberOfElements\":0,\"size\":20,\"number\":0}",
    "convertedResponse" : null
  },
  "proxy" : null
}