{
  "swagger" : "2.0",
  "info" : {
    "version" : "2.0",
    "x-WM-USE_PROXY_FOR_WEB" : true,
    "x-WM-USE_PROXY_FOR_MOBILE" : true,
    "x-WM-API_ID" : "91d3258c-c992-47e4-82b1-57f1f597ef8c",
    "x-WM-SERVICE_ID" : "cloud",
    "x-WM-SERVICE_TYPE" : "RestService"
  },
  "host" : "pkhgqfmqv632.cloud.wavemakeronline.com",
  "basePath" : "/UniRateServices",
  "tags" : [ {
    "name" : "RestServiceVirtualController",
    "description" : "Rest service swagger documentation"
  } ],
  "schemes" : [ "http" ],
  "paths" : {
    "/services/UNIVERSAL_RATE/ImCoverage/{ID}" : {
      "put" : {
        "tags" : [ "RestServiceVirtualController" ],
        "operationId" : "UpdateImCoverage_RestServiceVirtualController-invoke",
        "consumes" : [ "application/json" ],
        "produces" : [ "application/json" ],
        "parameters" : [ {
          "in" : "body",
          "name" : "RequestBody",
          "description" : "RequestBody",
          "required" : false,
          "schema" : {
            "$ref" : "#/definitions/RootRequest"
          },
          "x-WM-FULLY_QUALIFIED_TYPE" : "java.lang.Object"
        }, {
          "name" : "ID",
          "in" : "path",
          "required" : true,
          "type" : "string"
        } ],
        "responses" : {
          "200" : {
            "description" : "Success",
            "schema" : {
              "$ref" : "#/definitions/RootResponse"
            }
          }
        },
        "x-WM-METHOD_NAME" : "invoke",
        "x-WM-ACCESS_SPECIFIER" : "APP_ONLY"
      },
      "x-WM-BASE_PATH" : "/services/UNIVERSAL_RATE/ImCoverage/{ID}",
      "x-WM-TAG" : "RestServiceVirtualController",
      "x-WM-RELATIVE_PATH" : "",
      "x-WM-COMPLETE_PATH" : "${rest.UpdateImCoverage.scheme}://${rest.UpdateImCoverage.host}${rest.UpdateImCoverage.basepath}/services/UNIVERSAL_RATE/ImCoverage/{ID}"
    }
  },
  "definitions" : {
    "imPolicyInfo" : {
      "required" : [ "company", "creditCheckAuth", "effective", "insertTimestamp", "insertedBy", "insuramatchId", "package_", "polNum", "polSeqNum", "policyId", "policyTerm", "riskState", "updateTimestamp", "updatedBy", "versionNum" ],
      "properties" : {
        "creditCheckAuth" : {
          "type" : "string"
        },
        "updatedBy" : {
          "type" : "string"
        },
        "insuramatchId" : {
          "type" : "string"
        },
        "policyTerm" : {
          "type" : "string"
        },
        "versionNum" : {
          "type" : "string"
        },
        "insertTimestamp" : {
          "type" : "string"
        },
        "polSeqNum" : {
          "type" : "string"
        },
        "updateTimestamp" : {
          "type" : "string"
        },
        "effective" : {
          "type" : "string"
        },
        "insertedBy" : {
          "type" : "string"
        },
        "policyId" : {
          "type" : "integer",
          "format" : "int32"
        },
        "polNum" : {
          "type" : "string"
        },
        "package_" : {
          "type" : "string"
        },
        "company" : {
          "type" : "string"
        },
        "riskState" : {
          "type" : "string"
        }
      },
      "x-WM-FULLY_QUALIFIED_NAME" : "UpdateImCoverage.imPolicyInfo",
      "x-WM-TAGS" : [ "RestServiceVirtualController" ]
    },
    "RootRequest" : {
      "required" : [ "aaaDiscount", "bi", "coverageId", "imPolicyInfo", "insertTimestamp", "insertedBy", "mp", "multiCar", "multiPolicy", "pd", "policyId", "retirementCommuty", "uim", "um", "updateTimestamp", "updatedBy", "versionNum" ],
      "properties" : {
        "coverageId" : {
          "type" : "integer",
          "format" : "int32"
        },
        "imPolicyInfo" : {
          "$ref" : "#/definitions/imPolicyInfo"
        },
        "mp" : {
          "type" : "string"
        },
        "updatedBy" : {
          "type" : "string"
        },
        "versionNum" : {
          "type" : "string"
        },
        "bi" : {
          "type" : "string"
        },
        "insertTimestamp" : {
          "type" : "string"
        },
        "multiCar" : {
          "type" : "string"
        },
        "aaaDiscount" : {
          "type" : "string"
        },
        "updateTimestamp" : {
          "type" : "string"
        },
        "insertedBy" : {
          "type" : "string"
        },
        "multiPolicy" : {
          "type" : "string"
        },
        "policyId" : {
          "type" : "integer",
          "format" : "int32"
        },
        "pd" : {
          "type" : "string"
        },
        "um" : {
          "type" : "string"
        },
        "uim" : {
          "type" : "string"
        },
        "retirementCommuty" : {
          "type" : "string"
        }
      },
      "x-WM-FULLY_QUALIFIED_NAME" : "UpdateImCoverage.RootRequest",
      "x-WM-TAGS" : [ "RestServiceVirtualController" ]
    },
    "RootResponse" : {
      "required" : [ "aaaDiscount", "bi", "coverageId", "imPolicyInfo", "insertTimestamp", "insertedBy", "mp", "multiCar", "multiPolicy", "pd", "policyId", "retirementCommuty", "uim", "um", "updateTimestamp", "updatedBy", "versionNum" ],
      "properties" : {
        "coverageId" : {
          "type" : "integer",
          "format" : "int32"
        },
        "imPolicyInfo" : {
          "$ref" : "#/definitions/imPolicyInfo"
        },
        "mp" : {
          "type" : "string"
        },
        "updatedBy" : {
          "type" : "string"
        },
        "versionNum" : {
          "type" : "string"
        },
        "bi" : {
          "type" : "string"
        },
        "insertTimestamp" : {
          "type" : "string"
        },
        "multiCar" : {
          "type" : "string"
        },
        "aaaDiscount" : {
          "type" : "string"
        },
        "updateTimestamp" : {
          "type" : "string"
        },
        "insertedBy" : {
          "type" : "string"
        },
        "multiPolicy" : {
          "type" : "string"
        },
        "policyId" : {
          "type" : "integer",
          "format" : "int32"
        },
        "pd" : {
          "type" : "string"
        },
        "um" : {
          "type" : "string"
        },
        "uim" : {
          "type" : "string"
        },
        "retirementCommuty" : {
          "type" : "string"
        }
      },
      "x-WM-FULLY_QUALIFIED_NAME" : "UpdateImCoverage.RootResponse",
      "x-WM-TAGS" : [ "RestServiceVirtualController" ]
    }
  }
}