{
  "swagger" : "2.0",
  "info" : {
    "version" : "2.0",
    "x-WM-USE_PROXY_FOR_WEB" : true,
    "x-WM-USE_PROXY_FOR_MOBILE" : true,
    "x-WM-API_ID" : "cc910066-5a44-41ec-a815-fc041f14166f",
    "x-WM-SERVICE_ID" : "cloud2",
    "x-WM-SERVICE_TYPE" : "RestService"
  },
  "host" : "pkhgqfmqv632.cloud.wavemakeronline.com",
  "basePath" : "/UniRateServices",
  "tags" : [ {
    "name" : "RestServiceVirtualController",
    "description" : "Rest service swagger documentation"
  } ],
  "schemes" : [ "http" ],
  "paths" : {
    "/services/UNIVERSAL_RATE/ImVehicleUse" : {
      "get" : {
        "tags" : [ "RestServiceVirtualController" ],
        "operationId" : "getVehicleUseByPolicyId_RestServiceVirtualController-invoke",
        "consumes" : [ "application/json" ],
        "produces" : [ "application/json" ],
        "parameters" : [ {
          "name" : "q",
          "in" : "query",
          "description" : "q",
          "required" : false,
          "type" : "string",
          "format" : "string",
          "x-WM-EDITABLE" : false
        } ],
        "responses" : {
          "200" : {
            "description" : "Success",
            "schema" : {
              "$ref" : "#/definitions/RootResponse"
            }
          }
        },
        "x-WM-METHOD_NAME" : "invoke",
        "x-WM-ACCESS_SPECIFIER" : "APP_ONLY"
      },
      "x-WM-BASE_PATH" : "/services/UNIVERSAL_RATE/ImVehicleUse",
      "x-WM-TAG" : "RestServiceVirtualController",
      "x-WM-RELATIVE_PATH" : "",
      "x-WM-COMPLETE_PATH" : "${rest.getVehicleUseByPolicyId.scheme}://${rest.getVehicleUseByPolicyId.host}${rest.getVehicleUseByPolicyId.basepath}/services/UNIVERSAL_RATE/ImVehicleUse"
    }
  },
  "definitions" : {
    "imPolicyInfo" : {
      "required" : [ "company", "creditCheckAuth", "effective", "insertTimestamp", "insertedBy", "insuramatchId", "package_", "polNum", "polSeqNum", "policyId", "policyTerm", "riskState", "submittedStatus", "submittedTime", "updateTimestamp", "updatedBy", "versionNum" ],
      "properties" : {
        "creditCheckAuth" : {
          "type" : "string"
        },
        "updatedBy" : {
          "type" : "string"
        },
        "insuramatchId" : {
          "type" : "string"
        },
        "submittedStatus" : {
          "type" : "string"
        },
        "policyTerm" : {
          "type" : "string"
        },
        "submittedTime" : {
          "type" : "string"
        },
        "versionNum" : {
          "type" : "string"
        },
        "insertTimestamp" : {
          "type" : "string"
        },
        "polSeqNum" : {
          "type" : "string"
        },
        "updateTimestamp" : {
          "type" : "string"
        },
        "effective" : {
          "type" : "string"
        },
        "insertedBy" : {
          "type" : "string"
        },
        "policyId" : {
          "type" : "integer",
          "format" : "int32"
        },
        "polNum" : {
          "type" : "string"
        },
        "package_" : {
          "type" : "string"
        },
        "company" : {
          "type" : "string"
        },
        "riskState" : {
          "type" : "string"
        }
      },
      "x-WM-FULLY_QUALIFIED_NAME" : "getVehicleUseByPolicyId.imPolicyInfo",
      "x-WM-TAGS" : [ "RestServiceVirtualController" ]
    },
    "contentEntryItem" : {
      "required" : [ "addiModifictnValue", "altGarage", "annualMiles", "carPool", "costNew", "daysPerWk", "imPolicyInfo", "imVehicle", "insertTimestamp", "insertedBy", "newVehicle", "odometer", "oneWayMiles", "ownership", "performance", "policyId", "princpOperator", "priorDamagePresnt", "snowPlow", "updateTimestamp", "updatedBy", "useage", "usedForDelivy", "vehicleId", "vehicleUseId", "versionNum", "weeksPerMnth" ],
      "properties" : {
        "vehicleUseId" : {
          "type" : "integer",
          "format" : "int32"
        },
        "imPolicyInfo" : {
          "$ref" : "#/definitions/imPolicyInfo"
        },
        "altGarage" : {
          "type" : "string"
        },
        "princpOperator" : {
          "type" : "string"
        },
        "versionNum" : {
          "type" : "string"
        },
        "daysPerWk" : {
          "type" : "integer",
          "format" : "int32"
        },
        "insertTimestamp" : {
          "type" : "string"
        },
        "insertedBy" : {
          "type" : "string"
        },
        "weeksPerMnth" : {
          "type" : "integer",
          "format" : "int32"
        },
        "priorDamagePresnt" : {
          "type" : "string"
        },
        "vehicleId" : {
          "type" : "string"
        },
        "annualMiles" : {
          "type" : "integer",
          "format" : "int32"
        },
        "updatedBy" : {
          "type" : "string"
        },
        "odometer" : {
          "type" : "string"
        },
        "imVehicle" : {
          "type" : "string"
        },
        "usedForDelivy" : {
          "type" : "string"
        },
        "addiModifictnValue" : {
          "type" : "string"
        },
        "carPool" : {
          "type" : "string"
        },
        "costNew" : {
          "type" : "integer",
          "format" : "int32"
        },
        "updateTimestamp" : {
          "type" : "string"
        },
        "useage" : {
          "type" : "string"
        },
        "performance" : {
          "type" : "string"
        },
        "policyId" : {
          "type" : "integer",
          "format" : "int32"
        },
        "ownership" : {
          "type" : "string"
        },
        "oneWayMiles" : {
          "type" : "integer",
          "format" : "int32"
        },
        "snowPlow" : {
          "type" : "string"
        },
        "newVehicle" : {
          "type" : "string"
        }
      },
      "x-WM-FULLY_QUALIFIED_NAME" : "getVehicleUseByPolicyId.contentEntryItem",
      "x-WM-TAGS" : [ "RestServiceVirtualController" ]
    },
    "java.lang.Object" : {
      "x-WM-FULLY_QUALIFIED_NAME" : "getVehicleUseByPolicyId.java.lang.Object",
      "x-WM-TAGS" : [ "RestServiceVirtualController" ]
    },
    "RootResponse" : {
      "required" : [ "content", "first", "last", "number", "numberOfElements", "size", "sort", "totalElements", "totalPages" ],
      "properties" : {
        "number" : {
          "type" : "integer",
          "format" : "int32"
        },
        "last" : {
          "type" : "boolean"
        },
        "numberOfElements" : {
          "type" : "integer",
          "format" : "int32"
        },
        "size" : {
          "type" : "integer",
          "format" : "int32"
        },
        "totalPages" : {
          "type" : "integer",
          "format" : "int32"
        },
        "sort" : {
          "type" : "array",
          "items" : {
            "$ref" : "#/definitions/java.lang.Object"
          },
          "x-WM-IS_LIST" : true
        },
        "content" : {
          "type" : "array",
          "items" : {
            "$ref" : "#/definitions/contentEntryItem"
          },
          "x-WM-IS_LIST" : true
        },
        "first" : {
          "type" : "boolean"
        },
        "totalElements" : {
          "type" : "integer",
          "format" : "int32"
        }
      },
      "x-WM-FULLY_QUALIFIED_NAME" : "getVehicleUseByPolicyId.RootResponse",
      "x-WM-TAGS" : [ "RestServiceVirtualController" ]
    }
  }
}