{
  "basePath" : "${rest.UpdateImEligibility.basepath}",
  "paths" : {
    "/services/UNIVERSAL_RATE/ImEligibility/{ID}" : {
      "x-WM-BASE_PATH" : "/services/UNIVERSAL_RATE/ImEligibility/{ID}",
      "x-WM-TAG" : "RestServiceVirtualController",
      "x-WM-RELATIVE_PATH" : "",
      "x-WM-COMPLETE_PATH" : "${rest.UpdateImEligibility.scheme}://${rest.UpdateImEligibility.host}${rest.UpdateImEligibility.basepath}/services/UNIVERSAL_RATE/ImEligibility/{ID}",
      "put" : {
        "x-WM-METHOD_NAME" : "invoke",
        "x-WM-ACCESS_SPECIFIER" : "APP_ONLY",
        "produces" : [ "application/json" ],
        "operationId" : "UpdateImEligibility_RestServiceVirtualController-invoke",
        "responses" : {
          "200" : {
            "schema" : {
              "$ref" : "#/definitions/RootResponse"
            },
            "description" : "Success"
          }
        },
        "parameters" : [ {
          "schema" : {
            "$ref" : "#/definitions/RootRequest"
          },
          "in" : "body",
          "name" : "RequestBody",
          "description" : "RequestBody",
          "x-WM-FULLY_QUALIFIED_TYPE" : "java.lang.Object",
          "required" : false
        }, {
          "in" : "path",
          "name" : "ID",
          "type" : "string",
          "required" : true
        } ],
        "tags" : [ "RestServiceVirtualController" ],
        "consumes" : [ "application/json" ]
      }
    }
  },
  "host" : "${rest.UpdateImEligibility.host}",
  "schemes" : [ "${rest.UpdateImEligibility.scheme}" ],
  "definitions" : {
    "RootRequest" : {
      "x-WM-FULLY_QUALIFIED_NAME" : "UpdateImEligibility.RootRequest",
      "x-WM-TAGS" : [ "RestServiceVirtualController" ],
      "required" : [ "eligibilityId", "insertTimestamp", "insertedBy", "policyId", "questionAnswer1", "questionAnswer10", "questionAnswer2", "questionAnswer3", "questionAnswer4", "questionAnswer5", "questionAnswer6", "questionAnswer7", "questionAnswer8", "questionAnswer9", "updateTimestamp", "updatedBy", "versionNum" ],
      "properties" : {
        "updatedBy" : {
          "type" : "string"
        },
        "questionAnswer10" : {
          "type" : "string"
        },
        "versionNum" : {
          "type" : "string"
        },
        "questionAnswer6" : {
          "type" : "string"
        },
        "questionAnswer7" : {
          "type" : "string"
        },
        "questionAnswer4" : {
          "type" : "string"
        },
        "insertTimestamp" : {
          "type" : "string"
        },
        "questionAnswer5" : {
          "type" : "string"
        },
        "questionAnswer8" : {
          "type" : "string"
        },
        "updateTimestamp" : {
          "type" : "string"
        },
        "questionAnswer9" : {
          "type" : "string"
        },
        "eligibilityId" : {
          "format" : "int32",
          "type" : "integer"
        },
        "insertedBy" : {
          "type" : "string"
        },
        "policyId" : {
          "format" : "int32",
          "type" : "integer"
        },
        "questionAnswer2" : {
          "type" : "string"
        },
        "questionAnswer3" : {
          "type" : "string"
        },
        "questionAnswer1" : {
          "type" : "string"
        }
      }
    },
    "RootResponse" : {
      "x-WM-FULLY_QUALIFIED_NAME" : "UpdateImEligibility.RootResponse",
      "x-WM-TAGS" : [ "RestServiceVirtualController" ],
      "required" : [ "eligibilityId", "insertTimestamp", "insertedBy", "policyId", "questionAnswer1", "questionAnswer10", "questionAnswer11", "questionAnswer12", "questionAnswer2", "questionAnswer3", "questionAnswer4", "questionAnswer5", "questionAnswer6", "questionAnswer7", "questionAnswer8", "questionAnswer9", "updateTimestamp", "updatedBy", "versionNum" ],
      "properties" : {
        "questionAnswer11" : {
          "type" : "string"
        },
        "updatedBy" : {
          "type" : "string"
        },
        "questionAnswer12" : {
          "type" : "string"
        },
        "questionAnswer10" : {
          "type" : "string"
        },
        "versionNum" : {
          "type" : "string"
        },
        "questionAnswer6" : {
          "type" : "string"
        },
        "questionAnswer7" : {
          "type" : "string"
        },
        "questionAnswer4" : {
          "type" : "string"
        },
        "insertTimestamp" : {
          "type" : "string"
        },
        "questionAnswer5" : {
          "type" : "string"
        },
        "questionAnswer8" : {
          "type" : "string"
        },
        "updateTimestamp" : {
          "type" : "string"
        },
        "questionAnswer9" : {
          "type" : "string"
        },
        "eligibilityId" : {
          "format" : "int32",
          "type" : "integer"
        },
        "insertedBy" : {
          "type" : "string"
        },
        "policyId" : {
          "format" : "int32",
          "type" : "integer"
        },
        "questionAnswer2" : {
          "type" : "string"
        },
        "questionAnswer3" : {
          "type" : "string"
        },
        "questionAnswer1" : {
          "type" : "string"
        }
      }
    }
  },
  "swagger" : "2.0",
  "info" : {
    "x-WM-USE_PROXY_FOR_WEB" : true,
    "x-WM-USE_PROXY_FOR_MOBILE" : true,
    "x-WM-API_ID" : "b3578958-b168-4988-a386-99b8110ca438",
    "x-WM-SERVICE_ID" : "cloud2",
    "version" : "2.0",
    "x-WM-SERVICE_TYPE" : "RestService"
  },
  "tags" : [ {
    "name" : "RestServiceVirtualController",
    "description" : "Rest service swagger documentation"
  } ]
}