{
  "swagger" : "2.0",
  "info" : {
    "version" : "2.0",
    "x-WM-USE_PROXY_FOR_WEB" : true,
    "x-WM-USE_PROXY_FOR_MOBILE" : true,
    "x-WM-API_ID" : "9e2e0af8-a68d-4e74-9c44-a6d99a0c1493",
    "x-WM-SERVICE_ID" : "cloud3",
    "x-WM-SERVICE_TYPE" : "RestService"
  },
  "host" : "pkhgqfmqv632.cloud.wavemakeronline.com",
  "basePath" : "",
  "tags" : [ {
    "name" : "RestServiceVirtualController",
    "description" : "Rest service swagger documentation"
  } ],
  "schemes" : [ "http" ],
  "paths" : {
    "/UpdateGeneralDefaults/invoke/services/manageGeneralDefaults/default" : {
      "put" : {
        "tags" : [ "RestServiceVirtualController" ],
        "operationId" : "UpdateGeneralDefaults_RestServiceVirtualController-invoke",
        "consumes" : [ "application/json" ],
        "parameters" : [ {
          "in" : "body",
          "name" : "RequestBody",
          "description" : "RequestBody",
          "required" : false,
          "schema" : {
            "$ref" : "#/definitions/RootRequest"
          },
          "x-WM-FULLY_QUALIFIED_TYPE" : "java.lang.Object"
        } ],
        "responses" : {
          "200" : {
            "description" : "Success",
            "schema" : {
              "$ref" : "#/definitions/RootResponse"
            }
          }
        },
        "x-WM-METHOD_NAME" : "invoke",
        "x-WM-ACCESS_SPECIFIER" : "APP_ONLY"
      },
      "x-WM-BASE_PATH" : "/UpdateGeneralDefaults/invoke/services/manageGeneralDefaults/default",
      "x-WM-TAG" : "RestServiceVirtualController",
      "x-WM-RELATIVE_PATH" : "",
      "x-WM-COMPLETE_PATH" : "${rest.UpdateGeneralDefaults.scheme}://${rest.UpdateGeneralDefaults.host}${rest.UpdateGeneralDefaults.basepath}/services/manageGeneralDefaults/default"
    }
  },
  "definitions" : {
    "RootRequestROOTEntryItem" : {
      "required" : [ "defaultValue", "listItemId" ],
      "properties" : {
        "defaultValue" : {
          "type" : "string"
        },
        "listItemId" : {
          "type" : "string"
        }
      },
      "x-WM-FULLY_QUALIFIED_NAME" : "UpdateGeneralDefaults.RootRequestROOTEntryItem",
      "x-WM-TAGS" : [ "RestServiceVirtualController" ]
    },
    "RootRequest" : {
      "required" : [ "RootRequestROOT" ],
      "properties" : {
        "RootRequestROOT" : {
          "type" : "array",
          "items" : {
            "$ref" : "#/definitions/RootRequestROOTEntryItem"
          },
          "x-WM-IS_LIST" : true
        }
      },
      "x-WM-FULLY_QUALIFIED_NAME" : "UpdateGeneralDefaults.RootRequest",
      "x-WM-TAGS" : [ "RestServiceVirtualController" ]
    },
    "RootResponse" : {
      "x-WM-FULLY_QUALIFIED_NAME" : "UpdateGeneralDefaults.RootResponse",
      "x-WM-TAGS" : [ "RestServiceVirtualController" ]
    }
  }
}